{
	"type": "FeatureCollection",
	"features": [
		{
			"type": "Feature",
			"properties": {
				"ISO": "IDN",
				"NAME": "Bantur, Malang, Jawa Timur, IDN",
				"TYPE": "Kecamatan",
				"CODE":	"35.07.03"
			},
			"geometry": {
				"type": "Polygon",
				"coordinates": [
					[
						[112.57798767,-8.33584309],[112.57781219,-8.33633995],[112.57762146,-8.33658981],[112.57723236,-8.33701038],[112.57695007,-8.33722019],[112.57665253,-8.33753014],[112.57646179,-8.33786964],[112.57653809,-8.33823967],[112.57646942,-8.33856964],[112.57637787,-8.3387146],[112.57621002,-8.33899021],[112.57588959,-8.33924007],[112.57569885,-8.33940983],[112.57544708,-8.33971024],[112.57533264,-8.34000969],[112.57508087,-8.34020042],[112.57473755,-8.34033966],[112.57420349,-8.34039974],[112.57382965,-8.34045982],[112.573349,-8.34055042],[112.57309723,-8.34072971],[112.57263947,-8.34130001],[112.5723114,-8.34164047],[112.57205963,-8.34202957],[112.57200623,-8.34243011],[112.5724411,-8.34372997],[112.57260132,-8.34438038],[112.5727005,-8.34461021],[112.57277679,-8.34531021],[112.57266235,-8.34603024],[112.5725708,-8.34632015],[112.5723877,-8.34665012],[112.57232666,-8.34722042],[112.5723114,-8.34762955],[112.5721283,-8.34813023],[112.57209015,-8.34826565],[112.57198334,-8.34869003],[112.57189178,-8.34892082],[112.57171631,-8.34935284],[112.57173157,-8.3501997],[112.57192993,-8.3506403],[112.57254028,-8.3510704],[112.57308197,-8.35145855],[112.57331848,-8.35163021],[112.57351685,-8.35188961],[112.5736084,-8.35210991],[112.57357025,-8.35227966],[112.57350159,-8.35241032],[112.57334137,-8.35251999],[112.57305908,-8.35266018],[112.5724411,-8.3530302],[112.572258,-8.35317993],[112.5719223,-8.3537302],[112.57189178,-8.35422993],[112.57202148,-8.35461998],[112.57228851,-8.35554028],[112.57292938,-8.35634995],[112.57347107,-8.35711002],[112.57380676,-8.35760975],[112.57386017,-8.35780525],[112.5739212,-8.35804176],[112.57389832,-8.35836983],[112.57369232,-8.35875988],[112.57337189,-8.35918999],[112.57290649,-8.36009026],[112.57276917,-8.36067963],[112.57260895,-8.36120224],[112.57256317,-8.36135006],[112.57250977,-8.36179733],[112.57248688,-8.36194992],[112.57246399,-8.36228848],[112.5724411,-8.36268044],[112.5723877,-8.36299992],[112.57234955,-8.3632803],[112.57228088,-8.36351013],[112.57211304,-8.36373043],[112.57187653,-8.3638401],[112.57138062,-8.36400986],[112.57080841,-8.36417961],[112.57054138,-8.36439037],[112.57019043,-8.3648901],[112.56989288,-8.36559963],[112.56977081,-8.3663702],[112.5696106,-8.36690044],[112.56948853,-8.36723995],[112.5693512,-8.3674202],[112.56923676,-8.36756039],[112.56878662,-8.36773014],[112.56800079,-8.3677597],[112.56741333,-8.36795998],[112.56697845,-8.36808014],[112.56687927,-8.36824036],[112.56601715,-8.36872005],[112.56569672,-8.36884975],[112.56510162,-8.36929035],[112.56477356,-8.36987972],[112.56448364,-8.37075043],[112.5644989,-8.37133789],[112.56450653,-8.3715601],[112.56472015,-8.37213039],[112.56488037,-8.37244987],[112.56529236,-8.37298012],[112.56555939,-8.37325954],[112.56571198,-8.37368965],[112.56568909,-8.37392044],[112.56564331,-8.37409019],[112.56558228,-8.37429047],[112.56517029,-8.375],[112.56509399,-8.37520123],[112.56501007,-8.37539291],[112.56488037,-8.37565994],[112.56484222,-8.37594986],[112.56494904,-8.37644958],[112.56517792,-8.37705994],[112.56543732,-8.37773037],[112.56565094,-8.37841988],[112.56588745,-8.37897015],[112.56606293,-8.37930012],[112.56623077,-8.3794899],[112.56645966,-8.37957001],[112.56674957,-8.37959003],[112.5670929,-8.37957001],[112.56741333,-8.37950993],[112.56764221,-8.37954998],[112.56788635,-8.37965012],[112.56816864,-8.38002968],[112.56838226,-8.3804903],[112.56861115,-8.38113976],[112.56874084,-8.38162041],[112.5688324,-8.38211441],[112.5688324,-8.38251972],[112.56877136,-8.38285351],[112.56860352,-8.38329983],[112.56841278,-8.38358974],[112.56807709,-8.38407993],[112.56775665,-8.38442993],[112.56751251,-8.38467026],[112.5672226,-8.38486004],[112.5669632,-8.38496017],[112.56661224,-8.38506985],[112.56620789,-8.38514996],[112.56600189,-8.38521957],[112.56582642,-8.38533974],[112.56574249,-8.38553047],[112.5657196,-8.38578033],[112.56577301,-8.38609982],[112.56572723,-8.3864603],[112.5656662,-8.38700008],[112.56555939,-8.38747978],[112.56542206,-8.38815975],[112.56536102,-8.38844967],[112.56529236,-8.38887024],[112.56533813,-8.38957977],[112.56536102,-8.38983631],[112.56537628,-8.39011002],[112.56533813,-8.39039993],[112.56520081,-8.39058971],[112.56465149,-8.39089012],[112.56407928,-8.39109993],[112.56363678,-8.39118004],[112.56313324,-8.39122963],[112.56265259,-8.39118958],[112.56217957,-8.3910799],[112.56175995,-8.39099979],[112.56150818,-8.39103985],[112.5612793,-8.39111042],[112.56118774,-8.39134026],[112.561203,-8.39179993],[112.56111145,-8.39247036],[112.56115723,-8.39311981],[112.561203,-8.39402008],[112.56127167,-8.39476013],[112.5614624,-8.39560032],[112.5615921,-8.39632988],[112.56156921,-8.39680958],[112.56139374,-8.39729977],[112.56089783,-8.39803028],[112.56008911,-8.39885044],[112.55947876,-8.39927006],[112.55882263,-8.39960957],[112.55806732,-8.39990997],[112.55738831,-8.40017986],[112.55661011,-8.40056992],[112.55579376,-8.40095043],[112.55516052,-8.40116024],[112.55452728,-8.40128994],[112.55391693,-8.40137005],[112.55358124,-8.40143967],[112.55329132,-8.40155983],[112.55313873,-8.40170956],[112.55306244,-8.40200996],[112.552948,-8.4019804],[112.55283356,-8.40198994],[112.55283356,-8.40209007],[112.55283356,-8.40225983],[112.55255127,-8.40244007],[112.55217743,-8.40289021],[112.55177307,-8.40334988],[112.55148315,-8.40361023],[112.55127716,-8.40379047],[112.55111694,-8.40400982],[112.55106354,-8.40425968],[112.55103302,-8.40439987],[112.55094147,-8.40450954],[112.55078125,-8.40456009],[112.55023956,-8.40452003],[112.55010223,-8.40447998],[112.54995728,-8.40410042],[112.54989624,-8.40402031],[112.54979706,-8.40398979],[112.54946899,-8.40421009],[112.549263,-8.40435982],[112.54889679,-8.40466022],[112.54868317,-8.40478039],[112.54852295,-8.40487957],[112.54843903,-8.4049902],[112.5484314,-8.40511036],[112.54846954,-8.40534019],[112.54843903,-8.40544033],[112.54824829,-8.40554047],[112.54797363,-8.40573025],[112.5478363,-8.40581989],[112.54768372,-8.40579987],[112.54768372,-8.40554047],[112.54766083,-8.40542984],[112.54760742,-8.40536022],[112.54750061,-8.40534973],[112.54709625,-8.4056797],[112.54694366,-8.40579987],[112.54670715,-8.40585041],[112.54660034,-8.40583038],[112.54653931,-8.4057703],[112.54653931,-8.40559006],[112.54662323,-8.4050703],[112.54659271,-8.40482998],[112.54649353,-8.4046402],[112.54638672,-8.40454006],[112.54611969,-8.40447998],[112.54579926,-8.40425014],[112.54569244,-8.40412045],[112.54562378,-8.40355968],[112.54560089,-8.40345001],[112.54553223,-8.40340996],[112.54541016,-8.40345955],[112.54519653,-8.40357018],[112.54429626,-8.40369987],[112.54369354,-8.40375042],[112.54308319,-8.40382957],[112.54225922,-8.40394974],[112.5406723,-8.40406036],[112.54026794,-8.40402985],[112.53981781,-8.4039402],[112.53923798,-8.40380955],[112.53901672,-8.40378475],[112.5388031,-8.40375996],[112.53803253,-8.40377045],[112.53690338,-8.40373039],[112.53636169,-8.4037199],[112.53605652,-8.4037199],[112.5354538,-8.40355015],[112.53482819,-8.40328979],[112.53397369,-8.40301037],[112.53373718,-8.40290928],[112.5334549,-8.40278339],[112.53298187,-8.40389061],[112.52825165,-8.40229034],[112.52825165,-8.40373516],[112.52693176,-8.40334606],[112.52786255,-8.4045248],[112.52707672,-8.40597248],[112.52667999,-8.40531731],[112.52693939,-8.4042654],[112.52532196,-8.40353012],[112.52515411,-8.40347672],[112.52175903,-8.39874268],[112.52163696,-8.3985796],[112.52126312,-8.39799023],[112.52102661,-8.39780998],[112.51933289,-8.39684963],[112.51740265,-8.3961401],[112.51628113,-8.39583969],[112.51618958,-8.39591026],[112.51592255,-8.39618969],[112.51569366,-8.39624977],[112.51506042,-8.39647961],[112.51490784,-8.39665031],[112.51486969,-8.39680958],[112.51490784,-8.39704037],[112.5149765,-8.39712048],[112.51516724,-8.39721012],[112.51537323,-8.39733028],[112.51541138,-8.39741993],[112.51541901,-8.39764023],[112.51534271,-8.39780045],[112.51521301,-8.39789963],[112.51509094,-8.39791012],[112.51499176,-8.39785004],[112.51489258,-8.39770031],[112.51477051,-8.39750957],[112.51463318,-8.39745045],[112.51291656,-8.39704037],[112.51264191,-8.39698982],[112.51249695,-8.39701462],[112.51150513,-8.39613342],[112.51126862,-8.39610577],[112.51137543,-8.39510536],[112.51096344,-8.39461327],[112.51022339,-8.39519215],[112.50996399,-8.39663315],[112.50948334,-8.39660358],[112.50932312,-8.39700031],[112.50927734,-8.39725018],[112.50923157,-8.39745045],[112.50914764,-8.39793015],[112.50910187,-8.39846992],[112.50906372,-8.39861965],[112.5089798,-8.39896965],[112.50884247,-8.39906025],[112.50865936,-8.39908981],[112.50842285,-8.39914036],[112.50837708,-8.39923],[112.50836182,-8.39953041],[112.50830078,-8.40003014],[112.50891876,-8.40153503],[112.50675964,-8.40246677],[112.50635529,-8.40088558],[112.50553131,-8.4008894],[112.50511932,-8.40171337],[112.50603485,-8.40269756],[112.50537872,-8.40377045],[112.50523376,-8.40359974],[112.50511169,-8.4032402],[112.50508881,-8.40299988],[112.50514984,-8.40277004],[112.50520325,-8.40252018],[112.50517273,-8.40242958],[112.50505066,-8.40235996],[112.50483704,-8.40229988],[112.50466919,-8.4023304],[112.50444031,-8.40244007],[112.50418091,-8.40264034],[112.50390625,-8.40293026],[112.50390625,-8.40303993],[112.50395966,-8.40310001],[112.50418854,-8.4031601],[112.5043869,-8.40324974],[112.50454712,-8.40340042],[112.50463104,-8.40353966],[112.5046463,-8.40371037],[112.50462341,-8.40404797],[112.50289917,-8.40468502],[112.50273132,-8.40361595],[112.50330353,-8.40287304],[112.50338745,-8.40205002],[112.50157166,-8.40246773],[112.50173187,-8.4009037],[112.49949646,-8.40033627],[112.49834442,-8.40099907],[112.49643707,-8.39952469],[112.49619293,-8.4010067],[112.49437714,-8.40109634],[112.49372864,-8.40030003],[112.49337769,-8.39986515],[112.49188995,-8.40036488],[112.49139404,-8.39954376],[112.48990631,-8.39946747],[112.48891449,-8.39897728],[112.48734283,-8.39931202],[112.48733521,-8.39741898],[112.48633575,-8.39635277],[112.48575592,-8.39487362],[112.48409271,-8.39405918],[112.48397064,-8.39393806],[112.48362732,-8.39359474],[112.48357391,-8.39315224],[112.48330688,-8.39084721],[112.48330688,-8.3895092],[112.48330688,-8.38943672],[112.48345184,-8.38943672],[112.48414612,-8.38943386],[112.48542786,-8.38978195],[112.48635101,-8.38916683],[112.48648834,-8.38907242],[112.48648834,-8.38836575],[112.48648834,-8.38819122],[112.48695374,-8.3880024],[112.48724365,-8.38778019],[112.48732758,-8.38764954],[112.48736572,-8.3875103],[112.48736572,-8.38644791],[112.48735809,-8.38553143],[112.48735809,-8.38413239],[112.48888397,-8.38105297],[112.48916626,-8.38031006],[112.48921967,-8.37987995],[112.48928833,-8.37935734],[112.4892807,-8.37795353],[112.49069214,-8.37618542],[112.49121094,-8.3745966],[112.48982239,-8.37185478],[112.48978424,-8.3717804],[112.48987579,-8.37171364],[112.49044037,-8.37098598],[112.4905014,-8.37057972],[112.49058533,-8.37030315],[112.4906311,-8.36983299],[112.49066162,-8.3694849],[112.49047852,-8.36918354],[112.48966217,-8.36784172],[112.48959351,-8.36772633],[112.4899292,-8.36700249],[112.48959351,-8.3666687],[112.49037933,-8.36536217],[112.49046326,-8.36523342],[112.4920578,-8.36260414],[112.49216461,-8.36258698],[112.49269104,-8.36264133],[112.49293518,-8.36272717],[112.4930191,-8.3626194],[112.49435425,-8.36294746],[112.49523926,-8.36223888],[112.49514771,-8.36152363],[112.49504852,-8.36082745],[112.49487305,-8.35924339],[112.49585724,-8.35774899],[112.4959259,-8.35765839],[112.49652863,-8.35674763],[112.49692535,-8.35583496],[112.49723053,-8.35505772],[112.49806213,-8.35290813],[112.49793243,-8.35129833],[112.49748993,-8.34935951],[112.49773407,-8.34892845],[112.49858856,-8.347435],[112.49954987,-8.34574509],[112.49960327,-8.34564877],[112.49889374,-8.34529877],[112.49854279,-8.34426975],[112.49835205,-8.34371376],[112.49749756,-8.34320354],[112.49729156,-8.34240437],[112.49811554,-8.34131622],[112.49814606,-8.34124947],[112.49940491,-8.34018326],[112.50030518,-8.3406601],[112.5008316,-8.34101295],[112.50108337,-8.34117889],[112.50222778,-8.34038162],[112.5049057,-8.33820343],[112.5050354,-8.33808041],[112.50485992,-8.33770275],[112.50445557,-8.33661556],[112.50428772,-8.33513546],[112.50383759,-8.33513641],[112.50328064,-8.33523178],[112.50325775,-8.33513927],[112.50292206,-8.33373642],[112.50256348,-8.33223724],[112.50202942,-8.33206272],[112.50197601,-8.3319931],[112.50119781,-8.3310051],[112.50078583,-8.33048058],[112.50027466,-8.33016491],[112.49936676,-8.32960415],[112.49918365,-8.32890034],[112.49924469,-8.32876873],[112.49944305,-8.32829952],[112.50042725,-8.32606411],[112.50054169,-8.32596779],[112.50054169,-8.32538414],[112.50073242,-8.32489204],[112.50086975,-8.3245306],[112.50089264,-8.3238306],[112.50085449,-8.32332134],[112.50093842,-8.32304668],[112.50160217,-8.32070446],[112.50211334,-8.31905556],[112.50508118,-8.3142271],[112.50346375,-8.31423378],[112.50321198,-8.31341171],[112.50375366,-8.31209087],[112.50453186,-8.31201077],[112.50456238,-8.31120968],[112.50456238,-8.31108475],[112.50460052,-8.31003189],[112.50427246,-8.30962181],[112.50426483,-8.30854607],[112.50431824,-8.3073616],[112.50468445,-8.30709076],[112.50550079,-8.30648994],[112.50571442,-8.30589199],[112.50615692,-8.30467701],[112.50574493,-8.30460453],[112.50519562,-8.30460644],[112.50524139,-8.30405521],[112.50524139,-8.3036499],[112.50514984,-8.30346489],[112.50469971,-8.30257607],[112.50485229,-8.30143738],[112.5067215,-8.29882908],[112.50669098,-8.29870987],[112.50667572,-8.29863453],[112.50647736,-8.29785442],[112.50565338,-8.29792786],[112.50540924,-8.29745197],[112.50579071,-8.29681778],[112.50589752,-8.29663658],[112.50583649,-8.29637146],[112.50576782,-8.29606915],[112.50564575,-8.29558086],[112.50714111,-8.2940855],[112.50740814,-8.29358673],[112.50748444,-8.29353905],[112.5080719,-8.29362869],[112.50828552,-8.29366207],[112.50866699,-8.29379749],[112.50897217,-8.29378223],[112.50970459,-8.29393291],[112.51006317,-8.2940588],[112.51092529,-8.2940321],[112.5111618,-8.29426193],[112.51127625,-8.29429436],[112.51135254,-8.29437447],[112.51155853,-8.29437351],[112.51218414,-8.29453182],[112.51389313,-8.29369736],[112.51469421,-8.2934742],[112.51528931,-8.29335499],[112.51577759,-8.29340744],[112.51663208,-8.29355335],[112.51767731,-8.29302788],[112.51800537,-8.29299736],[112.5213623,-8.29268456],[112.52394104,-8.29244423],[112.52536011,-8.2925415],[112.52841949,-8.29282284],[112.52825165,-8.29356384],[112.52993774,-8.29337883],[112.53046417,-8.29332066],[112.53163147,-8.29319382],[112.53213501,-8.29313755],[112.53528595,-8.29365635],[112.53547668,-8.29368782],[112.53642273,-8.29314423],[112.53964996,-8.29319096],[112.54152679,-8.29323292],[112.54161072,-8.29321957],[112.54174805,-8.29319859],[112.54601288,-8.29254246],[112.54626465,-8.29264927],[112.54625702,-8.29092026],[112.5460434,-8.29056931],[112.54612732,-8.28960896],[112.54612732,-8.28907204],[112.54624939,-8.28845215],[112.54633331,-8.28837013],[112.54641724,-8.28823185],[112.54682159,-8.2875452],[112.54689026,-8.28721523],[112.54690552,-8.28713322],[112.54665375,-8.28697014],[112.54671478,-8.28679562],[112.54689789,-8.28622913],[112.54650116,-8.28593731],[112.54627228,-8.28556061],[112.54615784,-8.28516293],[112.54668427,-8.28473759],[112.54697418,-8.28450108],[112.54699707,-8.28442097],[112.5470047,-8.28427601],[112.5471344,-8.28326702],[112.54721832,-8.28186798],[112.54727936,-8.28168011],[112.54750824,-8.28135586],[112.54759216,-8.28137493],[112.54759979,-8.28121281],[112.54762268,-8.28112602],[112.54738617,-8.28098583],[112.54736328,-8.28054905],[112.54738617,-8.28044224],[112.5478363,-8.27985477],[112.54803467,-8.27972603],[112.54853058,-8.27972412],[112.54885864,-8.27972317],[112.54958344,-8.27950382],[112.54968262,-8.2794733],[112.55088043,-8.27946854],[112.55091858,-8.27906132],[112.55091858,-8.27864647],[112.55075073,-8.27861404],[112.55050659,-8.27856541],[112.55054474,-8.27752209],[112.55056,-8.2770319],[112.5508194,-8.27136993],[112.55099487,-8.26805592],[112.55287933,-8.26818752],[112.55290222,-8.26581287],[112.55277252,-8.26580524],[112.55201721,-8.26576424],[112.55179596,-8.26575279],[112.55137634,-8.26555347],[112.55119324,-8.26536179],[112.5507431,-8.26494789],[112.55059814,-8.26494789],[112.55039978,-8.26494884],[112.54998779,-8.26471519],[112.54928589,-8.26455975],[112.54888153,-8.26448345],[112.54846191,-8.2644701],[112.54824066,-8.26447105],[112.54818726,-8.26453114],[112.54788971,-8.26462173],[112.54772949,-8.26458549],[112.5473175,-8.26448917],[112.54701233,-8.26456928],[112.54691315,-8.26452541],[112.54667664,-8.26442432],[112.54601288,-8.2642622],[112.54592896,-8.26422501],[112.54538727,-8.26368809],[112.54503632,-8.26360226],[112.5448761,-8.26355076],[112.54411316,-8.26355362],[112.54387665,-8.26385498],[112.54374695,-8.2640152],[112.54315948,-8.26440811],[112.54285431,-8.26457024],[112.54270935,-8.26457119],[112.54186249,-8.26423359],[112.54162598,-8.26411533],[112.54140472,-8.2641716],[112.54121399,-8.26417255],[112.54083252,-8.26466274],[112.54033661,-8.26476383],[112.53922272,-8.26403236],[112.53926086,-8.26396656],[112.53948212,-8.26356697],[112.53890991,-8.26336193],[112.5384903,-8.26313019],[112.53856659,-8.26228714],[112.53874969,-8.2614584],[112.53863525,-8.26126671],[112.53847504,-8.2610054],[112.53846741,-8.26003075],[112.53845978,-8.25823975],[112.53842926,-8.25812149],[112.53818512,-8.25712013],[112.53829193,-8.25587082],[112.53845978,-8.25541592],[112.53863525,-8.25501919],[112.53865051,-8.25490189],[112.53869629,-8.25446033],[112.53871155,-8.25414944],[112.53864288,-8.25384521],[112.53861237,-8.25368977],[112.53853607,-8.25336361],[112.53853607,-8.25302982],[112.53855133,-8.25286102],[112.53871918,-8.25244236],[112.53874969,-8.25227261],[112.53881073,-8.25198269],[112.53879547,-8.25187397],[112.53865814,-8.25059891],[112.53881073,-8.24945736],[112.53914642,-8.24893284],[112.53997803,-8.24897099],[112.54101563,-8.24912167],[112.54161072,-8.24959373],[112.54193878,-8.24985409],[112.54230499,-8.24948502],[112.54221344,-8.24874878],[112.54245758,-8.24853134],[112.54263306,-8.24837685],[112.54294586,-8.24810219],[112.5439682,-8.24790573],[112.54405975,-8.24788666],[112.54528046,-8.24754906],[112.54541779,-8.24752331],[112.54553223,-8.247159],[112.54563141,-8.24685383],[112.54572296,-8.24655724],[112.54686737,-8.24655247],[112.54712677,-8.24609661],[112.5473175,-8.24601936],[112.5477066,-8.24586773],[112.54810333,-8.24530411],[112.54798126,-8.24454403],[112.54799652,-8.24443817],[112.54785156,-8.24365902],[112.54787445,-8.24300003],[112.54769135,-8.24273109],[112.54763031,-8.24200439],[112.54749298,-8.2414856],[112.54749298,-8.24057674],[112.54719543,-8.23989582],[112.54680634,-8.23957253],[112.54663849,-8.23882389],[112.54614258,-8.23824024],[112.5456543,-8.23766136],[112.54562378,-8.23743153],[112.54556274,-8.23679543],[112.54602051,-8.23642159],[112.54615784,-8.23592186],[112.54631805,-8.2355442],[112.54650116,-8.23511028],[112.5464859,-8.2350378],[112.54657745,-8.2350378],[112.5467453,-8.23501301],[112.54703522,-8.2350111],[112.54884338,-8.23500443],[112.54893494,-8.23451805],[112.54933167,-8.23461437],[112.54981232,-8.2339325],[112.55117798,-8.2338295],[112.55127716,-8.2332468],[112.55226135,-8.23297405],[112.55234528,-8.23295116],[112.55271149,-8.23196316],[112.55340576,-8.22997665],[112.55348206,-8.22990036],[112.55389404,-8.22946548],[112.55438995,-8.22918701],[112.55487823,-8.22856712],[112.55536652,-8.22827435],[112.55640411,-8.22711563],[112.55683899,-8.22643375],[112.55695343,-8.22625542],[112.55728912,-8.2258749],[112.55747223,-8.22566891],[112.55799103,-8.22459602],[112.55899048,-8.22326088],[112.55973053,-8.22146034],[112.56031036,-8.2201395],[112.56066132,-8.21935749],[112.56084442,-8.21921921],[112.56099701,-8.21913624],[112.5610733,-8.21909142],[112.56103516,-8.21876907],[112.5611496,-8.21833611],[112.56222534,-8.21571827],[112.56326294,-8.21590328],[112.56335449,-8.21584702],[112.56349182,-8.2157135],[112.5640564,-8.21615124],[112.56436157,-8.21501446],[112.56420135,-8.21457577],[112.56407166,-8.21338272],[112.56478882,-8.21234322],[112.56474304,-8.21201706],[112.5647049,-8.21156311],[112.56468201,-8.21124458],[112.56464386,-8.21075535],[112.56424713,-8.21007633],[112.56414795,-8.20939732],[112.5638504,-8.20881557],[112.56375122,-8.20735836],[112.56336212,-8.20621204],[112.56330872,-8.20605564],[112.56305695,-8.20532131],[112.56295013,-8.20502949],[112.56286621,-8.20491028],[112.56272125,-8.20492172],[112.56253815,-8.20492744],[112.56231689,-8.20493412],[112.56225586,-8.20477962],[112.56214905,-8.2045536],[112.56207275,-8.20425797],[112.56200409,-8.20394039],[112.5619812,-8.20385456],[112.56175232,-8.20357609],[112.5616684,-8.20346546],[112.56161499,-8.20340061],[112.56123352,-8.20292282],[112.561409,-8.20176983],[112.56130981,-8.2012682],[112.56108856,-8.20104694],[112.56097412,-8.20094013],[112.5616684,-8.20052242],[112.56174469,-8.20039368],[112.5617981,-8.20029449],[112.56196594,-8.20000839],[112.56246948,-8.19954395],[112.56264496,-8.19938087],[112.56276703,-8.19929409],[112.56285095,-8.19923401],[112.56323242,-8.19964886],[112.56331635,-8.19971943],[112.56397247,-8.200243],[112.56481171,-8.20039177],[112.56523132,-8.2004652],[112.56591797,-8.20036411],[112.56650543,-8.20042992],[112.56890106,-8.20056057],[112.5692215,-8.20065784],[112.56980896,-8.20083427],[112.57038879,-8.2010088],[112.57091522,-8.20203781],[112.57117462,-8.20224094],[112.5716629,-8.20252609],[112.57180023,-8.20286369],[112.57228088,-8.20313263],[112.57232666,-8.20322895],[112.5728302,-8.20421219],[112.57277679,-8.2043581],[112.57334137,-8.20580006],[112.57350159,-8.2062149],[112.57435608,-8.20800209],[112.57515717,-8.20879173],[112.57594299,-8.20956898],[112.57654572,-8.21016121],[112.57704926,-8.21041012],[112.57714844,-8.21038151],[112.57791138,-8.21015644],[112.57802582,-8.21012402],[112.57834625,-8.20994473],[112.57887268,-8.20965576],[112.5797348,-8.21002674],[112.58143616,-8.21149254],[112.58190918,-8.21212292],[112.58216858,-8.21234035],[112.58280945,-8.21298027],[112.58299255,-8.21317101],[112.58345795,-8.21364307],[112.58508301,-8.21401787],[112.58534241,-8.21404934],[112.58563232,-8.21408463],[112.58592224,-8.21411991],[112.58652496,-8.21398735],[112.58714294,-8.21425915],[112.58737183,-8.21436024],[112.58752441,-8.21488571],[112.58757782,-8.21498966],[112.58770752,-8.21549988],[112.58779144,-8.21578026],[112.58849335,-8.21611023],[112.58865356,-8.2162199],[112.58911133,-8.21655083],[112.58944702,-8.2167902],[112.58985901,-8.21675873],[112.59008026,-8.21674538],[112.59122467,-8.21734428],[112.59388733,-8.21853733],[112.59495544,-8.21904182],[112.59588623,-8.21943283],[112.59600067,-8.21948147],[112.59606934,-8.2195673],[112.59626007,-8.21980858],[112.5963974,-8.21998119],[112.59654999,-8.22016144],[112.59673309,-8.22039032],[112.59679413,-8.2204628],[112.59689331,-8.22058487],[112.5969162,-8.22070408],[112.59695435,-8.22088242],[112.59710693,-8.22162533],[112.59740448,-8.22194862],[112.59765625,-8.22222233],[112.59772491,-8.22227192],[112.59790039,-8.22227097],[112.59809113,-8.22227001],[112.5982666,-8.22227001],[112.59929657,-8.2222681],[112.59973145,-8.22226715],[112.60048676,-8.22226524],[112.60051727,-8.22241306],[112.60054016,-8.22255039],[112.60081482,-8.22311974],[112.60131836,-8.22430325],[112.60142517,-8.22455215],[112.60144043,-8.22471809],[112.60149384,-8.22526455],[112.60157776,-8.2261591],[112.60192108,-8.22706985],[112.60202789,-8.227355],[112.60327148,-8.22749329],[112.60368347,-8.22753906],[112.60378265,-8.22757912],[112.60470581,-8.22846603],[112.60494232,-8.2288599],[112.60504913,-8.22957993],[112.60514832,-8.23027039],[112.60526276,-8.23075962],[112.60533905,-8.23079872],[112.60529327,-8.23098087],[112.60445404,-8.23301506],[112.60439301,-8.23316193],[112.60359192,-8.23507595],[112.60295105,-8.23660469],[112.60276794,-8.23690605],[112.60258484,-8.23719406],[112.60170746,-8.23859787],[112.60162354,-8.23874569],[112.60157776,-8.23882103],[112.60067749,-8.24042416],[112.60059357,-8.24056721],[112.60009766,-8.24145794],[112.60112762,-8.24196911],[112.60136414,-8.24209499],[112.60218811,-8.24250126],[112.60169983,-8.24411488],[112.60151672,-8.2446394],[112.60393524,-8.24517536],[112.6039505,-8.24527645],[112.60373688,-8.24695683],[112.60353851,-8.24855137],[112.60303497,-8.24929047],[112.60279846,-8.24963856],[112.6027298,-8.24973774],[112.60385132,-8.25088596],[112.60402679,-8.25106716],[112.60409546,-8.25113773],[112.60431671,-8.25136089],[112.60440063,-8.25140858],[112.60673523,-8.2520628],[112.60679626,-8.25214767],[112.60687256,-8.25233078],[112.60678864,-8.25379181],[112.6067276,-8.25472546],[112.60726166,-8.25497818],[112.60721588,-8.25577354],[112.60720062,-8.2561903],[112.60749054,-8.2567625],[112.60731506,-8.258708],[112.60704041,-8.25921535],[112.60642242,-8.26039028],[112.60559845,-8.2602129],[112.60479736,-8.26003933],[112.60238647,-8.25951862],[112.60182953,-8.25939083],[112.59899902,-8.25872421],[112.59867096,-8.26058769],[112.5990448,-8.26140881],[112.59931946,-8.26194763],[112.60184479,-8.26337242],[112.60216522,-8.26354027],[112.60238647,-8.26439095],[112.60242462,-8.264534],[112.60255432,-8.26459885],[112.60306549,-8.26480579],[112.60311127,-8.26602459],[112.60314941,-8.26740551],[112.60578156,-8.26798916],[112.60609436,-8.26813889],[112.60641479,-8.26826096],[112.60583496,-8.26932716],[112.60556793,-8.26981354],[112.60620117,-8.27020168],[112.60765839,-8.26877213],[112.60786438,-8.26860523],[112.60804749,-8.26872635],[112.60821533,-8.26883411],[112.6083374,-8.26891232],[112.60917664,-8.26944923],[112.60946655,-8.2696228],[112.60973358,-8.26979065],[112.61190033,-8.27042198],[112.61211395,-8.27048874],[112.61244202,-8.27059364],[112.61466217,-8.27132416],[112.61538696,-8.27206421],[112.61553192,-8.27221584],[112.61553192,-8.27232075],[112.61553192,-8.2729826],[112.61553955,-8.27352142],[112.6156311,-8.27366638],[112.61589813,-8.2740984],[112.61575317,-8.27464962],[112.61566925,-8.27495289],[112.61565399,-8.27502918],[112.61559296,-8.27660847],[112.6155014,-8.27924538],[112.61549377,-8.27952862],[112.61545563,-8.28064632],[112.61560059,-8.28095722],[112.61602783,-8.28185177],[112.61545563,-8.28249931],[112.61524963,-8.28272533],[112.615242,-8.28298092],[112.61517334,-8.28322411],[112.61519623,-8.28358173],[112.61516571,-8.2841835],[112.6149826,-8.28697109],[112.61209869,-8.28701878],[112.61022186,-8.28701305],[112.60906219,-8.2870512],[112.60847473,-8.2870779],[112.60842133,-8.2882185],[112.60839844,-8.28868484],[112.60826111,-8.29192448],[112.60816956,-8.29407406],[112.60762024,-8.29414463],[112.60744476,-8.29414558],[112.60580444,-8.29415226],[112.60477448,-8.2945509],[112.60352325,-8.2941618],[112.60164642,-8.29498196],[112.60108185,-8.2952261],[112.60089111,-8.29596043],[112.60025787,-8.29831028],[112.59972382,-8.29856586],[112.59941101,-8.29868603],[112.59925842,-8.29884338],[112.59911346,-8.29872799],[112.59893799,-8.29848766],[112.59888458,-8.2985487],[112.59841156,-8.29950523],[112.59827423,-8.3000412],[112.59812164,-8.3005991],[112.59658813,-8.30069447],[112.59558105,-8.30051708],[112.59534454,-8.3006773],[112.595047,-8.30050755],[112.59494019,-8.30042839],[112.59461212,-8.30070305],[112.59441376,-8.30084801],[112.59348297,-8.30074883],[112.59321594,-8.30070972],[112.59314728,-8.30066586],[112.592659,-8.30034637],[112.59202576,-8.30153179],[112.59210205,-8.3016634],[112.59248352,-8.30234814],[112.59278107,-8.303298],[112.59285736,-8.30352879],[112.59329224,-8.30358887],[112.59349823,-8.30361748],[112.59360504,-8.30359936],[112.59373474,-8.30360317],[112.59384155,-8.30378628],[112.59475708,-8.30356503],[112.59487152,-8.30366516],[112.59513855,-8.30388355],[112.59567261,-8.30427551],[112.59622955,-8.30469322],[112.59716034,-8.30459595],[112.59815216,-8.30450249],[112.5983429,-8.30457783],[112.59902191,-8.30486107],[112.60041046,-8.30673504],[112.60074615,-8.30718899],[112.60160065,-8.30739021],[112.60171509,-8.30741787],[112.60257721,-8.30733204],[112.60282135,-8.3073082],[112.60474396,-8.30775547],[112.6053772,-8.30757046],[112.60684204,-8.30729198],[112.60739136,-8.30810833],[112.60739899,-8.31001759],[112.60785675,-8.31037998],[112.60784912,-8.31075287],[112.60784149,-8.31126785],[112.60784912,-8.31287479],[112.60779572,-8.31359768],[112.60701752,-8.31365299],[112.60645294,-8.31380367],[112.60539246,-8.3141098],[112.6049118,-8.31483078],[112.60430145,-8.31587696],[112.603508,-8.31618595],[112.60317993,-8.31631088],[112.60228729,-8.31626225],[112.60180664,-8.3162365],[112.6015625,-8.31622314],[112.60083008,-8.31679535],[112.60076904,-8.31688023],[112.60070038,-8.31735134],[112.60140228,-8.31851864],[112.60131073,-8.31996727],[112.60129547,-8.32004833],[112.60115051,-8.32034779],[112.60042572,-8.32181931],[112.60017395,-8.32235718],[112.60035706,-8.32322502],[112.6001358,-8.32343483],[112.60005188,-8.32350826],[112.59964752,-8.32381821],[112.59700012,-8.3238287],[112.5969162,-8.32382965],[112.59632111,-8.32522964],[112.59421539,-8.32668591],[112.59395599,-8.32667637],[112.59378052,-8.32666969],[112.59295654,-8.32667255],[112.59121704,-8.32759666],[112.59114075,-8.32760429],[112.59085846,-8.32763386],[112.59050751,-8.32774639],[112.58951569,-8.32822704],[112.58831024,-8.32880783],[112.58821106,-8.32885647],[112.58729553,-8.32893085],[112.58688354,-8.32898045],[112.5867691,-8.32902527],[112.58641052,-8.32919025],[112.58599854,-8.32938004],[112.5858078,-8.32946587],[112.58499146,-8.32950878],[112.5836792,-8.32963276],[112.58267212,-8.33109856],[112.58213043,-8.33133507],[112.58205414,-8.33137798],[112.58190918,-8.33152294],[112.58158112,-8.33192444],[112.58148193,-8.33250809],[112.58145905,-8.33302784],[112.58106232,-8.33387852],[112.57995605,-8.33433342],[112.57965851,-8.33448982],[112.5795517,-8.33459091],[112.57861328,-8.33547497],[112.57829285,-8.33577442],[112.57798767,-8.33584309]	
					]
				]
			}
		}
	]
}