{
	"type": "FeatureCollection",
	"features": [
		{
			"type": "Feature",
			"properties": {
				"ISO": "IDN",
				"NAME": "Dampit, Malang, Jawa Timur, IDN",
				"TYPE": "Kecamatan",
				"CODE":	"35.07.05"
			},
			"geometry": {
				"type": "Polygon",
				"coordinates": [
					[
						[112.74963379,-8.25548744],[112.74950409,-8.25542259],[112.74861145,-8.25498295],[112.74816132,-8.25443363],[112.74766541,-8.25383854],[112.74723053,-8.25331593],[112.74726105,-8.25321674],[112.74729919,-8.25308228],[112.74700165,-8.25252342],[112.7472229,-8.25073051],[112.74703979,-8.24979115],[112.74638367,-8.24889565],[112.74583435,-8.24815178],[112.74567413,-8.24799633],[112.74475861,-8.24709225],[112.74383545,-8.24557495],[112.74308014,-8.24694729],[112.74308777,-8.24773884],[112.74308777,-8.24801159],[112.74381256,-8.24894047],[112.74324036,-8.2488966],[112.74268341,-8.24894047],[112.74230194,-8.24858284],[112.74210358,-8.24829674],[112.74176025,-8.24832058],[112.74171448,-8.24845028],[112.74167633,-8.24867344],[112.74170685,-8.24925518],[112.74134827,-8.2495203],[112.74105835,-8.24943352],[112.74069977,-8.24941158],[112.74034119,-8.24941254],[112.7399826,-8.24956608],[112.73934174,-8.24952126],[112.73868561,-8.24909306],[112.73846436,-8.24905777],[112.73838806,-8.24904537],[112.73820496,-8.24901581],[112.73760986,-8.24886608],[112.73724365,-8.24843788],[112.73667145,-8.24834442],[112.73621368,-8.24840164],[112.73594666,-8.24821377],[112.73558044,-8.24810982],[112.7353363,-8.24790192],[112.73518372,-8.24777222],[112.73512268,-8.24766254],[112.73493958,-8.24756432],[112.73480225,-8.24748898],[112.73448181,-8.24766541],[112.73421478,-8.24801636],[112.73410034,-8.24842644],[112.73377991,-8.24869061],[112.733284,-8.2488451],[112.73301697,-8.24892712],[112.73228455,-8.24884319],[112.73199463,-8.24855232],[112.73143768,-8.24843788],[112.73067474,-8.24826527],[112.73066711,-8.24747753],[112.73086548,-8.24639606],[112.73118591,-8.24584007],[112.7311554,-8.24554825],[112.73065948,-8.24508286],[112.73039246,-8.24455833],[112.72991943,-8.24418068],[112.72991943,-8.24356747],[112.72982788,-8.24327564],[112.72994232,-8.242136],[112.7301712,-8.24152184],[112.73006439,-8.24108791],[112.73006439,-8.2410059],[112.7301712,-8.24064636],[112.73019409,-8.24003315],[112.72987366,-8.23959637],[112.72954559,-8.23945141],[112.72956848,-8.23915291],[112.72684479,-8.23809052],[112.72675323,-8.23806381],[112.72646332,-8.23820877],[112.72638702,-8.23796177],[112.72628021,-8.23805046],[112.72608185,-8.23832035],[112.72581482,-8.23844337],[112.72548676,-8.23907185],[112.72515106,-8.23928261],[112.72473145,-8.23932648],[112.72439575,-8.23916054],[112.72422028,-8.23882675],[112.72376251,-8.23870277],[112.72317505,-8.23916626],[112.72261047,-8.23967075],[112.72241974,-8.2398386],[112.72189331,-8.24097347],[112.72160339,-8.24130154],[112.72147369,-8.24128723],[112.72135162,-8.24123955],[112.72106171,-8.24100971],[112.7207489,-8.24083996],[112.72064972,-8.24075031],[112.72015381,-8.24028969],[112.72005463,-8.24024963],[112.71994019,-8.24020004],[112.71943665,-8.24022961],[112.71926117,-8.24028015],[112.7171402,-8.24039364],[112.71671295,-8.23968983],[112.71659851,-8.23933983],[112.71655273,-8.23910999],[112.71643829,-8.23875046],[112.71637726,-8.23861027],[112.71630096,-8.23825455],[112.71586609,-8.23785877],[112.71578217,-8.23779678],[112.71588135,-8.23771381],[112.7156601,-8.23754025],[112.71549988,-8.23738098],[112.71517181,-8.23705769],[112.71498871,-8.2365799],[112.71484375,-8.23620033],[112.71463013,-8.23581028],[112.7143631,-8.23519897],[112.71393585,-8.2353363],[112.71375275,-8.23468876],[112.71380615,-8.23396301],[112.71372223,-8.23394966],[112.71346283,-8.23394012],[112.71320343,-8.2339201],[112.71226501,-8.23360538],[112.71209717,-8.23355007],[112.71176147,-8.23335743],[112.71164703,-8.23349667],[112.71134949,-8.23344421],[112.71097565,-8.23315334],[112.71092987,-8.23273468],[112.71121979,-8.23231506],[112.7116394,-8.2321043],[112.7118454,-8.23176956],[112.71189117,-8.2313509],[112.71163177,-8.23089123],[112.71087646,-8.2307272],[112.70986938,-8.23010445],[112.70940399,-8.22960472],[112.70852661,-8.22912693],[112.70832062,-8.22914982],[112.70806885,-8.22912979],[112.70746613,-8.22898579],[112.70735931,-8.22896004],[112.7069931,-8.2288599],[112.7064209,-8.2288475],[112.70610809,-8.22877979],[112.70567322,-8.22867966],[112.70553589,-8.22867966],[112.70539093,-8.22867966],[112.70510101,-8.22875977],[112.70429993,-8.22869968],[112.70358276,-8.22846031],[112.70353699,-8.22840023],[112.70335388,-8.22817039],[112.70326996,-8.22805977],[112.70320892,-8.22772026],[112.70319366,-8.22754765],[112.70317078,-8.22735023],[112.70314026,-8.2271204],[112.70311737,-8.22684956],[112.70304108,-8.22657967],[112.7026825,-8.22651005],[112.7024765,-8.22655964],[112.70239258,-8.2266655],[112.7022934,-8.22679996],[112.7020874,-8.22702026],[112.70179749,-8.22706985],[112.70139313,-8.22699642],[112.70124054,-8.22724438],[112.70104218,-8.22692108],[112.70070648,-8.22681999],[112.7006073,-8.22682953],[112.69992065,-8.22665024],[112.69953156,-8.22653008],[112.69889069,-8.22636986],[112.6984024,-8.22626972],[112.69774628,-8.2260704],[112.6974411,-8.22601032],[112.69696808,-8.22601986],[112.69676208,-8.2260704],[112.69651794,-8.22612953],[112.69603729,-8.22612],[112.69593048,-8.22609997],[112.6954422,-8.2259407],[112.69669342,-8.22530937],[112.69704437,-8.22489166],[112.69708252,-8.22479248],[112.69676971,-8.22465229],[112.69613647,-8.22418213],[112.69548798,-8.2239418],[112.69739532,-8.22398853],[112.69799042,-8.22400379],[112.69882202,-8.22402382],[112.69895935,-8.22335052],[112.69870758,-8.2231884],[112.69802094,-8.2226944],[112.69741821,-8.2225523],[112.6971283,-8.22218132],[112.69673157,-8.22210026],[112.69644165,-8.22166634],[112.69641876,-8.22140884],[112.69639587,-8.22111988],[112.6963501,-8.22092152],[112.69641113,-8.22030067],[112.69661713,-8.22005081],[112.69667816,-8.22000122],[112.69684601,-8.21971607],[112.69692993,-8.21956921],[112.69705963,-8.21958065],[112.69732666,-8.21960163],[112.69752502,-8.21964169],[112.69771576,-8.21967697],[112.69841003,-8.21965981],[112.69904327,-8.21963024],[112.69966888,-8.21956921],[112.69969177,-8.21945572],[112.699646,-8.21929741],[112.69962311,-8.21909332],[112.69960022,-8.21899605],[112.69944763,-8.21882153],[112.69936371,-8.21863174],[112.69928741,-8.21840858],[112.69918823,-8.21807575],[112.69921875,-8.21766758],[112.69929504,-8.21735382],[112.69932556,-8.21721458],[112.699646,-8.21686172],[112.69992828,-8.2164526],[112.70000458,-8.21611309],[112.70001984,-8.21601391],[112.70004272,-8.21567059],[112.7000351,-8.21531963],[112.7000351,-8.2152462],[112.69967651,-8.21406364],[112.69939423,-8.21337318],[112.69933319,-8.21326447],[112.69882202,-8.21231556],[112.69854736,-8.21197701],[112.6984787,-8.21189308],[112.69816589,-8.21159458],[112.69825745,-8.21116829],[112.69838715,-8.21089458],[112.69854736,-8.21056747],[112.69858551,-8.21049213],[112.69876099,-8.21009731],[112.69883728,-8.21007252],[112.6993866,-8.20989799],[112.69952393,-8.20985413],[112.69963837,-8.20979881],[112.69972992,-8.20963192],[112.69974518,-8.20946503],[112.6996994,-8.20925331],[112.69976044,-8.20900726],[112.69989777,-8.20877171],[112.70026398,-8.20858097],[112.70056152,-8.20857906],[112.70064545,-8.20857906],[112.70078278,-8.2083807],[112.70091248,-8.20826054],[112.70098114,-8.20820904],[112.70111847,-8.20796299],[112.70103455,-8.20766068],[112.70101166,-8.20747375],[112.7009964,-8.20733929],[112.70108795,-8.20723724],[112.70120239,-8.20713806],[112.70152283,-8.20720482],[112.7017746,-8.20725727],[112.7025528,-8.2079792],[112.70271301,-8.20803642],[112.70298767,-8.2081337],[112.70323181,-8.20773792],[112.70316315,-8.20734978],[112.70313263,-8.20717144],[112.70317078,-8.2067976],[112.70349121,-8.20623398],[112.70348358,-8.20606041],[112.70256042,-8.20614338],[112.70220184,-8.2060318],[112.70219421,-8.20595646],[112.70214844,-8.20555878],[112.70227814,-8.20528984],[112.70237732,-8.20509624],[112.7024231,-8.20499897],[112.70263672,-8.20471668],[112.70281219,-8.20447445],[112.70328522,-8.20421886],[112.70381927,-8.20392895],[112.7039032,-8.2038393],[112.7040863,-8.20364571],[112.70418549,-8.20350647],[112.7042923,-8.20333958],[112.70471191,-8.20270157],[112.70467377,-8.20168304],[112.7048645,-8.20115757],[112.70509338,-8.2006979],[112.70537567,-8.20065212],[112.70556641,-8.20072365],[112.70584869,-8.2010231],[112.70594788,-8.2012043],[112.70613098,-8.20124912],[112.70643616,-8.20118141],[112.70716095,-8.20101738],[112.70737457,-8.20088005],[112.70744324,-8.20071602],[112.70735168,-8.20046997],[112.7071991,-8.20031738],[112.70713043,-8.20025253],[112.70631409,-8.20003796],[112.7061615,-8.19982052],[112.70615387,-8.19970226],[112.70624542,-8.19943237],[112.70648956,-8.19919109],[112.70678711,-8.19902611],[112.70716095,-8.19861507],[112.70719147,-8.19838715],[112.70695496,-8.19816399],[112.70626068,-8.19819164],[112.70594025,-8.19838333],[112.70552826,-8.19850349],[112.70516968,-8.19840527],[112.70494843,-8.19809723],[112.70488739,-8.19764233],[112.70480347,-8.19728184],[112.70476532,-8.19712448],[112.7045517,-8.19692612],[112.70396423,-8.19660854],[112.70379639,-8.1963644],[112.70376587,-8.1960001],[112.70385742,-8.19573593],[112.7038269,-8.19545364],[112.7037735,-8.19517231],[112.70352936,-8.19489098],[112.7035675,-8.19450855],[112.70375824,-8.19408035],[112.70385742,-8.19393444],[112.70400238,-8.19372463],[112.70410156,-8.19359684],[112.70423126,-8.19342327],[112.70423889,-8.1931324],[112.70415497,-8.19285965],[112.70391083,-8.19242382],[112.70391846,-8.19214153],[112.70406342,-8.19195938],[112.70427704,-8.19177628],[112.70442963,-8.19172668],[112.70467377,-8.19164753],[112.70488739,-8.19151878],[112.70536041,-8.19129562],[112.70568848,-8.19118786],[112.70593262,-8.19114113],[112.70610809,-8.19107723],[112.70627594,-8.19099426],[112.70639038,-8.19094849],[112.70652008,-8.19092941],[112.706604,-8.19088364],[112.70671082,-8.19083786],[112.70684052,-8.1908102],[112.70695496,-8.19071865],[112.70700836,-8.1906004],[112.70698547,-8.19034576],[112.70685577,-8.19002724],[112.70664978,-8.1896286],[112.70648193,-8.18922901],[112.70644379,-8.18901062],[112.70632935,-8.18881989],[112.70626068,-8.1885376],[112.7062912,-8.18843746],[112.70627594,-8.18832684],[112.70628357,-8.18805599],[112.70639801,-8.18790054],[112.70646667,-8.18775463],[112.70666504,-8.18754387],[112.70689392,-8.18750763],[112.7071228,-8.18751526],[112.70726013,-8.18756008],[112.70742035,-8.18755913],[112.70754242,-8.18750477],[112.70766449,-8.18745804],[112.70773315,-8.1874218],[112.70786285,-8.1873579],[112.70793915,-8.18729401],[112.70805359,-8.1870842],[112.70818329,-8.18686485],[112.70827484,-8.18654633],[112.70838165,-8.18630886],[112.70853424,-8.18595123],[112.70855713,-8.18588066],[112.70885468,-8.18537903],[112.70909119,-8.18516922],[112.70925903,-8.18508625],[112.70942688,-8.18503952],[112.70961761,-8.18493938],[112.70976257,-8.18485069],[112.70986176,-8.1847744],[112.70996094,-8.18461037],[112.71001434,-8.18446445],[112.71002197,-8.18436432],[112.7100296,-8.18410969],[112.70998383,-8.18397331],[112.70988464,-8.1837368],[112.70976257,-8.18356419],[112.70950317,-8.18305397],[112.70943451,-8.1827383],[112.70942688,-8.18262005],[112.70941162,-8.18249226],[112.70938873,-8.18215561],[112.70941162,-8.18194675],[112.70942688,-8.18186474],[112.70948029,-8.18161869],[112.70964813,-8.18119049],[112.70992279,-8.1808567],[112.71017456,-8.1806612],[112.71030426,-8.18057823],[112.71042633,-8.18048954],[112.71098328,-8.18007469],[112.71155548,-8.18001842],[112.71192932,-8.18009758],[112.7123642,-8.1802578],[112.71244049,-8.18020058],[112.71255493,-8.18012142],[112.7125473,-8.17933941],[112.71263885,-8.17839241],[112.71276093,-8.17739773],[112.71305847,-8.17715359],[112.71353912,-8.17709732],[112.71400452,-8.17720318],[112.71438599,-8.1773634],[112.71451569,-8.17755222],[112.71479034,-8.17763138],[112.71512604,-8.17761517],[112.71525574,-8.17743778],[112.71535492,-8.17690086],[112.71539307,-8.17657852],[112.71548462,-8.1757412],[112.71559906,-8.17562675],[112.71572113,-8.17546844],[112.7158432,-8.17535496],[112.71591949,-8.17526245],[112.71607208,-8.17512703],[112.71607208,-8.17503452],[112.71607208,-8.17491722],[112.71608734,-8.17479897],[112.7159729,-8.17467308],[112.71589661,-8.17460632],[112.7157135,-8.17448044],[112.71538544,-8.17425537],[112.7154007,-8.17411232],[112.71546936,-8.17400265],[112.71556091,-8.17393398],[112.71582794,-8.1737709],[112.71617889,-8.17374229],[112.7169342,-8.17371273],[112.7173996,-8.17360973],[112.7173996,-8.17349815],[112.71738434,-8.17323685],[112.71733856,-8.17302704],[112.71736145,-8.17295742],[112.71743774,-8.17274094],[112.71755219,-8.17248726],[112.71781921,-8.17222881],[112.71800995,-8.17198181],[112.7183609,-8.17184544],[112.71874237,-8.1716013],[112.71879578,-8.171278],[112.7190094,-8.17111492],[112.71960449,-8.1710043],[112.7201004,-8.17076588],[112.72016907,-8.1707325],[112.72106934,-8.17083645],[112.72136688,-8.17078114],[112.72158051,-8.17048359],[112.72206879,-8.17029285],[112.72232819,-8.17025852],[112.72240448,-8.17022514],[112.72252655,-8.17024708],[112.72261047,-8.17026138],[112.7227478,-8.1702528],[112.72284698,-8.17020321],[112.72297668,-8.17014217],[112.72306061,-8.16989422],[112.72305298,-8.16977024],[112.72306061,-8.16958523],[112.72317505,-8.16936207],[112.72331238,-8.16928673],[112.72360992,-8.16918659],[112.72377777,-8.16908741],[112.72403717,-8.16902447],[112.72420502,-8.16886234],[112.72432709,-8.16867638],[112.72441101,-8.16844082],[112.72478485,-8.16830349],[112.72489166,-8.1676178],[112.72479248,-8.16755867],[112.72483826,-8.16745186],[112.72509766,-8.16683578],[112.72535706,-8.16664886],[112.72624207,-8.16599751],[112.72650146,-8.16520691],[112.72672272,-8.16462326],[112.72685242,-8.16384506],[112.72728729,-8.16331673],[112.72786713,-8.16304111],[112.7278595,-8.16296291],[112.72816467,-8.16272926],[112.72831726,-8.16204357],[112.72837067,-8.16180515],[112.72842407,-8.16155624],[112.72884369,-8.16105652],[112.72899628,-8.16085148],[112.72898865,-8.16023731],[112.72889709,-8.15950871],[112.72885895,-8.15780449],[112.72888947,-8.15772343],[112.72910309,-8.1573267],[112.72917938,-8.15719032],[112.72935486,-8.15730286],[112.72994995,-8.15769386],[112.73051453,-8.15772915],[112.73073578,-8.15779972],[112.73094177,-8.15778923],[112.73114014,-8.15766716],[112.73138428,-8.15749264],[112.73152924,-8.15735531],[112.73152924,-8.15715313],[112.73143005,-8.15675068],[112.7314682,-8.15664196],[112.73162079,-8.15658474],[112.73179626,-8.15673923],[112.73245239,-8.15704823],[112.73260498,-8.1571207],[112.73288727,-8.1572504],[112.73323822,-8.15754795],[112.73339081,-8.15752792],[112.73358154,-8.15756416],[112.73402405,-8.15745831],[112.73462677,-8.15770912],[112.73474884,-8.15780449],[112.73486328,-8.1577549],[112.73530579,-8.15779114],[112.73539734,-8.15765285],[112.735466,-8.15747929],[112.73560333,-8.15740681],[112.73570251,-8.15750313],[112.73606873,-8.15786362],[112.73640442,-8.15786266],[112.73666382,-8.15786171],[112.73699951,-8.15758896],[112.73712158,-8.15755939],[112.73728943,-8.15749931],[112.73810577,-8.15765858],[112.73821259,-8.15768814],[112.73854065,-8.15777969],[112.7386322,-8.15783215],[112.7390976,-8.15817928],[112.73954773,-8.1582613],[112.73988342,-8.15797901],[112.74015045,-8.15758419],[112.74046326,-8.15773773],[112.74054718,-8.15777969],[112.74067688,-8.15767002],[112.74088287,-8.15752029],[112.74104309,-8.15732956],[112.74111938,-8.15727043],[112.74121857,-8.15723991],[112.74160767,-8.15719032],[112.74180603,-8.15720463],[112.74217987,-8.15730476],[112.74226379,-8.15732956],[112.74241638,-8.15737724],[112.74304199,-8.15737534],[112.74331665,-8.15717125],[112.74347687,-8.15703964],[112.74355316,-8.15699673],[112.74385071,-8.15682983],[112.74397278,-8.15676975],[112.74420929,-8.15670013],[112.74433899,-8.15670013],[112.74450684,-8.15670013],[112.74482727,-8.15676022],[112.74503326,-8.15680027],[112.74514771,-8.15682983],[112.74523926,-8.15687275],[112.74536133,-8.15692997],[112.74546814,-8.15703964],[112.74568939,-8.15740013],[112.7457428,-8.15748024],[112.7457962,-8.15754986],[112.7459259,-8.15760422],[112.74636841,-8.15752125],[112.74660492,-8.15742207],[112.74672699,-8.15736961],[112.74684143,-8.15730953],[112.74704742,-8.15711021],[112.74727631,-8.15689564],[112.74726105,-8.15681934],[112.74732208,-8.15676689],[112.7480011,-8.15640163],[112.74843597,-8.1561718],[112.74876404,-8.15610409],[112.74894714,-8.15586185],[112.74900818,-8.15577984],[112.74945831,-8.15542984],[112.74964905,-8.15530968],[112.74984741,-8.15519142],[112.75003052,-8.15508747],[112.75016022,-8.15503979],[112.75031281,-8.15497017],[112.75050354,-8.1548996],[112.75122833,-8.15474987],[112.75157928,-8.15468025],[112.75241089,-8.15456009],[112.75298309,-8.15460014],[112.75318146,-8.15462971],[112.75338745,-8.15456963],[112.75360107,-8.15443993],[112.75379181,-8.15423965],[112.75395966,-8.15402985],[112.7541275,-8.15396976],[112.75435638,-8.15402699],[112.75478363,-8.15409565],[112.75491333,-8.15402031],[112.75504303,-8.15379047],[112.75508118,-8.15369987],[112.75524139,-8.15361023],[112.75541687,-8.15359974],[112.75582123,-8.15373993],[112.7561264,-8.15386772],[112.75701141,-8.15359497],[112.75734711,-8.15342999],[112.75749207,-8.15338993],[112.75772858,-8.15346146],[112.75775909,-8.15361214],[112.75790405,-8.15370369],[112.75794983,-8.15399075],[112.75797272,-8.15410614],[112.75810242,-8.15481758],[112.75862885,-8.15507793],[112.75856781,-8.15534878],[112.75830841,-8.15645695],[112.75842285,-8.15664673],[112.75850677,-8.15678406],[112.75884247,-8.15668583],[112.75898743,-8.15668964],[112.7590332,-8.1567812],[112.75901794,-8.15702438],[112.75897217,-8.15769958],[112.7593689,-8.15776348],[112.75943756,-8.1584692],[112.75970459,-8.15902805],[112.75984192,-8.15924835],[112.76007843,-8.15935421],[112.76033783,-8.15937519],[112.76052094,-8.15934753],[112.76067352,-8.15939808],[112.76062775,-8.15963173],[112.76062775,-8.15998745],[112.76093292,-8.16140556],[112.76255035,-8.16165352],[112.76283264,-8.16169643],[112.76486206,-8.16180706],[112.7662735,-8.16193581],[112.7665863,-8.16200829],[112.7671814,-8.16214657],[112.7682724,-8.16244602],[112.76850128,-8.162467],[112.76947784,-8.16255283],[112.77099609,-8.1626873],[112.77117157,-8.16268539],[112.77147675,-8.16275883],[112.77159882,-8.16275787],[112.77600861,-8.1627388],[112.77604675,-8.16330051],[112.77617645,-8.16534233],[112.77659607,-8.16780281],[112.77662659,-8.16797352],[112.77781677,-8.16766071],[112.77896118,-8.16708565],[112.77966309,-8.16695118],[112.78031921,-8.16664028],[112.78177643,-8.16659069],[112.78203583,-8.16623783],[112.78269958,-8.16588402],[112.78379059,-8.16526508],[112.78450012,-8.16501713],[112.7848053,-8.16490936],[112.78564453,-8.16516113],[112.78621674,-8.1653347],[112.78643036,-8.16535854],[112.78718567,-8.16514969],[112.78770447,-8.16504002],[112.7883606,-8.16518974],[112.78899384,-8.16550159],[112.78936005,-8.16570282],[112.79013824,-8.16585827],[112.79035187,-8.16590118],[112.79083252,-8.16619205],[112.79123688,-8.16659546],[112.79167938,-8.16698074],[112.79176331,-8.16700649],[112.79627228,-8.16836357],[112.79657745,-8.16845512],[112.7963562,-8.16872025],[112.79639435,-8.16886234],[112.79644012,-8.16906166],[112.79631805,-8.16923046],[112.79611969,-8.16940689],[112.79533386,-8.16955948],[112.79508972,-8.16960335],[112.7949295,-8.16970634],[112.79460144,-8.16992855],[112.79447174,-8.16994476],[112.79359436,-8.16982937],[112.79324341,-8.17013741],[112.79302216,-8.17077637],[112.79291534,-8.17099667],[112.79272461,-8.17101765],[112.79200745,-8.17102051],[112.79144287,-8.17162418],[112.7913208,-8.17175102],[112.79114532,-8.17178249],[112.79073334,-8.17181587],[112.79059601,-8.17195892],[112.79051971,-8.17200279],[112.78991699,-8.1722908],[112.78968048,-8.17239094],[112.78964233,-8.17245579],[112.78926086,-8.17308044],[112.78919983,-8.17318344],[112.78876495,-8.17349243],[112.78836823,-8.17388916],[112.78819275,-8.17419624],[112.78929901,-8.17581558],[112.78882599,-8.17649364],[112.78821564,-8.17660332],[112.78811646,-8.17660999],[112.78714752,-8.17718506],[112.78679657,-8.17762566],[112.78598022,-8.17816639],[112.78573608,-8.17833996],[112.78561401,-8.17842007],[112.78474426,-8.18008518],[112.78469849,-8.1801796],[112.78453827,-8.18071175],[112.7844162,-8.18098927],[112.78378296,-8.18121529],[112.78351593,-8.18128204],[112.78291321,-8.18148232],[112.78250885,-8.18144512],[112.78232574,-8.18140984],[112.78220367,-8.18138695],[112.78160858,-8.18126965],[112.78142548,-8.18142223],[112.78102112,-8.18170071],[112.78002167,-8.18170547],[112.77919769,-8.18216515],[112.77882385,-8.18220329],[112.77845001,-8.18222904],[112.77832031,-8.1829052],[112.77828217,-8.18305683],[112.77806854,-8.18313026],[112.77751923,-8.18328571],[112.77705383,-8.18394279],[112.77677917,-8.18470287],[112.77637482,-8.18502331],[112.77622986,-8.18534279],[112.77611542,-8.18548775],[112.77583313,-8.186059],[112.77575684,-8.18608475],[112.7755661,-8.1861496],[112.7750473,-8.1865654],[112.7749176,-8.1867075],[112.77477264,-8.18683529],[112.77467346,-8.18685532],[112.7743454,-8.18692303],[112.77423096,-8.18694592],[112.77353668,-8.18741226],[112.77348328,-8.18781853],[112.77339172,-8.18816662],[112.77313232,-8.18857384],[112.7730484,-8.18938637],[112.77275085,-8.18966293],[112.77267456,-8.18973541],[112.77265167,-8.18994522],[112.77259064,-8.19057655],[112.77267456,-8.19067574],[112.77402496,-8.19224739],[112.77366638,-8.19268322],[112.77333069,-8.19303703],[112.77388,-8.19508457],[112.77386475,-8.19520378],[112.77377319,-8.1955862],[112.77375031,-8.19607353],[112.77362823,-8.19620037],[112.77339935,-8.1964283],[112.77323151,-8.19672012],[112.77308655,-8.19698048],[112.77265167,-8.19706917],[112.77177429,-8.19718933],[112.77145386,-8.19736481],[112.77111053,-8.19736576],[112.77084351,-8.19748306],[112.77082825,-8.19757652],[112.77076721,-8.19799042],[112.77088165,-8.19846821],[112.77085876,-8.19854355],[112.77060699,-8.19916725],[112.77056122,-8.19966507],[112.77026367,-8.19981575],[112.77011108,-8.20006561],[112.77033997,-8.20067406],[112.77068329,-8.20087528],[112.77071381,-8.20110703],[112.77082062,-8.20102406],[112.77089691,-8.2008791],[112.77105713,-8.20078564],[112.77128601,-8.20078468],[112.77153778,-8.20066071],[112.77158356,-8.20059204],[112.77165222,-8.20047283],[112.77165222,-8.20031071],[112.77172852,-8.20017433],[112.77183533,-8.20017433],[112.77193451,-8.20029545],[112.77206421,-8.20034122],[112.77216339,-8.20037556],[112.77235413,-8.20026684],[112.77266693,-8.20030308],[112.77278137,-8.20018578],[112.77297211,-8.20019722],[112.77306366,-8.19999886],[112.77361298,-8.19974804],[112.77406311,-8.19956684],[112.77416992,-8.19943428],[112.77419281,-8.19931221],[112.77413177,-8.19925499],[112.77404785,-8.19917774],[112.77390289,-8.19912052],[112.77370453,-8.19900417],[112.7735672,-8.19883156],[112.77355194,-8.19866848],[112.77377319,-8.19829178],[112.77417755,-8.19810295],[112.77466583,-8.19750309],[112.77479553,-8.19735718],[112.77469635,-8.19710922],[112.77501678,-8.19715214],[112.77510834,-8.19708157],[112.7752533,-8.19696808],[112.77588654,-8.19713306],[112.77629852,-8.19620609],[112.77658844,-8.19611168],[112.7769165,-8.19614792],[112.77701569,-8.19612694],[112.77709961,-8.19609451],[112.77733612,-8.19574356],[112.77749634,-8.19550323],[112.77793884,-8.19540501],[112.77882385,-8.19552135],[112.77893066,-8.19547653],[112.77906036,-8.19542408],[112.77925873,-8.19506264],[112.7794342,-8.19493771],[112.77953339,-8.19489765],[112.7796936,-8.19482708],[112.78018188,-8.19469833],[112.7806778,-8.19467163],[112.78090668,-8.19453812],[112.78092957,-8.19419003],[112.78085327,-8.1939373],[112.78098297,-8.19376659],[112.78108978,-8.19362354],[112.78131866,-8.19352913],[112.78141022,-8.19349003],[112.78172302,-8.19339275],[112.78182983,-8.19326019],[112.78190613,-8.19320774],[112.78217316,-8.19309425],[112.78231812,-8.19284439],[112.78246307,-8.19278812],[112.78257751,-8.19278812],[112.78272247,-8.19254398],[112.78272247,-8.1924448],[112.7828064,-8.19227505],[112.78297424,-8.19230747],[112.78431702,-8.19283581],[112.78478241,-8.19315052],[112.78520203,-8.19302845],[112.78540039,-8.1928978],[112.78586578,-8.19267941],[112.78616333,-8.19269943],[112.78640747,-8.19271564],[112.7865448,-8.19271755],[112.78662109,-8.19265366],[112.78675079,-8.19255066],[112.78697205,-8.19233036],[112.78729248,-8.1921854],[112.787323,-8.19163036],[112.78741455,-8.19150734],[112.7875061,-8.19139004],[112.78773499,-8.19124126],[112.7878418,-8.1911869],[112.78794861,-8.19114876],[112.78811646,-8.19115734],[112.7882843,-8.19116592],[112.78851318,-8.19112682],[112.78862,-8.19098091],[112.78874969,-8.19081879],[112.78896332,-8.19080925],[112.78907013,-8.19077969],[112.78909302,-8.19067001],[112.78915405,-8.19047451],[112.78929138,-8.19042492],[112.78942108,-8.19037056],[112.78960419,-8.19029808],[112.78987885,-8.19018745],[112.79009247,-8.19010353],[112.79020691,-8.19005871],[112.79049683,-8.18996048],[112.79079437,-8.18978691],[112.79096222,-8.18967438],[112.79108429,-8.1894207],[112.79112244,-8.18934536],[112.79138184,-8.18933487],[112.79154205,-8.18924618],[112.79161835,-8.18927574],[112.79169464,-8.18919945],[112.79173279,-8.18907738],[112.79180908,-8.18883514],[112.79208374,-8.18882465],[112.79240417,-8.18887043],[112.79276276,-8.18840981],[112.79311371,-8.18839836],[112.79310608,-8.18828773],[112.79314423,-8.18811798],[112.79348755,-8.18811607],[112.79364014,-8.18799973],[112.79367828,-8.18792725],[112.79376984,-8.18779278],[112.79413605,-8.18771553],[112.79443359,-8.18745518],[112.79456329,-8.18741894],[112.7946701,-8.18722057],[112.7946701,-8.18710804],[112.79470825,-8.18700504],[112.79484558,-8.18682384],[112.7952652,-8.18678665],[112.79545593,-8.18687057],[112.79562378,-8.18701267],[112.79579163,-8.18723392],[112.7963562,-8.18730164],[112.79647064,-8.18713856],[112.79654694,-8.18712234],[112.79698181,-8.1872282],[112.79701233,-8.18714905],[112.79705048,-8.18702984],[112.79773712,-8.18708134],[112.79808044,-8.186306],[112.79831696,-8.18628693],[112.79854584,-8.18633938],[112.79896545,-8.18619347],[112.79904175,-8.18606853],[112.79908752,-8.18599606],[112.79914093,-8.18590546],[112.7993927,-8.18581486],[112.79959106,-8.18550587],[112.79973602,-8.18526554],[112.79993439,-8.18516731],[112.8000946,-8.18508816],[112.80023956,-8.1848793],[112.80055237,-8.18473244],[112.80102539,-8.18472004],[112.80122375,-8.18488979],[112.80142975,-8.18506145],[112.80142975,-8.18518543],[112.80138397,-8.18695164],[112.80136108,-8.18764305],[112.80130768,-8.1891737],[112.80129242,-8.18963909],[112.80123138,-8.19096375],[112.80120087,-8.19196415],[112.80107117,-8.19269371],[112.80107117,-8.19283199],[112.80088043,-8.19386864],[112.8008728,-8.19394493],[112.80046082,-8.19405842],[112.80036163,-8.19470501],[112.8002243,-8.19489956],[112.7999649,-8.19525433],[112.79981995,-8.19560337],[112.79978943,-8.19591713],[112.79981995,-8.19641113],[112.79987335,-8.19669819],[112.79969788,-8.19761372],[112.79958344,-8.19824314],[112.79958344,-8.19842911],[112.79959106,-8.20023346],[112.79960632,-8.20051956],[112.79982758,-8.20074368],[112.79988098,-8.20079994],[112.80019379,-8.20098972],[112.80069733,-8.20125961],[112.80065155,-8.20159435],[112.80075836,-8.20172501],[112.80063629,-8.20178223],[112.80049133,-8.2017374],[112.80020905,-8.20196152],[112.80027008,-8.20236301],[112.80028534,-8.20249081],[112.80027008,-8.20257664],[112.80020905,-8.20281219],[112.80020905,-8.20312309],[112.80020905,-8.20319653],[112.80032349,-8.20333099],[112.80037689,-8.20346737],[112.80039215,-8.20363331],[112.8004303,-8.20377254],[112.80043793,-8.20386696],[112.80038452,-8.20405769],[112.800354,-8.20414734],[112.80018616,-8.20424461],[112.79986572,-8.20432949],[112.79966736,-8.20427322],[112.79967499,-8.20437145],[112.79964447,-8.20459557],[112.79966736,-8.20472717],[112.79969025,-8.20494175],[112.79955292,-8.20518208],[112.79946136,-8.20533943],[112.79940796,-8.20542908],[112.79940033,-8.20551205],[112.79936981,-8.20579338],[112.79923248,-8.20582294],[112.79915619,-8.2058506],[112.79901886,-8.20587349],[112.79894257,-8.20588684],[112.79885101,-8.20593643],[112.79853821,-8.20638752],[112.79840088,-8.20658779],[112.79837036,-8.20687675],[112.7983551,-8.20700455],[112.79819489,-8.20714378],[112.79804993,-8.20716858],[112.79776764,-8.20711708],[112.79764557,-8.20717812],[112.7975769,-8.20721436],[112.79714203,-8.20718098],[112.79705811,-8.20768738],[112.79720306,-8.20783043],[112.79719543,-8.20790768],[112.79714203,-8.20803642],[112.79692078,-8.20827675],[112.79689789,-8.20834541],[112.79684448,-8.20848751],[112.79677582,-8.20858479],[112.79673767,-8.20872307],[112.79672241,-8.20880508],[112.79665375,-8.20889378],[112.79653931,-8.20900631],[112.7963562,-8.2091608],[112.79629517,-8.2092104],[112.79621124,-8.20947361],[112.79623413,-8.2097578],[112.79608917,-8.20992947],[112.79598999,-8.210042],[112.79579926,-8.2103281],[112.79573059,-8.21042824],[112.79563904,-8.21070099],[112.795578,-8.21083164],[112.79553223,-8.21089363],[112.79520416,-8.21124077],[112.79485321,-8.21183109],[112.79457855,-8.21227646],[112.79451752,-8.2123785],[112.79438782,-8.2124939],[112.79401398,-8.21252251],[112.79393005,-8.21244144],[112.79363251,-8.21253586],[112.7935257,-8.2126627],[112.79344177,-8.21280098],[112.793396,-8.21287441],[112.79335022,-8.2129488],[112.79325867,-8.21309376],[112.79308319,-8.21309471],[112.79297638,-8.21316147],[112.79272461,-8.21367741],[112.79275513,-8.21376705],[112.79273224,-8.2138834],[112.79275513,-8.21399403],[112.79280853,-8.21408653],[112.79286957,-8.21419716],[112.79292297,-8.2142992],[112.79296112,-8.21438599],[112.79296875,-8.21445942],[112.79294586,-8.21453476],[112.79283905,-8.21465111],[112.7926712,-8.21482563],[112.7926178,-8.21493721],[112.79264069,-8.2157917],[112.79266357,-8.21587372],[112.79257202,-8.21611023],[112.79242706,-8.21634769],[112.79234314,-8.21652031],[112.79216766,-8.21736908],[112.79219055,-8.21753788],[112.79221344,-8.21763039],[112.7921524,-8.21767426],[112.79194641,-8.21789169],[112.79190063,-8.2181263],[112.79210663,-8.21826267],[112.79221344,-8.21828842],[112.79237366,-8.21846485],[112.79244232,-8.21869278],[112.7924881,-8.21883488],[112.79255676,-8.21901798],[112.79257965,-8.21922684],[112.7925415,-8.21934795],[112.7924881,-8.21944332],[112.7923584,-8.21955872],[112.79228973,-8.2196188],[112.79200745,-8.2200985],[112.7918396,-8.22030258],[112.79178619,-8.22036266],[112.79174805,-8.22067642],[112.79167938,-8.22075272],[112.79151154,-8.22085476],[112.79140472,-8.22086143],[112.79129028,-8.22089672],[112.79084778,-8.22107506],[112.79067993,-8.22128963],[112.79046631,-8.22128391],[112.79034424,-8.22117043],[112.79005432,-8.22097874],[112.78996277,-8.22091866],[112.78982544,-8.22089005],[112.78962708,-8.22085094],[112.78955078,-8.22069263],[112.78957367,-8.22061634],[112.78987122,-8.22051334],[112.79022217,-8.22045898],[112.79019165,-8.2201252],[112.79016876,-8.21985626],[112.79014587,-8.21976471],[112.79013824,-8.21957016],[112.79013062,-8.21949577],[112.79011536,-8.21935081],[112.78987885,-8.21884632],[112.78977203,-8.21864414],[112.78952789,-8.21835232],[112.78896332,-8.21788216],[112.78866577,-8.21796417],[112.78861237,-8.21805859],[112.78851318,-8.2182436],[112.78842926,-8.21869946],[112.78846741,-8.21887112],[112.78855133,-8.21906757],[112.78865051,-8.21925068],[112.78878021,-8.21948528],[112.78842926,-8.21988869],[112.78833008,-8.21998119],[112.78835297,-8.22016335],[112.78851318,-8.22026348],[112.78873444,-8.22044849],[112.78885651,-8.22093582],[112.78812408,-8.22090816],[112.78794098,-8.22089195],[112.78775024,-8.22087479],[112.78720093,-8.22095871],[112.78717804,-8.22105598],[112.78712463,-8.2212925],[112.78709412,-8.22144508],[112.78687286,-8.22150326],[112.78665924,-8.22138405],[112.78652954,-8.2211628],[112.78634644,-8.22071934],[112.78625488,-8.22055054],[112.78586578,-8.21986389],[112.78562927,-8.21983147],[112.78538513,-8.22000122],[112.78538513,-8.22010326],[112.78542328,-8.22178555],[112.78543854,-8.22191525],[112.78543854,-8.2221756],[112.78547668,-8.2223587],[112.7855072,-8.22261906],[112.78549194,-8.22270298],[112.7854538,-8.22286224],[112.78530884,-8.22311306],[112.78523254,-8.22317219],[112.7850647,-8.22315884],[112.78501129,-8.22305202],[112.78501129,-8.22278881],[112.78488922,-8.22277164],[112.78420258,-8.22334194],[112.78406525,-8.22352219],[112.78401184,-8.22358894],[112.78388214,-8.22372913],[112.78400421,-8.22388172],[112.78409576,-8.22393799],[112.78440857,-8.22421265],[112.78443909,-8.2244606],[112.78424072,-8.22451591],[112.78385162,-8.22440815],[112.78371429,-8.22457409],[112.78391266,-8.22493076],[112.78413391,-8.22495747],[112.78461456,-8.22505665],[112.78471375,-8.22520351],[112.78500366,-8.22528267],[112.7855072,-8.22521973],[112.78599548,-8.22486877],[112.7861557,-8.2250309],[112.78601837,-8.22558308],[112.78610229,-8.22599602],[112.78623962,-8.22621536],[112.78640747,-8.22621441],[112.78649139,-8.22605324],[112.78675842,-8.22649097],[112.787117,-8.22628593],[112.78749084,-8.22594357],[112.78768921,-8.2257576],[112.78786469,-8.22452068],[112.78813171,-8.2243576],[112.78858185,-8.22466183],[112.78842163,-8.22507668],[112.78850555,-8.22526836],[112.78887939,-8.22531796],[112.78897095,-8.2254343],[112.78911591,-8.2255125],[112.78934479,-8.22551823],[112.78955841,-8.22567749],[112.79027557,-8.22589493],[112.79030609,-8.22577095],[112.79081726,-8.22600651],[112.79111481,-8.22569847],[112.79116821,-8.22660732],[112.79130554,-8.22721291],[112.79150391,-8.22734928],[112.79169464,-8.22737598],[112.79173279,-8.22729111],[112.79194641,-8.22731018],[112.79213715,-8.22708893],[112.79218292,-8.22703075],[112.79262543,-8.22700405],[112.79270935,-8.22712898],[112.79290771,-8.22711563],[112.79291534,-8.22673988],[112.79289246,-8.22624397],[112.7930069,-8.22632122],[112.79308319,-8.22641945],[112.79314423,-8.22663116],[112.79318237,-8.22690105],[112.79336548,-8.22690678],[112.7935791,-8.22691441],[112.7937088,-8.22692585],[112.79387665,-8.22703552],[112.79396057,-8.22717857],[112.79412842,-8.22736549],[112.79429626,-8.22727013],[112.79455566,-8.22732258],[112.79465485,-8.22733498],[112.7948761,-8.22756863],[112.79498291,-8.22753429],[112.7950592,-8.22751045],[112.79521179,-8.22756672],[112.79537201,-8.22722149],[112.79550934,-8.22711086],[112.79600525,-8.22713661],[112.79634094,-8.22746944],[112.79649353,-8.22744465],[112.79668427,-8.22758102],[112.79703522,-8.22779274],[112.79708099,-8.22787952],[112.7973175,-8.22794724],[112.79756165,-8.22828674],[112.798172,-8.22834969],[112.79830933,-8.22848988],[112.79863739,-8.22850227],[112.79880524,-8.22858429],[112.79908752,-8.22858334],[112.79923248,-8.22849083],[112.79930115,-8.2284441],[112.79946899,-8.22805786],[112.80006409,-8.22813511],[112.80039215,-8.22827816],[112.80041504,-8.22837734],[112.80062103,-8.22838211],[112.80091095,-8.22851181],[112.80099487,-8.2285471],[112.80146027,-8.22859955],[112.80158997,-8.22853661],[112.80195618,-8.22835827],[112.8020401,-8.22831249],[112.80262756,-8.22832394],[112.80283356,-8.22820854],[112.8032608,-8.22830772],[112.80348206,-8.22844028],[112.80345917,-8.22881222],[112.80370331,-8.22882843],[112.80387115,-8.22906303],[112.80406189,-8.22905636],[112.80395508,-8.2292223],[112.80373383,-8.22925091],[112.8032608,-8.22936249],[112.80306244,-8.22968864],[112.80361176,-8.23309422],[112.80362701,-8.23323154],[112.80376434,-8.23401928],[112.80400848,-8.23547649],[112.80414581,-8.23575783],[112.80451965,-8.23656654],[112.80487061,-8.23730946],[112.80485535,-8.23747253],[112.80464172,-8.23913193],[112.80458069,-8.2395792],[112.80469513,-8.24026775],[112.80479431,-8.24040413],[112.8048172,-8.24051285],[112.80469513,-8.24087334],[112.80470276,-8.24147987],[112.80483246,-8.24169731],[112.80484009,-8.24215031],[112.80521393,-8.24310398],[112.80617523,-8.24411774],[112.80567932,-8.24436855],[112.80525208,-8.24475288],[112.80519867,-8.24480247],[112.80517578,-8.24494076],[112.80506897,-8.24555588],[112.80504608,-8.24567127],[112.80488586,-8.24603748],[112.80486298,-8.24748516],[112.80529022,-8.24877834],[112.8054657,-8.24893379],[112.80560303,-8.24900913],[112.80558014,-8.24944592],[112.80543518,-8.2495327],[112.80529022,-8.24965954],[112.80513763,-8.25015831],[112.80496979,-8.25028896],[112.80491638,-8.25034332],[112.80485535,-8.25048256],[112.8046875,-8.25090218],[112.8038559,-8.25155067],[112.80381012,-8.25185394],[112.80360413,-8.25223446],[112.80348206,-8.25243378],[112.80316925,-8.25230026],[112.80283356,-8.25216866],[112.80260468,-8.25225258],[112.80238342,-8.25273991],[112.80239868,-8.25282097],[112.80245972,-8.25289631],[112.80260468,-8.25297451],[112.80293274,-8.25309181],[112.80298615,-8.25344753],[112.80277252,-8.25378036],[112.8026886,-8.25391293],[112.80241394,-8.25405121],[112.80226135,-8.2540617],[112.80199432,-8.25411034],[112.80174255,-8.25435925],[112.80175018,-8.2548008],[112.80173492,-8.25490093],[112.80167389,-8.255023],[112.80162811,-8.25512028],[112.80162811,-8.25623989],[112.80179596,-8.25643063],[112.8017807,-8.25687408],[112.80177307,-8.25708675],[112.80195618,-8.25716305],[112.80210114,-8.25721741],[112.8021698,-8.2570076],[112.80220795,-8.25686646],[112.80253601,-8.25691891],[112.80237579,-8.25708389],[112.80240631,-8.25730228],[112.80235291,-8.25743961],[112.80223083,-8.25743961],[112.80187988,-8.25744152],[112.80211639,-8.25795269],[112.80257416,-8.25779629],[112.80284119,-8.25781918],[112.80332947,-8.25801182],[112.80366516,-8.25817394],[112.80378723,-8.25823021],[112.80400848,-8.25833416],[112.80401611,-8.25842953],[112.80422974,-8.25848484],[112.80457306,-8.25906849],[112.80506897,-8.25949764],[112.80557251,-8.2596817],[112.80570984,-8.2597847],[112.80626678,-8.26002216],[112.80659485,-8.26038456],[112.8066864,-8.26084614],[112.80774689,-8.26222801],[112.80834961,-8.26278782],[112.80856323,-8.26306915],[112.80870056,-8.26311493],[112.8092041,-8.26339245],[112.80943298,-8.26373768],[112.80995178,-8.26449776],[112.81007385,-8.26492882],[112.80992126,-8.26517582],[112.80955505,-8.26517773],[112.8091507,-8.26507187],[112.80902863,-8.26518059],[112.80892181,-8.26527405],[112.80885315,-8.26581478],[112.80923462,-8.26620865],[112.80937958,-8.2663517],[112.80950165,-8.26751995],[112.80973816,-8.26807308],[112.80965424,-8.26817989],[112.80955505,-8.26825714],[112.80918884,-8.26814938],[112.80891418,-8.26831532],[112.8089447,-8.26867199],[112.80914307,-8.26900768],[112.80916595,-8.26990128],[112.80874634,-8.27023792],[112.80872345,-8.27037334],[112.80865479,-8.2705965],[112.80872345,-8.27082157],[112.80879211,-8.27103615],[112.80905151,-8.27111626],[112.80923462,-8.27117157],[112.80935669,-8.27135754],[112.80942535,-8.27147293],[112.80943298,-8.27171993],[112.80963898,-8.27179241],[112.80996704,-8.27190495],[112.81017303,-8.27268124],[112.81021118,-8.27279663],[112.81031799,-8.27325439],[112.81047058,-8.27328491],[112.81072998,-8.27335453],[112.811203,-8.2740221],[112.811203,-8.2741785],[112.81134796,-8.27423954],[112.81187439,-8.27488708],[112.8119812,-8.275033],[112.81220245,-8.27511215],[112.81220245,-8.2753067],[112.8123703,-8.27555275],[112.81226349,-8.27582836],[112.81234741,-8.27593803],[112.81234741,-8.27621269],[112.81216431,-8.27636242],[112.81190491,-8.27657223],[112.81186676,-8.27663517],[112.81174469,-8.27682018],[112.811409,-8.27689934],[112.81130981,-8.27692413],[112.81102753,-8.27707005],[112.81089783,-8.27740669],[112.81085968,-8.27751064],[112.81065369,-8.27758789],[112.81004333,-8.27781487],[112.80973816,-8.27812004],[112.80979156,-8.27835655],[112.80973053,-8.27859974],[112.80982971,-8.27871895],[112.80977631,-8.27882576],[112.80973053,-8.2788868],[112.80963898,-8.27900696],[112.80949402,-8.27908325],[112.8090744,-8.27900219],[112.80869293,-8.27927876],[112.80861664,-8.27936172],[112.80825043,-8.27974796],[112.80808258,-8.28040409],[112.80805206,-8.28053188],[112.80736542,-8.28059292],[112.80635071,-8.28058052],[112.80628204,-8.2807045],[112.80620575,-8.28082466],[112.80612183,-8.28078747],[112.80599976,-8.28156567],[112.80532837,-8.28240967],[112.80530548,-8.28248405],[112.80602264,-8.28262997],[112.80618286,-8.28265953],[112.80671692,-8.28277969],[112.80738831,-8.28293037],[112.80799103,-8.28306007],[112.80873871,-8.28322029],[112.80944061,-8.28334999],[112.81015778,-8.28347969],[112.81076813,-8.28359032],[112.81118011,-8.28366089],[112.81113434,-8.28449726],[112.81111908,-8.28456974],[112.81108856,-8.28464985],[112.81103516,-8.28474998],[112.81077576,-8.28495884],[112.81052399,-8.28496933],[112.81044769,-8.28495979],[112.8102417,-8.2849102],[112.81008148,-8.28493977],[112.80995941,-8.28505039],[112.80986023,-8.28518009],[112.8097229,-8.28532028],[112.8092804,-8.28559971],[112.80919647,-8.28565979],[112.80906677,-8.28575993],[112.80901337,-8.28592968],[112.809021,-8.2860899],[112.80912018,-8.28635979],[112.80926514,-8.28654957],[112.80951691,-8.28674984],[112.80981445,-8.28699207],[112.80995178,-8.28715801],[112.81001282,-8.28729057],[112.80993652,-8.28742981],[112.80983734,-8.28752708],[112.80948639,-8.28754425],[112.80934906,-8.28748989],[112.80924988,-8.28744984],[112.80912781,-8.28742981],[112.80895996,-8.28752995],[112.80886078,-8.28763676],[112.80879974,-8.28775024],[112.80895996,-8.28794956],[112.80905914,-8.28801346],[112.80924225,-8.28810024],[112.80943298,-8.28820992],[112.80953979,-8.28834057],[112.80957794,-8.28845978],[112.80951691,-8.28874016],[112.80947876,-8.28880978],[112.80943298,-8.28889179],[112.80937195,-8.28901005],[112.80928802,-8.28913975],[112.80921936,-8.28925991],[112.8092041,-8.28936195],[112.80924988,-8.28948975],[112.80950928,-8.28956985],[112.8095932,-8.28958988],[112.80970764,-8.28962994],[112.80974579,-8.28969574],[112.80986023,-8.28991413],[112.80995178,-8.29008007],[112.81005859,-8.29016018],[112.81018066,-8.29036522],[112.81020355,-8.29047775],[112.81024933,-8.29072094],[112.81031799,-8.29152966],[112.81031036,-8.29176998],[112.81030273,-8.29226017],[112.81028748,-8.2924099],[112.81035614,-8.29266453],[112.81037903,-8.29273987],[112.81046295,-8.29285812],[112.81053162,-8.29292011],[112.81085968,-8.29292011],[112.81098175,-8.29293537],[112.81109619,-8.29294968],[112.81118011,-8.29299736],[112.81128693,-8.2930603],[112.81139374,-8.29318047],[112.81153107,-8.29394913],[112.81154633,-8.2940855],[112.81169128,-8.29501438],[112.81175232,-8.29519653],[112.81182861,-8.29538631],[112.81195068,-8.29555035],[112.81204224,-8.29559994],[112.81217957,-8.29566002],[112.81230164,-8.29570961],[112.81240082,-8.29590988],[112.81244659,-8.29617977],[112.81242371,-8.29633999],[112.81224823,-8.29650021],[112.81208038,-8.29662037],[112.81199646,-8.29673004],[112.81192017,-8.29687977],[112.81168365,-8.29751968],[112.81166077,-8.29759026],[112.81165314,-8.29769993],[112.81169128,-8.29800987],[112.81166077,-8.29852009],[112.81165314,-8.29878998],[112.81153107,-8.29894066],[112.81139374,-8.29913044],[112.8112793,-8.29930019],[112.81124115,-8.29957008],[112.81130219,-8.30008984],[112.811409,-8.30020046],[112.81170654,-8.30023003],[112.81213379,-8.30023956],[112.81221008,-8.30025005],[112.81233978,-8.30029011],[112.81252289,-8.3003397],[112.81269073,-8.30037498],[112.81285858,-8.30041027],[112.81301117,-8.3004303],[112.81313324,-8.30043983],[112.8137207,-8.30060005],[112.81417847,-8.30074978],[112.81461334,-8.30093956],[112.81500244,-8.30121994],[112.81539154,-8.30158043],[112.81569672,-8.30189991],[112.81571198,-8.30208969],[112.81578827,-8.3023901],[112.81584167,-8.30249023],[112.81591034,-8.30259037],[112.81607819,-8.30276012],[112.81633759,-8.30292034],[112.81665802,-8.3030901],[112.81741333,-8.30338955],[112.81762695,-8.30350971],[112.81788635,-8.30372047],[112.81791687,-8.30389023],[112.81832123,-8.30393028],[112.81884766,-8.30416965],[112.81941223,-8.30447006],[112.819664,-8.30458736],[112.81989288,-8.30469036],[112.82054901,-8.30494976],[112.82067108,-8.30502987],[112.82093811,-8.30521965],[112.82147217,-8.30558968],[112.82185364,-8.30589962],[112.82232666,-8.30622959],[112.82276917,-8.30653],[112.82286835,-8.30655956],[112.8232193,-8.30667591],[112.82391357,-8.30685043],[112.82405853,-8.30686283],[112.82472992,-8.30692005],[112.82533264,-8.30696964],[112.82613373,-8.30694962],[112.82726288,-8.30692005],[112.82788849,-8.30688953],[112.82815552,-8.30687523],[112.82861328,-8.30685043],[112.82964325,-8.30673981],[112.83061218,-8.30667019],[112.83100891,-8.30663013],[112.83183289,-8.30655003],[112.83215332,-8.30650043],[112.83273315,-8.30643845],[112.83286285,-8.30639839],[112.83332825,-8.30636692],[112.83345795,-8.30634975],[112.83365631,-8.3063221],[112.8338089,-8.30630016],[112.83433533,-8.30630016],[112.83456421,-8.3062849],[112.83470154,-8.30633736],[112.83495331,-8.30643749],[112.83509827,-8.30649471],[112.8355484,-8.30680561],[112.83567047,-8.30688858],[112.83627319,-8.30737019],[112.83646393,-8.3075552],[112.83657837,-8.3076601],[112.83669281,-8.30774975],[112.83711243,-8.30811977],[112.83743286,-8.30840015],[112.83757019,-8.30852032],[112.83773041,-8.30865955],[112.83808136,-8.30891705],[112.83815002,-8.30897045],[112.83863831,-8.30922985],[112.83889008,-8.30921459],[112.83930206,-8.3091898],[112.83920288,-8.30994034],[112.83947754,-8.31005001],[112.83956146,-8.31011963],[112.83970642,-8.31025982],[112.83975983,-8.31031036],[112.83982086,-8.31035995],[112.83997345,-8.3105402],[112.84026337,-8.31093025],[112.84042358,-8.31101036],[112.84065247,-8.3110199],[112.84073639,-8.3110199],[112.84102631,-8.31105042],[112.84136963,-8.31118011],[112.84146118,-8.31120968],[112.84166718,-8.31122971],[112.8420105,-8.31126976],[112.84223938,-8.31130028],[112.84220123,-8.31138039],[112.84214783,-8.3115797],[112.84216309,-8.31169987],[112.8421936,-8.31177044],[112.84223938,-8.31192017],[112.8423233,-8.31206989],[112.8423233,-8.31219959],[112.84229279,-8.3122797],[112.84211731,-8.31262016],[112.84207916,-8.31270981],[112.84203339,-8.31285],[112.84208679,-8.31338024],[112.84221649,-8.31373978],[112.84246826,-8.31418037],[112.84288788,-8.31476974],[112.84303284,-8.31494999],[112.84316254,-8.31525993],[112.84324646,-8.31558037],[112.84335327,-8.31577969],[112.84355164,-8.31599998],[112.84381866,-8.31612968],[112.84374237,-8.3162899],[112.84372711,-8.31639004],[112.84371948,-8.31653023],[112.84371185,-8.31672955],[112.84365082,-8.3168602],[112.84352875,-8.31694031],[112.84340668,-8.31698036],[112.84335327,-8.31704044],[112.84326935,-8.31723976],[112.8432312,-8.31739998],[112.84317017,-8.31764984],[112.84310913,-8.31789017],[112.84300232,-8.31840038],[112.84303284,-8.31863022],[112.84326935,-8.31892014],[112.84348297,-8.31919956],[112.84358215,-8.31943989],[112.84361267,-8.31978035],[112.84352112,-8.31997013],[112.84339905,-8.32019043],[112.84326935,-8.3204298],[112.84319305,-8.32044029],[112.84307098,-8.32048035],[112.84306335,-8.32056046],[112.84308624,-8.32067966],[112.84294891,-8.32081032],[112.84272003,-8.32085991],[112.84262848,-8.32089043],[112.84249115,-8.32104969],[112.84236908,-8.32118988],[112.84213257,-8.32147026],[112.84217834,-8.32162952],[112.84227753,-8.32194042],[112.8422699,-8.32201958],[112.84223175,-8.32209015],[112.84216309,-8.32217026],[112.84210968,-8.32221985],[112.84176636,-8.32256985],[112.84156036,-8.32285976],[112.84147644,-8.32299042],[112.84140778,-8.32306004],[112.84133911,-8.32310009],[112.84126282,-8.32316017],[112.84118652,-8.32322025],[112.84113312,-8.32328033],[112.84105682,-8.32334995],[112.84098816,-8.32341957],[112.84088898,-8.32351017],[112.84072113,-8.32359982],[112.84076691,-8.32378006],[112.84078217,-8.32388973],[112.84075928,-8.32409954],[112.84072113,-8.3242197],[112.84066772,-8.32435036],[112.84062958,-8.32444],[112.84052277,-8.32466984],[112.84037781,-8.32491016],[112.84033203,-8.32497978],[112.84021759,-8.32522011],[112.8401413,-8.32542992],[112.84011841,-8.32555008],[112.84011841,-8.32571983],[112.8401413,-8.32586956],[112.84015656,-8.32594013],[112.84024811,-8.32612038],[112.84043884,-8.32635021],[112.8405304,-8.32639027],[112.84076691,-8.32651997],[112.84088898,-8.32664013],[112.84111786,-8.32695961],[112.84118652,-8.32703018],[112.84130859,-8.32709026],[112.84153748,-8.32719994],[112.84190369,-8.32748985],[112.84220123,-8.32783985],[112.8422699,-8.32796001],[112.84237671,-8.32818985],[112.84242249,-8.32839012],[112.84230804,-8.32863998],[112.84216309,-8.32878971],[112.84185028,-8.32907009],[112.84179688,-8.3291502],[112.84159851,-8.32952023],[112.84149933,-8.32975006],[112.84133148,-8.33026028],[112.84127808,-8.33052349],[112.84118652,-8.3309803],[112.84120178,-8.33106995],[112.84123993,-8.33119965],[112.84140778,-8.33146954],[112.84145355,-8.3316803],[112.84140015,-8.33181953],[112.84130096,-8.33191967],[112.84098816,-8.33220005],[112.84092712,-8.3323698],[112.8409729,-8.33265972],[112.84107971,-8.33290005],[112.8409729,-8.33286953],[112.8408432,-8.33290005],[112.84073639,-8.33294964],[112.84033966,-8.33314037],[112.840271,-8.33318043],[112.8400116,-8.3332901],[112.83992004,-8.33331013],[112.83963776,-8.33331966],[112.83939362,-8.33331013],[112.8392868,-8.33331013],[112.83912659,-8.3332901],[112.83882141,-8.3332901],[112.83870697,-8.33327961],[112.83849335,-8.33325958],[112.83836365,-8.33323002],[112.83820343,-8.33316994],[112.83802795,-8.33310032],[112.83786774,-8.33302975],[112.83769226,-8.3329401],[112.83757019,-8.33285999],[112.83750153,-8.33283043],[112.83731842,-8.33273029],[112.8371582,-8.33265972],[112.83705902,-8.33263016],[112.8368988,-8.33259964],[112.83669281,-8.3325901],[112.83647919,-8.33255959],[112.83624268,-8.33244038],[112.83602905,-8.33232975],[112.83592987,-8.3322897],[112.83576965,-8.33222008],[112.83564758,-8.33220005],[112.83550262,-8.33218002],[112.83535767,-8.33218002],[112.83516693,-8.33218002],[112.83503723,-8.33220959],[112.83493042,-8.3322401],[112.83476257,-8.33232021],[112.83460999,-8.33238029],[112.8344574,-8.33244991],[112.83435059,-8.33250046],[112.834198,-8.33253002],[112.83409882,-8.33253956],[112.83400726,-8.33253956],[112.83379364,-8.33253002],[112.8335495,-8.33244038],[112.83344269,-8.33240032],[112.83334351,-8.33236027],[112.83312988,-8.33230019],[112.83286285,-8.33222008],[112.83244324,-8.33230972],[112.8318634,-8.33259964],[112.83123779,-8.33286953],[112.830513,-8.33308029],[112.82994843,-8.3331604],[112.82929993,-8.33308983],[112.82849884,-8.33294964],[112.82765961,-8.33279991],[112.82724762,-8.33275032],[112.82675934,-8.33275986],[112.82668304,-8.33275986],[112.82634735,-8.33279037],[112.82585907,-8.33288002],[112.82476807,-8.33308887],[112.82376099,-8.33321953],[112.82292175,-8.33325005],[112.82260132,-8.33323002],[112.82227325,-8.33320999],[112.8218689,-8.33318996],[112.82147217,-8.33316994],[112.82100677,-8.33325005],[112.82068634,-8.33347988],[112.82019043,-8.33382988],[112.82001495,-8.33398247],[112.81974792,-8.33421993],[112.81899261,-8.33487034],[112.81876373,-8.33504963],[112.81817627,-8.33557034],[112.81745911,-8.33619976],[112.8171463,-8.33646011],[112.81661224,-8.3369503],[112.81626892,-8.33722019],[112.81564331,-8.33771992],[112.8154068,-8.33790016],[112.81484985,-8.33813],[112.81455231,-8.33823013],[112.81408691,-8.33831024],[112.81378174,-8.33833981],[112.81327057,-8.33831978],[112.81292725,-8.33821964],[112.81244659,-8.33796978],[112.81213379,-8.33771992],[112.81170654,-8.33724022],[112.81137085,-8.33668041],[112.81125641,-8.33625984],[112.81124115,-8.33572006],[112.81130981,-8.3352499],[112.81143188,-8.33473015],[112.81143951,-8.33465004],[112.81163025,-8.33391953],[112.81169891,-8.33345032],[112.81169891,-8.33296013],[112.81166077,-8.33277035],[112.81150055,-8.3324604],[112.81144714,-8.33238029],[112.81125641,-8.3321104],[112.81091309,-8.33180046],[112.8106308,-8.33170033],[112.81005096,-8.33164978],[112.80944824,-8.33181],[112.80879974,-8.33207035],[112.80792999,-8.33243942],[112.8079834,-8.32860947],[112.80765533,-8.32715225],[112.8075943,-8.32668114],[112.80569458,-8.32785034],[112.80415344,-8.32821751],[112.80288696,-8.32889938],[112.80162048,-8.32913113],[112.80104828,-8.32942104],[112.79930878,-8.33002853],[112.79869843,-8.33013248],[112.79647064,-8.33050632],[112.79587555,-8.33068275],[112.79538727,-8.33082676],[112.79482269,-8.33089161],[112.79477692,-8.33036518],[112.7948761,-8.32861996],[112.79463196,-8.32864857],[112.79207611,-8.32894897],[112.7919693,-8.32891369],[112.79168701,-8.32881451],[112.79116821,-8.32863712],[112.78709412,-8.32829475],[112.78614044,-8.32825375],[112.78573608,-8.32884216],[112.78406525,-8.32966042],[112.78361511,-8.33011913],[112.78321075,-8.33052063],[112.78181458,-8.33214951],[112.78141785,-8.3324461],[112.78119659,-8.33255863],[112.78017426,-8.33290291],[112.77964783,-8.33299065],[112.77960205,-8.33263969],[112.7803421,-8.32954979],[112.78050995,-8.32884502],[112.77872467,-8.32840824],[112.77766418,-8.3282156],[112.77484894,-8.3288002],[112.77230835,-8.32932568],[112.77186584,-8.32922459],[112.77075958,-8.32897091],[112.77048492,-8.32797623],[112.77041626,-8.32795429],[112.7686615,-8.32737923],[112.76856995,-8.32735062],[112.76776886,-8.32596016],[112.7671051,-8.32482243],[112.76155853,-8.32448483],[112.76076508,-8.32717896],[112.76049042,-8.32819462],[112.76075745,-8.33011913],[112.76108551,-8.33241558],[112.76078033,-8.33303165],[112.76042175,-8.33321285],[112.76016235,-8.3333416],[112.75975037,-8.33334351],[112.75949097,-8.333251],[112.75862122,-8.33293819],[112.7562027,-8.33291626],[112.75592804,-8.33275127],[112.7554245,-8.33244038],[112.75495911,-8.33210468],[112.75492096,-8.33200932],[112.75494385,-8.33181858],[112.75495911,-8.33166695],[112.75492859,-8.33129597],[112.75531006,-8.32996559],[112.75449371,-8.32949734],[112.75371552,-8.32904339],[112.75392151,-8.32691479],[112.75417328,-8.32476997],[112.75463867,-8.32080364],[112.75499725,-8.32053089],[112.7550354,-8.31876945],[112.75514984,-8.31389427],[112.75521088,-8.31379032],[112.7563324,-8.31260014],[112.75636292,-8.31252289],[112.75674438,-8.31184292],[112.75671387,-8.31156921],[112.7570343,-8.31069279],[112.75714874,-8.31053448],[112.75713348,-8.31043625],[112.75720215,-8.31024075],[112.75812531,-8.30804634],[112.75902557,-8.30623627],[112.75959778,-8.30508137],[112.75954437,-8.29944611],[112.75952911,-8.29780579],[112.7594986,-8.2941885],[112.75960541,-8.2941618],[112.75978851,-8.29389095],[112.75973511,-8.29249382],[112.75979614,-8.29038334],[112.75984955,-8.28834629],[112.76002502,-8.2869482],[112.76002502,-8.28609085],[112.7600708,-8.28523827],[112.76018524,-8.28298378],[112.76021576,-8.28240299],[112.76019287,-8.28220081],[112.76013947,-8.28159237],[112.76002502,-8.28034592],[112.76016998,-8.27911282],[112.76182556,-8.27902889],[112.76247406,-8.27899551],[112.7660141,-8.2789135],[112.76682281,-8.27889538],[112.76698303,-8.2788496],[112.76779938,-8.27907848],[112.7682724,-8.27924919],[112.76901245,-8.27916431],[112.7703476,-8.27999878],[112.77044678,-8.28009605],[112.77072906,-8.28090477],[112.77098846,-8.28165245],[112.77109528,-8.28194141],[112.77146149,-8.28223419],[112.77156067,-8.28235245],[112.77167511,-8.28284264],[112.77182007,-8.28267288],[112.77223206,-8.28203964],[112.77230072,-8.28192997],[112.77258301,-8.28145981],[112.77281952,-8.28106976],[112.77308655,-8.28054047],[112.77327728,-8.28009033],[112.77333832,-8.27981949],[112.77336121,-8.27970028],[112.77336884,-8.27957535],[112.77339935,-8.27923584],[112.77337646,-8.27886963],[112.77334595,-8.2786665],[112.7733078,-8.27847958],[112.77316284,-8.27799034],[112.77295685,-8.27756023],[112.77275848,-8.27719021],[112.77256775,-8.27676964],[112.77246094,-8.27639008],[112.77245331,-8.2762804],[112.77237701,-8.27554035],[112.77233887,-8.27519035],[112.77224731,-8.27453995],[112.7721405,-8.27390003],[112.77201843,-8.27344036],[112.77192688,-8.27322769],[112.77185059,-8.27305031],[112.77172089,-8.27283287],[112.77165222,-8.27274036],[112.77142334,-8.27248001],[112.77117157,-8.27225971],[112.77097321,-8.27212334],[112.77079773,-8.26947594],[112.77085876,-8.26904011],[112.77088165,-8.26838017],[112.77082825,-8.26788998],[112.7707901,-8.26766968],[112.77071381,-8.26745987],[112.7706604,-8.26737785],[112.77064514,-8.26719666],[112.76985931,-8.26534748],[112.76976013,-8.2650404],[112.76963806,-8.26449013],[112.76959991,-8.26430035],[112.76950073,-8.26381969],[112.76947784,-8.2636404],[112.76940918,-8.26309299],[112.76940155,-8.26301003],[112.76937866,-8.26263046],[112.76934052,-8.26199627],[112.76933289,-8.26183033],[112.76931,-8.26163006],[112.76924133,-8.26138973],[112.76911926,-8.26123047],[112.76904297,-8.26112366],[112.76898193,-8.26093674],[112.76869965,-8.26010799],[112.76869202,-8.25981045],[112.76872253,-8.25938034],[112.76873016,-8.25887966],[112.76870728,-8.25833035],[112.76869965,-8.25804043],[112.76862335,-8.25771427],[112.76857758,-8.25759888],[112.76844788,-8.25730038],[112.76804352,-8.25673389],[112.76725006,-8.25678253],[112.76714325,-8.25687885],[112.76686096,-8.25712585],[112.76478577,-8.25895977],[112.76483917,-8.26080132],[112.76482391,-8.26095486],[112.76268005,-8.26084518],[112.76237488,-8.26009369],[112.76237488,-8.25989628],[112.76247406,-8.2592659],[112.76236725,-8.25925922],[112.7611618,-8.25918579],[112.76023865,-8.25912952],[112.7589035,-8.25858116],[112.75642395,-8.2572546],[112.75595856,-8.25625324],[112.75590515,-8.25615215],[112.75566101,-8.25619888],[112.75531769,-8.25626183],[112.75182343,-8.25691032],[112.7517395,-8.25692654],[112.75164795,-8.25692654],[112.75131226,-8.25685024],[112.75039673,-8.25668621],[112.7502594,-8.25642681],[112.74991608,-8.25573921],[112.74963379,-8.25548744]
					]
				]
			}
		}
	]
}