{
	"type": "FeatureCollection",
	"features": [
		{
			"type": "Feature",
			"properties": {
				"ISO": "IDN",
				"NAME": "Jabung, Malang, Jawa Timur, IDN",
				"TYPE": "Kecamatan",
				"CODE":	"35.07.17"
			},
			"geometry": {
				"type": "Polygon",
				"coordinates": [
					[
						[112.73638153,-7.95408058],[112.73601532,-7.95394325],[112.73525238,-7.95366001],[112.73511505,-7.95362663],[112.73473358,-7.95352983],[112.73452759,-7.9534893],[112.73442841,-7.95347023],[112.73419189,-7.95342016],[112.73397827,-7.95338011],[112.73371124,-7.95332146],[112.73299408,-7.95324993],[112.73287964,-7.95323896],[112.73236084,-7.952981],[112.73221588,-7.95293379],[112.7321167,-7.95289993],[112.73195648,-7.95278263],[112.73179626,-7.9526701],[112.73191071,-7.95249987],[112.73197937,-7.95232487],[112.73206329,-7.95217133],[112.73226929,-7.95178843],[112.73246002,-7.95118141],[112.73284912,-7.95018721],[112.7329483,-7.94894552],[112.73297882,-7.94860506],[112.73299408,-7.9484005],[112.73282623,-7.94799376],[112.7326889,-7.94765759],[112.73213959,-7.94736195],[112.73104095,-7.94612598],[112.73203278,-7.94438505],[112.73155212,-7.94389772],[112.73103333,-7.94336843],[112.73039246,-7.94279289],[112.73052216,-7.94231367],[112.73060608,-7.94207287],[112.73048401,-7.94151258],[112.73052979,-7.94140577],[112.7306366,-7.94110012],[112.73054504,-7.9408803],[112.7305069,-7.94078112],[112.72904205,-7.93924904],[112.72799683,-7.93811512],[112.72803497,-7.93802691],[112.72897339,-7.93600225],[112.72924042,-7.93542528],[112.72964478,-7.933043],[112.72975922,-7.93245554],[112.73000336,-7.93212032],[112.73040771,-7.93162537],[112.73083496,-7.93073225],[112.73130035,-7.92978477],[112.73168945,-7.92857838],[112.73217773,-7.92751265],[112.73254395,-7.92669392],[112.73284149,-7.92607021],[112.73278809,-7.92581987],[112.73278809,-7.92566109],[112.73278809,-7.92553997],[112.73284912,-7.92509985],[112.73287201,-7.92499018],[112.73297882,-7.92456007],[112.733078,-7.92429256],[112.73313141,-7.92414999],[112.73177338,-7.92402506],[112.73192596,-7.92360306],[112.73205566,-7.92318106],[112.73294067,-7.92127609],[112.73342896,-7.92041206],[112.73206329,-7.91977406],[112.73181152,-7.91959095],[112.73147583,-7.91950226],[112.73131561,-7.91945648],[112.73123932,-7.91961002],[112.72957611,-7.91883516],[112.72934723,-7.91875029],[112.72927856,-7.91872597],[112.72916412,-7.91871834],[112.72903442,-7.91888332],[112.72815704,-7.91997242],[112.72757721,-7.92093754],[112.72743988,-7.92106152],[112.72737885,-7.92111492],[112.72724152,-7.92113161],[112.72662354,-7.92091608],[112.72582245,-7.9207058],[112.72540283,-7.92162704],[112.7245636,-7.92281866],[112.72449493,-7.92295361],[112.72440338,-7.92307568],[112.72390747,-7.92400646],[112.72387695,-7.92407274],[112.72381592,-7.92417192],[112.72357178,-7.92458582],[112.72274017,-7.92542505],[112.72266388,-7.92549849],[112.72222137,-7.92611313],[112.72201538,-7.92623329],[112.72146606,-7.92645216],[112.72127533,-7.92664671],[112.72098541,-7.92686272],[112.72091675,-7.92690992],[112.72070313,-7.92723083],[112.72044373,-7.92750645],[112.71983337,-7.92811346],[112.71921539,-7.92827082],[112.71903992,-7.92820978],[112.71885681,-7.9277401],[112.71865082,-7.92742014],[112.7186203,-7.92718983],[112.71859741,-7.92712021],[112.71853638,-7.92699003],[112.71848297,-7.92686987],[112.71842194,-7.9266901],[112.71836853,-7.92654991],[112.71835327,-7.92638016],[112.71837616,-7.92614794],[112.71829224,-7.92608023],[112.71813965,-7.92602015],[112.71800232,-7.92601013],[112.71793365,-7.92573023],[112.7179184,-7.92561007],[112.71790314,-7.92547989],[112.71785736,-7.92530012],[112.71788788,-7.92497015],[112.71798706,-7.92481995],[112.71791077,-7.92457008],[112.7177887,-7.92447996],[112.7175293,-7.9243598],[112.7173996,-7.92430019],[112.71726227,-7.92422009],[112.71708679,-7.92394018],[112.71697998,-7.9236598],[112.71692657,-7.92347002],[112.71685791,-7.92323017],[112.71678162,-7.92296982],[112.71672821,-7.92275],[112.71669769,-7.92257977],[112.71676636,-7.92222977],[112.71685791,-7.92176008],[112.71700287,-7.92148018],[112.71720886,-7.92124987],[112.71727753,-7.92117977],[112.71746063,-7.92101002],[112.71753693,-7.92093992],[112.71768951,-7.92081022],[112.71784973,-7.92068005],[112.71817017,-7.92038298],[112.71829987,-7.92026997],[112.71813965,-7.91988993],[112.71807098,-7.91975021],[112.71790314,-7.91928005],[112.71787262,-7.91919994],[112.71762085,-7.91855001],[112.71720123,-7.91766977],[112.71701813,-7.9173584],[112.71691132,-7.91734886],[112.71385956,-7.9170332],[112.71550751,-7.91542006],[112.71563721,-7.91529417],[112.72101593,-7.90947008],[112.72138977,-7.90904379],[112.71994019,-7.90745354],[112.721138,-7.90621901],[112.72145844,-7.90629768],[112.7231369,-7.90671253],[112.72341156,-7.9067812],[112.72576141,-7.90731096],[112.72576904,-7.90669537],[112.72590637,-7.90677977],[112.72925568,-7.90748453],[112.73007202,-7.90765715],[112.73173523,-7.90800714],[112.73234558,-7.90813541],[112.73377228,-7.90878582],[112.73403931,-7.90890455],[112.7363205,-7.90994072],[112.73634338,-7.90970087],[112.73635101,-7.9093194],[112.73638916,-7.90893078],[112.73742676,-7.9086771],[112.73765564,-7.90866852],[112.73796082,-7.90867805],[112.73838806,-7.90864086],[112.73886871,-7.9085784],[112.73921204,-7.90823364],[112.73932648,-7.90811634],[112.74058533,-7.90808153],[112.74081421,-7.90807486],[112.74208069,-7.90803957],[112.74230957,-7.90803337],[112.74240875,-7.90798092],[112.7428894,-7.90803862],[112.74308777,-7.90771198],[112.74530029,-7.90733957],[112.74546814,-7.90731096],[112.74684143,-7.90756607],[112.74867249,-7.9078517],[112.74877167,-7.90788603],[112.74962616,-7.90801048],[112.75001526,-7.90826941],[112.75089264,-7.90784216],[112.75131989,-7.90784025],[112.7519455,-7.90822887],[112.7522049,-7.90754366],[112.75337982,-7.90773392],[112.75429535,-7.90720892],[112.75473785,-7.90682411],[112.75497437,-7.90661669],[112.75564575,-7.90602636],[112.75667572,-7.90521431],[112.75704193,-7.90491724],[112.75719452,-7.90467834],[112.75730133,-7.90432072],[112.75744629,-7.90398979],[112.75720978,-7.90401983],[112.75649261,-7.90411997],[112.75615692,-7.90415573],[112.75596619,-7.90431786],[112.75456238,-7.9041214],[112.75367737,-7.90394878],[112.7533493,-7.90393734],[112.75247192,-7.90313673],[112.75161743,-7.90225172],[112.75154877,-7.90217972],[112.75154114,-7.90209579],[112.75127411,-7.89988089],[112.75109863,-7.89838743],[112.75105286,-7.89800167],[112.75123596,-7.89751911],[112.75143433,-7.89699316],[112.75159454,-7.89656305],[112.7518158,-7.89598036],[112.75172424,-7.89586735],[112.75120544,-7.89528036],[112.75061035,-7.89483881],[112.75049591,-7.89475298],[112.75030518,-7.89431381],[112.75006866,-7.89377737],[112.75007629,-7.89369965],[112.75009918,-7.8934617],[112.75025177,-7.89151812],[112.75043488,-7.89125633],[112.75099945,-7.89033461],[112.75125122,-7.88952875],[112.75158691,-7.88824511],[112.75324249,-7.88611174],[112.75369263,-7.88553238],[112.75377655,-7.88539028],[112.75357056,-7.88521194],[112.75380707,-7.88507891],[112.75458527,-7.88445139],[112.75479889,-7.88426113],[112.7549057,-7.88417006],[112.75494385,-7.8840661],[112.7550354,-7.88380337],[112.75487518,-7.88368273],[112.75475311,-7.88358927],[112.75442505,-7.8835907],[112.75418091,-7.88365412],[112.7536087,-7.8836565],[112.75335693,-7.8831706],[112.75352478,-7.88307858],[112.75428772,-7.88264322],[112.754776,-7.88236094],[112.75512695,-7.88187122],[112.75521088,-7.88174009],[112.75556946,-7.88118267],[112.75537109,-7.88102341],[112.75474548,-7.88061142],[112.75489044,-7.88007879],[112.75482178,-7.87938547],[112.75498962,-7.87943935],[112.75493622,-7.87926722],[112.75500488,-7.87923145],[112.75565338,-7.87893534],[112.75590515,-7.87861204],[112.75667572,-7.87828016],[112.75685883,-7.87820387],[112.75694275,-7.87817001],[112.75823975,-7.87801266],[112.75861359,-7.87772703],[112.75884247,-7.87755394],[112.75888824,-7.87733603],[112.75899506,-7.87679338],[112.75888824,-7.8765049],[112.75876617,-7.87618637],[112.75895691,-7.875],[112.75897217,-7.8748908],[112.76068878,-7.87469339],[112.76083374,-7.87462616],[112.76097107,-7.87467384],[112.76144409,-7.87486076],[112.76152039,-7.87498379],[112.76163483,-7.87485266],[112.76180267,-7.87461567],[112.76222229,-7.87445211],[112.76247406,-7.87435436],[112.76346588,-7.87422657],[112.76357269,-7.87420893],[112.76462555,-7.87398672],[112.7649765,-7.87389994],[112.76590729,-7.87345982],[112.76672363,-7.87291193],[112.7667923,-7.87286997],[112.76712036,-7.8726902],[112.7673111,-7.87250996],[112.76750946,-7.87222528],[112.76763153,-7.87178469],[112.7678299,-7.871696],[112.76821899,-7.87173176],[112.76837158,-7.87174559],[112.76921844,-7.87162781],[112.7693634,-7.87158775],[112.77003479,-7.87103701],[112.77020264,-7.87088013],[112.77043152,-7.87067986],[112.7705307,-7.87059021],[112.77073669,-7.87037992],[112.77085876,-7.87017155],[112.77108765,-7.86965513],[112.77113342,-7.86954594],[112.7712326,-7.86933947],[112.77263641,-7.86785078],[112.77268219,-7.86775208],[112.77268982,-7.86768007],[112.77262878,-7.86748981],[112.77259827,-7.86739016],[112.77254486,-7.86718988],[112.77285767,-7.86726999],[112.77304077,-7.86741447],[112.77320099,-7.8676405],[112.77358246,-7.86824894],[112.77371979,-7.86839676],[112.77410889,-7.86865902],[112.77436066,-7.86869478],[112.7746048,-7.86861086],[112.77616119,-7.86808538],[112.77664948,-7.86796713],[112.77669525,-7.86834621],[112.77667999,-7.86858749],[112.77664185,-7.86909914],[112.7766571,-7.86933994],[112.7767334,-7.86953545],[112.77693939,-7.86985064],[112.7771759,-7.8701067],[112.77736664,-7.87046576],[112.77776337,-7.8709116],[112.7780838,-7.87122679],[112.77817535,-7.87133455],[112.77838898,-7.87168407],[112.77848816,-7.8719306],[112.77857971,-7.87204695],[112.77883148,-7.87214851],[112.7790451,-7.87217474],[112.77922058,-7.87223673],[112.7795105,-7.87254667],[112.77957153,-7.87262821],[112.77998352,-7.87338066],[112.78007507,-7.87353992],[112.78048706,-7.87379074],[112.78064728,-7.87392235],[112.78070831,-7.87401009],[112.78072357,-7.87423754],[112.78065491,-7.87438393],[112.78039551,-7.87468863],[112.78017426,-7.87496424],[112.78003693,-7.87522697],[112.77989197,-7.87568188],[112.77978516,-7.87597418],[112.77964783,-7.87619352],[112.77952576,-7.87634277],[112.77922821,-7.87653303],[112.77913666,-7.87658548],[112.77905273,-7.87666559],[112.77890778,-7.87687635],[112.77880096,-7.87708569],[112.7787323,-7.87721968],[112.77839661,-7.87763548],[112.77819061,-7.87789249],[112.77810669,-7.87798882],[112.77790833,-7.87814617],[112.7778244,-7.8781929],[112.77750397,-7.87851667],[112.77738953,-7.87865782],[112.77733612,-7.87873983],[112.77726746,-7.87890863],[112.77725983,-7.87926102],[112.7772522,-7.87938833],[112.77735901,-7.87987804],[112.77767181,-7.8806653],[112.7780304,-7.88130808],[112.77809143,-7.88143492],[112.77816772,-7.88164282],[112.77822113,-7.88191032],[112.77819061,-7.88287306],[112.77822876,-7.88323641],[112.77822876,-7.8833499],[112.77831268,-7.88368654],[112.77870178,-7.88427305],[112.77890778,-7.8844533],[112.77906799,-7.8845377],[112.77914429,-7.88457537],[112.7793045,-7.88461256],[112.77939606,-7.88464022],[112.77944946,-7.88480616],[112.77940369,-7.88518429],[112.77928162,-7.88617277],[112.77927399,-7.88637781],[112.7793045,-7.88647699],[112.77976227,-7.88705254],[112.78001404,-7.88740063],[112.78005981,-7.88751411],[112.77998352,-7.88752365],[112.77993011,-7.88772488],[112.77988434,-7.88791466],[112.77984619,-7.88798046],[112.77978516,-7.88808441],[112.77970123,-7.88827801],[112.77967834,-7.88844681],[112.77967834,-7.88859463],[112.77967834,-7.88877344],[112.77967834,-7.88892555],[112.77968597,-7.88909817],[112.77967834,-7.88922548],[112.7796402,-7.88933706],[112.77960205,-7.88948393],[112.77959442,-7.88965273],[112.77965546,-7.88981485],[112.7796936,-7.88988018],[112.78009033,-7.89045048],[112.78013611,-7.89055681],[112.78012848,-7.89086246],[112.78009796,-7.89098406],[112.77992249,-7.89129496],[112.77987671,-7.89137506],[112.77990723,-7.89151621],[112.7800293,-7.89166546],[112.78020477,-7.89181042],[112.78030396,-7.89194393],[112.78037262,-7.89211178],[112.78043365,-7.89218044],[112.78216553,-7.89337635],[112.78282928,-7.89395046],[112.78327179,-7.89457989],[112.78382111,-7.8953495],[112.78484344,-7.89647913],[112.78509521,-7.8970933],[112.78496552,-7.89761305],[112.78444672,-7.89849949],[112.78414154,-7.89965439],[112.78418732,-7.90028858],[112.78437805,-7.90071058],[112.78501892,-7.901227],[112.78569794,-7.90176249],[112.78626251,-7.90252876],[112.78668976,-7.90302706],[112.7871933,-7.90360641],[112.78736877,-7.90381193],[112.78804779,-7.90490484],[112.78820801,-7.90592337],[112.78820801,-7.90667295],[112.78825378,-7.90709925],[112.78855896,-7.90736341],[112.78931427,-7.90776396],[112.78987885,-7.90878057],[112.79046631,-7.90992117],[112.79073334,-7.91016102],[112.79131317,-7.91073513],[112.79174042,-7.91132927],[112.79205322,-7.91250038],[112.79230499,-7.91269159],[112.79284668,-7.91274691],[112.79328918,-7.91282225],[112.79361725,-7.91307068],[112.79430389,-7.91475916],[112.79459381,-7.91550779],[112.79480743,-7.91583395],[112.79519653,-7.91606283],[112.79554749,-7.91640711],[112.79597473,-7.91709757],[112.79670715,-7.91765165],[112.79709625,-7.91774654],[112.79750061,-7.91782141],[112.79801941,-7.91797304],[112.7985611,-7.91822052],[112.79902649,-7.91848755],[112.79953003,-7.91867781],[112.80026245,-7.91880941],[112.80072784,-7.91896105],[112.80121613,-7.91924715],[112.80188751,-7.91989803],[112.80286407,-7.92208529],[112.80341339,-7.92296743],[112.80410767,-7.92411757],[112.80490112,-7.92499876],[112.80508423,-7.92516041],[112.80541229,-7.92545795],[112.80587006,-7.92555189],[112.8068161,-7.92562485],[112.80738068,-7.9258337],[112.80773926,-7.92609072],[112.80799866,-7.92627335],[112.80856323,-7.92671299],[112.80886841,-7.92682695],[112.80912018,-7.92682552],[112.80927277,-7.92682505],[112.80971527,-7.92682314],[112.81020355,-7.92685938],[112.81089783,-7.92708731],[112.81194305,-7.92748642],[112.81339264,-7.92792225],[112.81416321,-7.92793798],[112.81587982,-7.9275074],[112.81638336,-7.92742872],[112.81691742,-7.92744541],[112.81726837,-7.92755938],[112.8179245,-7.92761421],[112.81869507,-7.92757225],[112.81970215,-7.92764473],[112.82064056,-7.92777443],[112.82077789,-7.92779398],[112.82164764,-7.92809772],[112.8223877,-7.92851734],[112.82271576,-7.92897701],[112.82276154,-7.92955399],[112.82263184,-7.93095779],[112.82274628,-7.93188],[112.82294464,-7.93239784],[112.82337189,-7.93293095],[112.82377625,-7.9330864],[112.82492065,-7.93344688],[112.82550049,-7.93365574],[112.82619476,-7.9342103],[112.8270874,-7.93503284],[112.82839966,-7.93593073],[112.82906342,-7.93629313],[112.83076477,-7.93699694],[112.83205414,-7.93756771],[112.83302307,-7.93810177],[112.83370209,-7.93865633],[112.83440399,-7.93965292],[112.83498383,-7.94032288],[112.83583832,-7.9410305],[112.83635712,-7.94112444],[112.83737946,-7.94117737],[112.83834839,-7.94119263],[112.83930969,-7.94109201],[112.84000397,-7.94089699],[112.84048462,-7.94087553],[112.84117889,-7.94104528],[112.84214783,-7.94146395],[112.84381104,-7.94216776],[112.84449005,-7.94231892],[112.84545135,-7.94237185],[112.84649658,-7.94230986],[112.84790039,-7.94203424],[112.84903717,-7.94141436],[112.85144806,-7.94053841],[112.85276031,-7.94007111],[112.85370636,-7.9398365],[112.85501862,-7.93971491],[112.8562088,-7.93967009],[112.85643005,-7.93971395],[112.8565979,-7.93974638],[112.85716248,-7.94012833],[112.8578949,-7.94043255],[112.8588028,-7.94069767],[112.85920715,-7.94081116],[112.85969543,-7.94109774],[112.86061859,-7.94161224],[112.86193085,-7.94199085],[112.86299896,-7.94252443],[112.86415863,-7.94315386],[112.86551666,-7.94393587],[112.86672974,-7.94466066],[112.86711121,-7.94494581],[112.86769867,-7.94538689],[112.86880493,-7.9462471],[112.86952209,-7.94678211],[112.87002563,-7.94699144],[112.87054443,-7.94702721],[112.87102509,-7.94685221],[112.87152863,-7.94646549],[112.87218475,-7.94588566],[112.87262726,-7.94561481],[112.87310791,-7.94543934],[112.87348938,-7.94538021],[112.87389374,-7.94541693],[112.87414551,-7.94556952],[112.87310791,-7.94668007],[112.87236023,-7.94735003],[112.87187958,-7.94824982],[112.871521,-7.94902992],[112.87133026,-7.94944],[112.87091827,-7.95061016],[112.87045288,-7.95173979],[112.87021637,-7.95222998],[112.86981964,-7.95356989],[112.86863708,-7.95511007],[112.8686676,-7.9552002],[112.86872101,-7.95555019],[112.86878204,-7.95593023],[112.8687973,-7.95620012],[112.86881256,-7.95639992],[112.86875916,-7.95658016],[112.86862946,-7.95702982],[112.86846924,-7.95746994],[112.86830139,-7.95777988],[112.86810303,-7.95811987],[112.86792755,-7.9583602],[112.86759949,-7.95863008],[112.86733246,-7.95888996],[112.86712646,-7.95914984],[112.8669281,-7.95948982],[112.86682129,-7.95990992],[112.8667984,-7.96010017],[112.86675262,-7.96019983],[112.86669159,-7.9602499],[112.86656952,-7.96039009],[112.86634064,-7.96077013],[112.86631775,-7.96097994],[112.86637115,-7.96113014],[112.86646271,-7.96135998],[112.86640167,-7.96148014],[112.8661499,-7.96171999],[112.86589813,-7.96198988],[112.86585999,-7.96214008],[112.86588287,-7.9625001],[112.86582184,-7.96261978],[112.8656311,-7.96288013],[112.86537933,-7.96311998],[112.86488342,-7.96355009],[112.86483765,-7.96362019],[112.86479187,-7.96377993],[112.86464691,-7.96409988],[112.86437988,-7.96430016],[112.86428833,-7.96442986],[112.86424255,-7.96467018],[112.86415863,-7.96490002],[112.86401367,-7.96503019],[112.86351776,-7.96539021],[112.86334991,-7.96563005],[112.8631897,-7.96583986],[112.86277771,-7.96606016],[112.86254883,-7.96631002],[112.86238098,-7.96657991],[112.86219788,-7.96680021],[112.86206818,-7.96683979],[112.86170197,-7.96693993],[112.86148071,-7.96708012],[112.86135101,-7.96718979],[112.86121368,-7.96733999],[112.86106873,-7.96756983],[112.86054993,-7.96857977],[112.86054993,-7.96872997],[112.86062622,-7.96889019],[112.86064911,-7.96901989],[112.86058044,-7.96917009],[112.86051178,-7.96938992],[112.8605423,-7.96958017],[112.86064911,-7.97009993],[112.86058044,-7.97028017],[112.86038971,-7.97051001],[112.86032104,-7.97067022],[112.86032867,-7.97082996],[112.86044312,-7.9710598],[112.8605423,-7.97134018],[112.86048126,-7.97148991],[112.86032867,-7.97166014],[112.86016083,-7.97173977],[112.85970306,-7.97187996],[112.85975647,-7.97252989],[112.85986328,-7.97271013],[112.85984039,-7.97281981],[112.85970306,-7.97291994],[112.85957336,-7.97291994],[112.85932922,-7.97284985],[112.85845947,-7.97254992],[112.85816956,-7.97258997],[112.85806274,-7.97268009],[112.85800171,-7.97281981],[112.85796356,-7.97308016],[112.85798645,-7.97329998],[112.85813904,-7.97412014],[112.85800934,-7.97454977],[112.85788727,-7.97462988],[112.85771179,-7.97466993],[112.85740662,-7.97477007],[112.856987,-7.97490978],[112.85649872,-7.9749198],[112.85642242,-7.97501993],[112.85639954,-7.97521019],[112.85645294,-7.97537994],[112.85659027,-7.97560978],[112.85690308,-7.97618008],[112.85687256,-7.97631979],[112.85675049,-7.97648001],[112.85658264,-7.97657013],[112.85635376,-7.97671986],[112.85627747,-7.9769001],[112.85629272,-7.97706985],[112.85639191,-7.97726011],[112.85643005,-7.97742987],[112.85639191,-7.97755003],[112.85627747,-7.97767019],[112.85613251,-7.97774982],[112.85588837,-7.97775984],[112.8555603,-7.97771978],[112.85533142,-7.9777298],[112.85513306,-7.97781992],[112.85492706,-7.97799015],[112.85487366,-7.97811985],[112.8549118,-7.97829008],[112.85501862,-7.97842979],[112.85523224,-7.97859001],[112.85536194,-7.9787302],[112.85536194,-7.97880983],[112.85529327,-7.97888994],[112.85516357,-7.97891998],[112.85468292,-7.97891998],[112.85443115,-7.97886992],[112.85385895,-7.9787302],[112.85346985,-7.97865009],[112.85333252,-7.97874022],[112.85324097,-7.97887993],[112.85321045,-7.97903013],[112.8531723,-7.97922993],[112.85305023,-7.97932005],[112.85289001,-7.97934008],[112.8526001,-7.97929001],[112.85230255,-7.97924995],[112.85220337,-7.97930002],[112.85209656,-7.97944021],[112.85205078,-7.97960997],[112.85201263,-7.97980022],[112.85196686,-7.97996998],[112.85192108,-7.98062992],[112.85180664,-7.98077011],[112.85162354,-7.9808898],[112.85106659,-7.98110008],[112.85054016,-7.98120022],[112.85030365,-7.98112011],[112.8500824,-7.98106003],[112.84999847,-7.9811101],[112.84993744,-7.9812398],[112.84992218,-7.98143005],[112.84989929,-7.98233986],[112.84979248,-7.98249006],[112.84951782,-7.98284006],[112.84944916,-7.98303986],[112.8493576,-7.98339987],[112.84925842,-7.98344994],[112.84915924,-7.98344994],[112.84896088,-7.98338985],[112.84871674,-7.98321009],[112.8482132,-7.98283005],[112.8481369,-7.98288012],[112.8480835,-7.98298979],[112.84803772,-7.98318005],[112.84797668,-7.98378992],[112.84779358,-7.98399019],[112.84757233,-7.98408985],[112.84731293,-7.98423004],[112.84723663,-7.9843502],[112.84723663,-7.98448992],[112.847229,-7.98478985],[112.84712982,-7.98485994],[112.84690857,-7.98494005],[112.84673309,-7.98494005],[112.8465271,-7.98488998],[112.84625244,-7.98481989],[112.84619141,-7.98492002],[112.84616852,-7.98507977],[112.84622192,-7.98537016],[112.84632874,-7.98579979],[112.84626007,-7.98589993],[112.84615326,-7.98594999],[112.84594727,-7.98597002],[112.84536743,-7.98597002],[112.84500885,-7.98607016],[112.84481812,-7.9861002],[112.84465027,-7.98626995],[112.84448242,-7.98654985],[112.8443222,-7.98674011],[112.84407806,-7.98691988],[112.84384918,-7.98703003],[112.84368896,-7.98710012],[112.8436203,-7.9872098],[112.8433609,-7.98766994],[112.84329224,-7.98771],[112.84317017,-7.98775005],[112.84285736,-7.98788977],[112.84243011,-7.98815012],[112.84198761,-7.98816013],[112.84150696,-7.98800993],[112.84131622,-7.98801994],[112.84120941,-7.98809004],[112.84052277,-7.98870993],[112.84033966,-7.98871994],[112.84001923,-7.98872995],[112.83985138,-7.98883009],[112.83966064,-7.98902988],[112.83944702,-7.98931885],[112.83924866,-7.98940992],[112.83899689,-7.98939991],[112.83882904,-7.98933983],[112.83866882,-7.9891901],[112.83851624,-7.98907995],[112.83834076,-7.98895979],[112.83805847,-7.98889017],[112.837883,-7.98898983],[112.83757019,-7.98923016],[112.83721161,-7.98952007],[112.83695984,-7.98962021],[112.83683014,-7.9896102],[112.83664703,-7.98953009],[112.83644867,-7.98932981],[112.83603668,-7.98894978],[112.83586884,-7.98887014],[112.83573151,-7.98888016],[112.83560181,-7.98892021],[112.83512115,-7.98917007],[112.83499908,-7.98915005],[112.83486176,-7.98904991],[112.83464813,-7.98879004],[112.8345108,-7.98863983],[112.83438873,-7.98844004],[112.8343277,-7.98837996],[112.834198,-7.98829985],[112.833992,-7.98832989],[112.83381653,-7.98842001],[112.83307648,-7.98895979],[112.83286285,-7.98894978],[112.83271027,-7.98893023],[112.83219147,-7.9889102],[112.83168793,-7.98894978],[112.83142853,-7.98894978],[112.83126068,-7.98894978],[112.83085632,-7.9890399],[112.8302002,-7.98916006],[112.82968903,-7.98925018],[112.82939148,-7.9893899],[112.8291626,-7.98956013],[112.82907104,-7.98972988],[112.82887268,-7.99015999],[112.8286972,-7.99034977],[112.82848358,-7.99047995],[112.82817078,-7.9906702],[112.82778168,-7.99089003],[112.8269577,-7.99110985],[112.82679749,-7.9911499],[112.82662201,-7.99127007],[112.82653046,-7.99140978],[112.82650757,-7.99159002],[112.8265686,-7.99175978],[112.82659912,-7.99196005],[112.82660675,-7.99209023],[112.82653046,-7.99218988],[112.82640076,-7.9924202],[112.82640076,-7.99261999],[112.82646942,-7.99281979],[112.82659912,-7.99314022],[112.82659912,-7.99342012],[112.82649994,-7.99354982],[112.82637024,-7.99361992],[112.82615662,-7.99362993],[112.82568359,-7.99365997],[112.82543182,-7.99374008],[112.82511139,-7.99397993],[112.82494354,-7.99420977],[112.82489014,-7.99435997],[112.82494354,-7.99455976],[112.82499695,-7.99479008],[112.82495117,-7.99496984],[112.82483673,-7.99506998],[112.82440186,-7.99507999],[112.82405853,-7.99503994],[112.82380676,-7.99518013],[112.82377625,-7.99527979],[112.82363892,-7.99593019],[112.82351685,-7.99599981],[112.82331085,-7.9959898],[112.82302094,-7.99590015],[112.82286835,-7.99590015],[112.82250977,-7.99596024],[112.82241821,-7.99603987],[112.82238007,-7.99615002],[112.82227325,-7.99639988],[112.82214355,-7.99649],[112.82190704,-7.99652004],[112.82161713,-7.99647999],[112.82124329,-7.99642992],[112.82093811,-7.99647999],[112.82077789,-7.99657011],[112.82021332,-7.9969101],[112.8200531,-7.99678993],[112.81976318,-7.99658012],[112.81954956,-7.99655008],[112.8192215,-7.99661016],[112.8190918,-7.99667978],[112.81902313,-7.99679995],[112.81894684,-7.99714994],[112.81877899,-7.9978199],[112.81876373,-7.99791002],[112.81867218,-7.99791002],[112.81767273,-7.99798012],[112.81752014,-7.99813986],[112.81730652,-7.99846983],[112.8172226,-7.9985199],[112.81697845,-7.99850988],[112.81659698,-7.9984498],[112.81619263,-7.9983902],[112.81614685,-7.99855995],[112.81611633,-7.99881983],[112.81600189,-7.99898005],[112.8158493,-7.99905014],[112.81561279,-7.99911022],[112.81546021,-7.99907017],[112.81513977,-7.99889994],[112.81479645,-7.99875021],[112.81462097,-7.99877977],[112.81370544,-7.99946594],[112.81354523,-7.99946642],[112.81286621,-7.99946928],[112.81274414,-7.99953175],[112.81147766,-8.00019741],[112.81038666,-7.99985695],[112.81015015,-7.99978209],[112.80934906,-7.99989605],[112.80914307,-7.99992514],[112.80839539,-8.00003052],[112.80822754,-8.00006676],[112.80725861,-8.00027561],[112.80700684,-8.00009727],[112.80704498,-7.99964762],[112.80682373,-7.99937534],[112.80555725,-7.99980211],[112.80532837,-7.99967718],[112.80432892,-7.99912119],[112.80427551,-7.99907207],[112.80350494,-7.99830675],[112.80265808,-7.99867153],[112.80241394,-7.9985075],[112.80187225,-7.99813366],[112.8015976,-7.99795628],[112.80138397,-7.99791765],[112.80017853,-7.99814081],[112.80017853,-7.99805784],[112.80017853,-7.99772024],[112.80017853,-7.99739647],[112.80007172,-7.99733639],[112.79963684,-7.99724054],[112.79866791,-7.99772644],[112.79847717,-7.9975934],[112.79806519,-7.99730778],[112.79776001,-7.99735975],[112.7975235,-7.99761105],[112.79715729,-7.99761248],[112.79676819,-7.99726534],[112.79576874,-7.99767876],[112.79553223,-7.99754715],[112.79508209,-7.99729729],[112.7947998,-7.99714136],[112.79421234,-7.99708509],[112.79405212,-7.99717665],[112.79367065,-7.99725008],[112.79359436,-7.99720812],[112.79347992,-7.99713993],[112.7934494,-7.99704981],[112.79325104,-7.99649572],[112.79303741,-7.99639988],[112.79290771,-7.99635363],[112.79208374,-7.99605989],[112.7917099,-7.99601984],[112.79151154,-7.99606991],[112.79138947,-7.99617004],[112.79116821,-7.99632597],[112.79086304,-7.99621296],[112.79064941,-7.99613619],[112.79049683,-7.99603844],[112.79042816,-7.99587727],[112.79045868,-7.99565887],[112.79053497,-7.99528933],[112.79055786,-7.99488068],[112.79060364,-7.99460506],[112.79056549,-7.9943037],[112.79051971,-7.99414778],[112.79050446,-7.99404621],[112.79039764,-7.99392319],[112.79032135,-7.99386978],[112.79020691,-7.9938798],[112.79009247,-7.99396992],[112.78941345,-7.99455976],[112.78907776,-7.99469995],[112.78826904,-7.99499989],[112.78820038,-7.99494982],[112.78814697,-7.99474335],[112.78801727,-7.99426985],[112.78791809,-7.99417019],[112.78764343,-7.99401999],[112.78739166,-7.99385977],[112.78721619,-7.99364996],[112.78701019,-7.99343014],[112.7868576,-7.99336004],[112.78668213,-7.99333811],[112.78656006,-7.99323416],[112.78627777,-7.99313641],[112.78610229,-7.99309015],[112.78601837,-7.99307871],[112.78575897,-7.9928298],[112.78562164,-7.99274111],[112.78552246,-7.99260902],[112.78534698,-7.99253702],[112.78517151,-7.99262905],[112.78505707,-7.99263191],[112.78479004,-7.99260712],[112.78457642,-7.99252224],[112.7843399,-7.99258566],[112.78404236,-7.99246979],[112.78395081,-7.99233246],[112.78379822,-7.99228907],[112.78362274,-7.99224997],[112.78307343,-7.99262238],[112.78260803,-7.99291992],[112.78250885,-7.99286985],[112.78243256,-7.99272013],[112.78214264,-7.99220991],[112.7820282,-7.99213982],[112.7818985,-7.99217987],[112.78172302,-7.99231005],[112.78157806,-7.99250984],[112.78140259,-7.99280977],[112.78122711,-7.99286985],[112.78108215,-7.99283981],[112.78096008,-7.99273252],[112.78085327,-7.99255991],[112.78063965,-7.99232006],[112.78031921,-7.99206018],[112.78005981,-7.99196005],[112.7798996,-7.99196005],[112.77980042,-7.99198627],[112.77954865,-7.99191999],[112.77945709,-7.99185801],[112.77931976,-7.99179125],[112.77925873,-7.99169016],[112.77919006,-7.99145985],[112.77906036,-7.9911499],[112.77880096,-7.99066019],[112.77861786,-7.99048996],[112.77845001,-7.99042988],[112.77819824,-7.99039984],[112.77805328,-7.99043989],[112.77784729,-7.9905901],[112.77764893,-7.99070978],[112.7775116,-7.99070978],[112.77716827,-7.99061012],[112.77674103,-7.99053001],[112.77648926,-7.99055004],[112.77626801,-7.99065018],[112.77612305,-7.9906702],[112.77593231,-7.99064016],[112.77561951,-7.99060011],[112.7754364,-7.99058008],[112.77510834,-7.9906702],[112.77489471,-7.99060583],[112.77462006,-7.99044991],[112.77433777,-7.99032021],[112.77403259,-7.9902401],[112.77361298,-7.99012995],[112.77335358,-7.99000454],[112.77285767,-7.98975992],[112.77275085,-7.98962593],[112.77268982,-7.98945999],[112.77252197,-7.98935986],[112.77204132,-7.98921013],[112.77165985,-7.98915005],[112.77133179,-7.98918009],[112.77105713,-7.98929024],[112.77078247,-7.98935986],[112.77050781,-7.98933983],[112.7703476,-7.9892602],[112.77015686,-7.98908997],[112.76959991,-7.9885602],[112.76937866,-7.98848009],[112.76908875,-7.9883399],[112.76892853,-7.98824692],[112.76879883,-7.98818636],[112.76873016,-7.98815012],[112.76853943,-7.98815012],[112.76830292,-7.98822021],[112.76799774,-7.98838997],[112.76766205,-7.98864985],[112.76737976,-7.98895979],[112.76725006,-7.98920012],[112.76718903,-7.98933268],[112.76706696,-7.98959017],[112.76689148,-7.98972797],[112.76681519,-7.98972321],[112.76669312,-7.9897151],[112.76605225,-7.98966169],[112.76590729,-7.98964977],[112.76563263,-7.98958015],[112.76541138,-7.9895153],[112.76528168,-7.98938084],[112.7652359,-7.98917532],[112.76529694,-7.98900366],[112.76548004,-7.98879576],[112.76555634,-7.98852015],[112.76545715,-7.98841],[112.76527405,-7.9883585],[112.76508331,-7.98836708],[112.76488495,-7.98842287],[112.76448059,-7.9886117],[112.7641983,-7.98873758],[112.76390839,-7.98873997],[112.76381683,-7.98873997],[112.76367188,-7.98873997],[112.76331329,-7.98865986],[112.76294708,-7.98847008],[112.76260376,-7.98832989],[112.76233673,-7.98824549],[112.76216888,-7.98816156],[112.76197815,-7.98806572],[112.76167297,-7.98796558],[112.76135254,-7.98790979],[112.76098633,-7.98787498],[112.7605896,-7.98768425],[112.76046753,-7.9874692],[112.76052094,-7.98739862],[112.76062775,-7.98736715],[112.76073456,-7.98711967],[112.7607193,-7.98690367],[112.76056671,-7.986691],[112.76052094,-7.98659658],[112.76040649,-7.98648024],[112.76032257,-7.98637247],[112.76023865,-7.98635435],[112.76010895,-7.98621988],[112.75992584,-7.98622322],[112.75972748,-7.98617458],[112.75946045,-7.98597002],[112.75920105,-7.98569632],[112.7591095,-7.9855299],[112.75901031,-7.98528767],[112.75827789,-7.98419619],[112.75787354,-7.98403454],[112.75775146,-7.98405981],[112.75726318,-7.98419094],[112.75714111,-7.98409414],[112.75701904,-7.98395586],[112.75691986,-7.98361397],[112.75662994,-7.98284483],[112.75597382,-7.98266745],[112.75580597,-7.98265409],[112.7551651,-7.98239565],[112.75506592,-7.98235607],[112.75498962,-7.98224497],[112.75488281,-7.98214912],[112.75489044,-7.98186445],[112.75489044,-7.98175716],[112.75524902,-7.98162508],[112.75534058,-7.98159599],[112.75562286,-7.9815464],[112.75642395,-7.98138142],[112.75750732,-7.98155308],[112.75774384,-7.97987223],[112.75796509,-7.97825575],[112.7582016,-7.97678232],[112.75803375,-7.97687769],[112.75788116,-7.97697544],[112.75744629,-7.9771924],[112.75695801,-7.97713327],[112.75640106,-7.9769206],[112.75634003,-7.97698975],[112.7559433,-7.97744465],[112.75470734,-7.97900486],[112.75475311,-7.97990847],[112.75496674,-7.98066425],[112.75426483,-7.98117161],[112.75299835,-7.9808712],[112.75300598,-7.98077679],[112.75278473,-7.98027134],[112.75267029,-7.98009014],[112.75256348,-7.97993851],[112.75244141,-7.97974014],[112.75231171,-7.97960377],[112.75218201,-7.97945976],[112.75192261,-7.97932005],[112.75180054,-7.97930002],[112.75158691,-7.9792614],[112.75137329,-7.97895336],[112.75113678,-7.97853374],[112.75112152,-7.97845125],[112.75110626,-7.97834015],[112.75073242,-7.97843313],[112.75016022,-7.97870588],[112.74983978,-7.9791069],[112.74945831,-7.9789691],[112.74926758,-7.9788723],[112.74901581,-7.97860241],[112.74893951,-7.97851849],[112.74871063,-7.97830057],[112.74848175,-7.97807837],[112.74788666,-7.97762632],[112.74767303,-7.97755098],[112.74738312,-7.9774456],[112.74728394,-7.97742653],[112.74671173,-7.97724152],[112.74656677,-7.97710991],[112.74651337,-7.97704983],[112.7463913,-7.97689486],[112.74623871,-7.97677422],[112.74634552,-7.97664356],[112.74642944,-7.9765501],[112.74681854,-7.97614002],[112.74694824,-7.9760375],[112.74719238,-7.97586298],[112.74725342,-7.97581959],[112.74714661,-7.97558689],[112.7470932,-7.97546005],[112.74698639,-7.97538996],[112.74677277,-7.97530985],[112.74642181,-7.97524023],[112.74594116,-7.97521019],[112.74582672,-7.97515011],[112.74571228,-7.97496986],[112.74568939,-7.97484016],[112.74565887,-7.97472],[112.74550629,-7.9745245],[112.74530792,-7.97427988],[112.743927,-7.97432947],[112.74365997,-7.97421551],[112.74358368,-7.97408009],[112.74352264,-7.97399998],[112.74342346,-7.97394991],[112.74327087,-7.97393465],[112.74295807,-7.97390747],[112.74286652,-7.97389984],[112.7427063,-7.97370243],[112.74234009,-7.97325468],[112.74238586,-7.97257185],[112.74241638,-7.97225332],[112.7427063,-7.97206116],[112.74279785,-7.9717865],[112.74292755,-7.97136927],[112.74295807,-7.97128868],[112.74314117,-7.97089672],[112.74321747,-7.97071934],[112.7435379,-7.97075367],[112.74428558,-7.97061443],[112.74486542,-7.97050714],[112.7458725,-7.97032976],[112.74597168,-7.97031021],[112.74643707,-7.97029018],[112.7465744,-7.97031832],[112.74672699,-7.97034979],[112.74693298,-7.9704299],[112.74726105,-7.97055006],[112.74746704,-7.97060776],[112.74758911,-7.9706502],[112.747612,-7.97071981],[112.7477417,-7.97078991],[112.74790955,-7.97084999],[112.74809265,-7.97090006],[112.74822998,-7.97095013],[112.74832916,-7.97095013],[112.74855804,-7.97106981],[112.7486496,-7.97111988],[112.74871826,-7.97114992],[112.74888611,-7.97117424],[112.74900818,-7.97116852],[112.74993896,-7.96926975],[112.74996185,-7.96911955],[112.74969482,-7.96899033],[112.7493515,-7.96881437],[112.74919891,-7.96872997],[112.74903107,-7.96852016],[112.74886322,-7.96830273],[112.74868774,-7.96807003],[112.74861145,-7.96796989],[112.74842834,-7.96778011],[112.74819183,-7.96766996],[112.74812317,-7.9674902],[112.74800873,-7.96731997],[112.7478714,-7.96708441],[112.74777222,-7.96694994],[112.74755096,-7.9665699],[112.74744415,-7.96646976],[112.74732208,-7.9663763],[112.74728394,-7.96630955],[112.74713898,-7.96597815],[112.74680328,-7.96527004],[112.7467804,-7.96516037],[112.74660492,-7.96429682],[112.7465744,-7.96412039],[112.74649811,-7.96372986],[112.74642181,-7.96348],[112.74630737,-7.96296978],[112.74626923,-7.96281004],[112.7458725,-7.96155977],[112.7457428,-7.9614501],[112.74539948,-7.9612298],[112.74520874,-7.96099997],[112.74511719,-7.96069002],[112.74508667,-7.96049881],[112.74507904,-7.96014023],[112.74471283,-7.96057987],[112.74449158,-7.96075821],[112.74423981,-7.96079588],[112.74416351,-7.96083117],[112.74404907,-7.9608202],[112.74381256,-7.96074009],[112.74329376,-7.96042013],[112.74310303,-7.9602499],[112.74286652,-7.95985985],[112.74279785,-7.95971012],[112.74272156,-7.95949984],[112.7425766,-7.95921993],[112.74246216,-7.95910978],[112.74233246,-7.95909977],[112.74215698,-7.95914984],[112.7420578,-7.95930004],[112.74201965,-7.95945978],[112.74201965,-7.95972013],[112.74198914,-7.95986986],[112.74196625,-7.96033001],[112.74194336,-7.96060991],[112.74188232,-7.96084976],[112.74176788,-7.96100998],[112.74163055,-7.9610157],[112.74143982,-7.96096992],[112.74121857,-7.96085978],[112.74108124,-7.96063995],[112.74095917,-7.96033001],[112.74076843,-7.95996237],[112.74053955,-7.95998335],[112.73977661,-7.96005201],[112.73959351,-7.96035719],[112.73950195,-7.9604044],[112.73912048,-7.96060276],[112.73887634,-7.96062422],[112.73873901,-7.96038103],[112.7385025,-7.96028996],[112.73831177,-7.96016979],[112.73810577,-7.96013498],[112.73815918,-7.95930719],[112.73802185,-7.95906305],[112.7381134,-7.95879126],[112.73819733,-7.95840597],[112.73825836,-7.95824051],[112.73968506,-7.95893574],[112.73976898,-7.95850754],[112.73999786,-7.95726109],[112.740242,-7.95588827],[112.74039459,-7.95503902],[112.7401886,-7.95501232],[112.73986053,-7.95496988],[112.7390976,-7.95474005],[112.73890686,-7.95465994],[112.7387085,-7.95459986],[112.7386322,-7.9545598],[112.7385788,-7.95460987],[112.7385025,-7.9546299],[112.73840332,-7.95461988],[112.7383194,-7.95458984],[112.73822021,-7.95454979],[112.73807526,-7.95449781],[112.73773956,-7.95439005],[112.73744965,-7.95429993],[112.73729706,-7.95429993],[112.73716736,-7.95431995],[112.73638153,-7.95408058]
					]
				]
			}
		}
	]
}