{
	"type": "FeatureCollection",
	"features": [
		{
			"type": "Feature",
			"properties": {
				"ISO": "IDN",
				"NAME": "Kasembon, Malang, Jawa Timur, IDN",
				"TYPE": "Kecamatan",
				"CODE":	"35.07.28"
			},
			"geometry": {
				"type": "Polygon",
				"coordinates": [
					[
						[112.35279083,-7.83404398],[112.35238647,-7.83462191],[112.35276031,-7.8355732],[112.35256195,-7.83610392],[112.35254669,-7.83639097],[112.3525238,-7.8365159],[112.35238647,-7.83727121],[112.3522644,-7.8374958],[112.352211,-7.83760118],[112.35201263,-7.83788252],[112.35189819,-7.83805084],[112.35173035,-7.83847094],[112.35160828,-7.83882427],[112.35157776,-7.83892107],[112.3515625,-7.83902836],[112.35153198,-7.83920097],[112.3514328,-7.83943129],[112.35128784,-7.83955097],[112.35079193,-7.83952093],[112.35035706,-7.83936119],[112.34973907,-7.83879089],[112.34925079,-7.83866119],[112.34893036,-7.83867121],[112.34844208,-7.83886099],[112.34806824,-7.8392911],[112.34734344,-7.84014845],[112.34703064,-7.84070539],[112.34669495,-7.84120226],[112.34649658,-7.84149694],[112.34641266,-7.84158087],[112.34600067,-7.84189129],[112.34558868,-7.84200096],[112.34477997,-7.84211111],[112.34388733,-7.84218121],[112.34358978,-7.84233093],[112.34343719,-7.84247112],[112.3433609,-7.84284115],[112.34349823,-7.8433609],[112.34385681,-7.84397125],[112.34443665,-7.84486103],[112.34513092,-7.8456912],[112.34583282,-7.8463912],[112.34642029,-7.84681082],[112.34702301,-7.84714127],[112.34742737,-7.84740114],[112.34764862,-7.84735107],[112.34776306,-7.84734106],[112.34799957,-7.84731102],[112.34815979,-7.84734106],[112.34848785,-7.8473711],[112.34873199,-7.84740114],[112.34889984,-7.84740114],[112.34900665,-7.84739113],[112.34928894,-7.84755087],[112.34947968,-7.847651],[112.34964752,-7.84773111],[112.3498764,-7.84783125],[112.34998322,-7.84786129],[112.35009003,-7.84792089],[112.35018921,-7.848001],[112.35038757,-7.84809113],[112.35051727,-7.84814119],[112.35070038,-7.84824085],[112.35080719,-7.84830093],[112.35089874,-7.84832096],[112.35105896,-7.84836102],[112.35121918,-7.84839106],[112.3513031,-7.84841108],[112.35147095,-7.84848118],[112.35153961,-7.84851122],[112.35175323,-7.84865046],[112.35191345,-7.84875345],[112.35199738,-7.84880161],[112.35189056,-7.84884214],[112.35157013,-7.84896183],[112.35118103,-7.84903193],[112.3508606,-7.84912205],[112.35066223,-7.84922218],[112.3506012,-7.84927225],[112.35047913,-7.84941196],[112.35034943,-7.84954214],[112.35014343,-7.84985161],[112.35005188,-7.84997082],[112.34993744,-7.85011816],[112.34967804,-7.85045147],[112.34920502,-7.85168409],[112.34887695,-7.85210228],[112.34816742,-7.85261202],[112.34793091,-7.85280228],[112.34738159,-7.85316229],[112.347229,-7.85332203],[112.34710693,-7.85355186],[112.34703064,-7.85392046],[112.34699249,-7.85407305],[112.34696198,-7.85423183],[112.34631348,-7.85461187],[112.34532166,-7.85493183],[112.3446579,-7.85509205],[112.34400177,-7.85521221],[112.3429718,-7.85525227],[112.34207153,-7.85523224],[112.34169006,-7.85531187],[112.34140778,-7.85543203],[112.34095001,-7.85578203],[112.34053802,-7.85604191],[112.340271,-7.85626221],[112.33960724,-7.85652208],[112.33907318,-7.85679197],[112.33840942,-7.85714197],[112.33779144,-7.85760212],[112.33753967,-7.85795116],[112.33743286,-7.85810184],[112.33740234,-7.85907221],[112.33724976,-7.86036205],[112.33701324,-7.86094189],[112.33686829,-7.8610754],[112.33661652,-7.8613019],[112.33605957,-7.86171198],[112.33595276,-7.86183453],[112.33581543,-7.86199856],[112.33573151,-7.86210203],[112.33544159,-7.86287212],[112.33509827,-7.86374187],[112.3348465,-7.86454201],[112.33457947,-7.8650322],[112.334198,-7.86550188],[112.33376312,-7.86585188],[112.3336792,-7.86591816],[112.33350372,-7.86605501],[112.3332901,-7.86622763],[112.33227539,-7.86701012],[112.33215332,-7.86710215],[112.33067322,-7.86789131],[112.33036041,-7.86804104],[112.32940674,-7.86848068],[112.32784271,-7.86918259],[112.3266983,-7.86967659],[112.32637787,-7.86981535],[112.32579803,-7.87015581],[112.32527161,-7.87047672],[112.32501984,-7.86988974],[112.32498932,-7.86981773],[112.32465363,-7.86920166],[112.32434845,-7.86864567],[112.32380676,-7.86763954],[112.32344818,-7.86698389],[112.32329559,-7.86671448],[112.32291412,-7.86607981],[112.3225708,-7.86552954],[112.32222748,-7.8652606],[112.32206726,-7.86513519],[112.3214035,-7.86458588],[112.32080078,-7.86412764],[112.31974792,-7.86345196],[112.31945038,-7.86311674],[112.31917572,-7.86295938],[112.31887054,-7.86278486],[112.31869507,-7.86257935],[112.31855011,-7.86224365],[112.31837463,-7.86190176],[112.31819916,-7.86146832],[112.31820679,-7.86121559],[112.3183136,-7.86082077],[112.31847382,-7.86041307],[112.31858826,-7.860116],[112.31863403,-7.85984802],[112.31874084,-7.85904074],[112.31877899,-7.85866547],[112.31885529,-7.85767317],[112.31890869,-7.85756159],[112.31902313,-7.85734081],[112.31907654,-7.8572731],[112.31932831,-7.85693979],[112.31981659,-7.85654259],[112.32027435,-7.85623312],[112.32041931,-7.85609293],[112.32048035,-7.85605383],[112.32069397,-7.85591221],[112.32076263,-7.85598898],[112.3208847,-7.8558588],[112.32115173,-7.85565233],[112.32125092,-7.85544729],[112.32121277,-7.85525322],[112.32118225,-7.85492897],[112.32104492,-7.854599],[112.32068634,-7.85408974],[112.32055664,-7.85388422],[112.32049561,-7.85346031],[112.32067871,-7.8525095],[112.32073212,-7.85224962],[112.32062531,-7.85173655],[112.3204422,-7.85081816],[112.3203125,-7.85009193],[112.3201828,-7.84992361],[112.3194809,-7.84907866],[112.31922913,-7.848804],[112.31907654,-7.84865522],[112.31884003,-7.84837341],[112.31832123,-7.84808683],[112.31806183,-7.8479619],[112.31776428,-7.8476634],[112.31763458,-7.84744215],[112.31752777,-7.8472724],[112.31739044,-7.84706354],[112.31731415,-7.84685707],[112.31732941,-7.84662151],[112.31756592,-7.84624767],[112.31776428,-7.84587717],[112.31781769,-7.84554958],[112.31784821,-7.84528828],[112.31800079,-7.84481812],[112.31814575,-7.84442425],[112.31851959,-7.8436079],[112.31867981,-7.84281683],[112.31884003,-7.84190321],[112.31890869,-7.84146261],[112.31890869,-7.84078121],[112.31893158,-7.84039164],[112.31897736,-7.84013271],[112.31916809,-7.83985758],[112.31930542,-7.839674],[112.31936646,-7.83941412],[112.3193512,-7.83908033],[112.31880951,-7.83866215],[112.31809235,-7.83822727],[112.31777191,-7.8380785],[112.31713867,-7.83783245],[112.31678772,-7.83776426],[112.31619263,-7.83763027],[112.31558228,-7.837502],[112.31542206,-7.83754396],[112.31526184,-7.83765602],[112.31507874,-7.83788109],[112.31437683,-7.8379674],[112.31401825,-7.83798361],[112.31374359,-7.83789301],[112.31330872,-7.83773184],[112.3131485,-7.83767319],[112.31293488,-7.83763361],[112.31279755,-7.83766556],[112.31220245,-7.83780336],[112.31185913,-7.8379221],[112.31150055,-7.83817291],[112.31108856,-7.83854532],[112.31079102,-7.83881569],[112.31012726,-7.83904028],[112.30995941,-7.83909607],[112.30948639,-7.83916759],[112.30857849,-7.83899832],[112.30846405,-7.83898354],[112.30831909,-7.83896399],[112.30823517,-7.83895206],[112.30808258,-7.83896923],[112.30781555,-7.83899927],[112.30770874,-7.83900499],[112.30763245,-7.83892298],[112.30762482,-7.83873606],[112.30775452,-7.83834457],[112.30799103,-7.83768463],[112.30825806,-7.83711338],[112.30851746,-7.83664465],[112.30856323,-7.83656549],[112.3086319,-7.83639479],[112.3086319,-7.83577824],[112.30865479,-7.83553457],[112.30895996,-7.83512402],[112.30910492,-7.83476162],[112.3093338,-7.83434868],[112.30945587,-7.83416605],[112.30950928,-7.8339777],[112.30948639,-7.83380461],[112.30926514,-7.83346272],[112.30901337,-7.83304119],[112.30887604,-7.83281374],[112.30873871,-7.83258772],[112.30869293,-7.83252764],[112.30841064,-7.83206892],[112.30821991,-7.83163452],[112.30814362,-7.83139753],[112.30807495,-7.83130455],[112.30776215,-7.83109999],[112.30761719,-7.83094501],[112.30717468,-7.83048534],[112.30701447,-7.83021355],[112.30696869,-7.83002424],[112.30691528,-7.82979298],[112.30673981,-7.82884407],[112.30665588,-7.82854128],[112.306633,-7.82842493],[112.306633,-7.82825518],[112.30661774,-7.82768154],[112.30667114,-7.82731152],[112.30669403,-7.82714844],[112.3068161,-7.82685709],[112.30693054,-7.82667875],[112.30710602,-7.8265233],[112.30738831,-7.82634258],[112.30744934,-7.82629728],[112.30786896,-7.8259697],[112.3082428,-7.82573509],[112.30841827,-7.82322025],[112.30818176,-7.82279778],[112.30818939,-7.82266569],[112.30805206,-7.82215881],[112.30789948,-7.82187796],[112.30764771,-7.82141256],[112.30754089,-7.82082558],[112.30735016,-7.8205061],[112.30727386,-7.8203721],[112.30724335,-7.81994247],[112.30715179,-7.81843662],[112.30709839,-7.81809664],[112.30664825,-7.81742334],[112.30658722,-7.81692505],[112.30661774,-7.81626511],[112.30652618,-7.8160758],[112.30638123,-7.81567335],[112.30641174,-7.81539488],[112.30646515,-7.81486654],[112.306427,-7.81464624],[112.30628967,-7.81441593],[112.30602264,-7.81405735],[112.30587769,-7.81382608],[112.30586243,-7.81367397],[112.30583954,-7.81345701],[112.30583954,-7.8132143],[112.3057785,-7.81276464],[112.3056488,-7.81258535],[112.30534363,-7.81216574],[112.30540466,-7.81174469],[112.30558777,-7.8106389],[112.30576324,-7.80952263],[112.30596161,-7.80885696],[112.30613708,-7.80832148],[112.30634308,-7.80774069],[112.30649567,-7.80724812],[112.30651093,-7.80664301],[112.30654907,-7.80638742],[112.30651855,-7.80594254],[112.30641937,-7.8052268],[112.30628967,-7.80480194],[112.30625153,-7.80451918],[112.30625153,-7.80410051],[112.3061676,-7.80378962],[112.30602264,-7.80352783],[112.30586243,-7.80322266],[112.3057785,-7.80279016],[112.3057785,-7.8024087],[112.30583191,-7.80215406],[112.30596161,-7.80200386],[112.30610657,-7.80190086],[112.3065567,-7.80164862],[112.30662537,-7.80159664],[112.30702972,-7.80121613],[112.30713654,-7.8009944],[112.30683136,-7.80036926],[112.3068161,-7.80014658],[112.30691528,-7.79991484],[112.30704498,-7.79971552],[112.30714417,-7.79925203],[112.30700684,-7.79898739],[112.30670929,-7.79880619],[112.30649567,-7.79897261],[112.30639648,-7.79892302],[112.30641174,-7.79875755],[112.30639648,-7.79837704],[112.30516052,-7.79715586],[112.30506134,-7.79675913],[112.30519104,-7.79642725],[112.30537415,-7.79553318],[112.30501556,-7.79532671],[112.30480194,-7.79526043],[112.30457306,-7.7952528],[112.3044281,-7.79527855],[112.30419159,-7.79534626],[112.30395508,-7.79549837],[112.30367279,-7.79526567],[112.30285645,-7.79470634],[112.30263519,-7.79444265],[112.30227661,-7.79391432],[112.30213165,-7.79371119],[112.30174255,-7.7932272],[112.301651,-7.79300547],[112.30160522,-7.79287434],[112.30140686,-7.79224348],[112.30131531,-7.79133415],[112.30131531,-7.79082298],[112.30126953,-7.79052067],[112.30119324,-7.79041338],[112.30072021,-7.78987741],[112.30059814,-7.78963804],[112.30038452,-7.78926468],[112.30014801,-7.78908062],[112.29992676,-7.78903008],[112.29957581,-7.7890296],[112.29846954,-7.78913927],[112.29812622,-7.78924561],[112.29743195,-7.78947783],[112.29721832,-7.78944016],[112.29685211,-7.78930378],[112.29607391,-7.78890228],[112.2959137,-7.78868008],[112.29589844,-7.78850651],[112.29595184,-7.78837109],[112.29595184,-7.78827572],[112.29597473,-7.78813839],[112.29608154,-7.78772497],[112.29606628,-7.78760052],[112.2959671,-7.7872901],[112.29574585,-7.78699303],[112.29530334,-7.78650475],[112.29515839,-7.7862711],[112.29482269,-7.78571987],[112.29451752,-7.78540373],[112.29412842,-7.78504562],[112.29384613,-7.78482246],[112.2935791,-7.78458595],[112.29335785,-7.78428221],[112.29315948,-7.78383493],[112.29311371,-7.78359795],[112.29305267,-7.78315687],[112.29292297,-7.78242302],[112.29301453,-7.78208351],[112.2930069,-7.78184652],[112.29290771,-7.78159094],[112.29269409,-7.78128242],[112.29244232,-7.78105116],[112.29238892,-7.78100109],[112.29208374,-7.78077555],[112.29198456,-7.78070068],[112.29178619,-7.78065109],[112.29147339,-7.78065348],[112.29042816,-7.78068495],[112.2899704,-7.78065729],[112.28970337,-7.78062582],[112.28952026,-7.7805419],[112.28939819,-7.78041029],[112.28913879,-7.78016376],[112.28878784,-7.77999449],[112.28858185,-7.77984858],[112.28829193,-7.7795496],[112.28801727,-7.77907419],[112.2879715,-7.7788353],[112.28798676,-7.77855873],[112.28804779,-7.77841473],[112.28816986,-7.77809477],[112.28811646,-7.77786684],[112.28801727,-7.7771368],[112.28809357,-7.7769742],[112.28824615,-7.77675962],[112.28885651,-7.77598858],[112.28887177,-7.77583933],[112.28876495,-7.77562475],[112.28820038,-7.77466011],[112.28783417,-7.77399588],[112.28779602,-7.77303743],[112.28768158,-7.77276897],[112.28752899,-7.77244616],[112.28742981,-7.77204275],[112.28740692,-7.77166891],[112.2875061,-7.77138424],[112.2877121,-7.77096415],[112.28813171,-7.77078962],[112.28887939,-7.77032089],[112.28970337,-7.76994944],[112.29064941,-7.76946735],[112.29101563,-7.76918459],[112.29133606,-7.76893616],[112.29158783,-7.76893044],[112.2918396,-7.76885033],[112.29207611,-7.76880074],[112.29242706,-7.76880026],[112.29273987,-7.76887417],[112.29312897,-7.7690115],[112.29411316,-7.76930666],[112.29444885,-7.76927519],[112.29505157,-7.76906824],[112.2953186,-7.76908398],[112.29657745,-7.76931858],[112.29682922,-7.76950979],[112.29682922,-7.76959372],[112.29698181,-7.76974535],[112.2971344,-7.76980972],[112.29762268,-7.76979637],[112.2980423,-7.7697134],[112.29898834,-7.76942682],[112.29914856,-7.76938963],[112.29936218,-7.76944256],[112.29956055,-7.76957226],[112.30005646,-7.77044773],[112.30018616,-7.77080965],[112.30024719,-7.77096701],[112.30042267,-7.77143431],[112.30053711,-7.77166843],[112.30065155,-7.77179289],[112.30092621,-7.77190256],[112.30154419,-7.77194357],[112.30189514,-7.77197981],[112.30213165,-7.77206182],[112.30223846,-7.7721262],[112.30235291,-7.77230644],[112.30244446,-7.77247429],[112.30252838,-7.77252007],[112.30277252,-7.77240324],[112.30297089,-7.77230978],[112.30323029,-7.77216911],[112.30343628,-7.7721529],[112.30387878,-7.77232838],[112.30448914,-7.77278757],[112.30467224,-7.77292252],[112.30487823,-7.77297878],[112.30522919,-7.77296162],[112.30557251,-7.77286911],[112.3059082,-7.77275133],[112.30609894,-7.77275324],[112.30635834,-7.77285957],[112.30648041,-7.77303028],[112.30658722,-7.77331686],[112.30670929,-7.77424669],[112.30677032,-7.77463531],[112.30680847,-7.77474833],[112.30695343,-7.774755],[112.30715179,-7.7747345],[112.30748749,-7.77450466],[112.30760956,-7.77441835],[112.30780792,-7.77439833],[112.30795288,-7.7744298],[112.30831146,-7.77475834],[112.30857086,-7.77512598],[112.3086853,-7.77532101],[112.30883789,-7.7754631],[112.309021,-7.77555275],[112.3094635,-7.77565098],[112.30971527,-7.77566767],[112.31045532,-7.77526808],[112.31053162,-7.77532625],[112.31059265,-7.77550316],[112.3105545,-7.77568483],[112.31028748,-7.7763896],[112.31005096,-7.77664471],[112.31038666,-7.77683878],[112.31083679,-7.77678633],[112.31105804,-7.77675295],[112.31130981,-7.77667809],[112.31266022,-7.77675724],[112.31284332,-7.77678919],[112.31343079,-7.77681065],[112.313797,-7.77703047],[112.31414032,-7.77722025],[112.31445313,-7.77728176],[112.3151474,-7.77735615],[112.31529236,-7.77743673],[112.31552124,-7.77754688],[112.3158493,-7.77762985],[112.31642914,-7.77763891],[112.31674957,-7.77759218],[112.31702423,-7.77748537],[112.31733704,-7.77737904],[112.31749725,-7.7773757],[112.31781769,-7.77740431],[112.31800079,-7.77736044],[112.31806946,-7.77741337],[112.31833649,-7.7777195],[112.31845093,-7.77776861],[112.31851196,-7.77771568],[112.31853485,-7.77757454],[112.31860352,-7.77747726],[112.31872559,-7.77740526],[112.31893921,-7.77747107],[112.31910706,-7.7775979],[112.31939697,-7.77778101],[112.31961823,-7.77782679],[112.31989288,-7.77781391],[112.32007599,-7.77774191],[112.32020569,-7.77759123],[112.32026672,-7.77731562],[112.32038879,-7.77713823],[112.32054138,-7.77704716],[112.32080078,-7.77698231],[112.32107544,-7.77690649],[112.32137299,-7.7767787],[112.32162476,-7.77674246],[112.32246399,-7.77659559],[112.32266998,-7.77659178],[112.32300568,-7.77663994],[112.32363129,-7.77658033],[112.32408142,-7.77657127],[112.32447815,-7.7767458],[112.32460022,-7.77678823],[112.32543182,-7.77667427],[112.3256073,-7.77668381],[112.3258667,-7.77687645],[112.32627869,-7.77714157],[112.32663727,-7.7772522],[112.32689667,-7.77721786],[112.32709503,-7.77709293],[112.32722473,-7.77703762],[112.32756042,-7.77706575],[112.32800293,-7.77696991],[112.32826996,-7.77705526],[112.32843018,-7.777174],[112.32862854,-7.77728319],[112.32873535,-7.77727318],[112.32887268,-7.77713251],[112.32899475,-7.77705336],[112.32917023,-7.77694988],[112.32926178,-7.77678061],[112.32928467,-7.77654266],[112.32933044,-7.77640629],[112.32950592,-7.7761879],[112.32965851,-7.77610874],[112.3299408,-7.77607012],[112.33033752,-7.77606535],[112.33065796,-7.77606821],[112.33087921,-7.77596235],[112.33184814,-7.77551222],[112.33204651,-7.77558565],[112.33267975,-7.77579784],[112.33310699,-7.77579737],[112.33331299,-7.77572346],[112.33342743,-7.77555752],[112.33357239,-7.77539062],[112.33382416,-7.7750659],[112.33407593,-7.7747736],[112.33455658,-7.77406359],[112.33480835,-7.77368116],[112.33599091,-7.77190828],[112.33604431,-7.77175379],[112.33618164,-7.77152586],[112.33623505,-7.77144337],[112.33638763,-7.77129078],[112.33691406,-7.77100086],[112.33699036,-7.77098846],[112.33724976,-7.77095175],[112.33734131,-7.77092171],[112.33785248,-7.7706995],[112.33809662,-7.77049732],[112.33846283,-7.77013397],[112.33860016,-7.76983452],[112.33876801,-7.76929903],[112.3391037,-7.76857662],[112.33937073,-7.76816893],[112.3394928,-7.76806879],[112.3398819,-7.76774406],[112.34033966,-7.76742744],[112.34130096,-7.76689339],[112.34244537,-7.76632309],[112.34418488,-7.76518679],[112.34558868,-7.76434803],[112.34689331,-7.76343918],[112.34754181,-7.76288509],[112.34767151,-7.76264906],[112.34788513,-7.76237965],[112.34807587,-7.76215076],[112.34828949,-7.76192522],[112.34860992,-7.76163721],[112.34889221,-7.76131392],[112.34910583,-7.76115274],[112.34922791,-7.76110888],[112.34931183,-7.76107788],[112.34940338,-7.76108503],[112.34938049,-7.76120806],[112.34960938,-7.76161575],[112.34985352,-7.76182795],[112.35021973,-7.76203537],[112.35079956,-7.76227045],[112.35131073,-7.76271296],[112.3518219,-7.76313066],[112.35188293,-7.76318169],[112.35203552,-7.76334715],[112.35224152,-7.76359749],[112.35255432,-7.76392889],[112.35276031,-7.76402235],[112.35290527,-7.76401138],[112.35366058,-7.76380014],[112.35391998,-7.76376772],[112.35452271,-7.76380444],[112.35483551,-7.76392603],[112.35500336,-7.7640276],[112.35519409,-7.76421356],[112.35536957,-7.76451635],[112.35549927,-7.76476192],[112.35565186,-7.76499319],[112.35585022,-7.76514912],[112.35639191,-7.76537991],[112.35688782,-7.76555014],[112.35715485,-7.76579714],[112.35739899,-7.76608706],[112.35756683,-7.76625967],[112.35777283,-7.76631737],[112.35803986,-7.76624203],[112.35812378,-7.76622009],[112.35830688,-7.76609468],[112.35871124,-7.7658143],[112.35884857,-7.76581526],[112.35900879,-7.76585484],[112.35926056,-7.76589823],[112.35988617,-7.76602793],[112.36047363,-7.76640463],[112.36076355,-7.76658535],[112.36109161,-7.76667738],[112.36182404,-7.76675129],[112.36238861,-7.76671696],[112.36258698,-7.76674557],[112.36286926,-7.76682329],[112.36333466,-7.76698923],[112.36380768,-7.76707649],[112.36411285,-7.76712894],[112.36455536,-7.76724148],[112.36497498,-7.76743889],[112.36518097,-7.76763296],[112.36544037,-7.76786041],[112.36560059,-7.76800251],[112.36592865,-7.76809835],[112.36642456,-7.76819515],[112.36651611,-7.76817751],[112.36735535,-7.76847935],[112.36888885,-7.77015018],[112.36935425,-7.77106285],[112.37011719,-7.77189779],[112.37020874,-7.77218294],[112.37042999,-7.77288723],[112.37052155,-7.77294397],[112.37371826,-7.77485657],[112.37440491,-7.77607298],[112.37441254,-7.77706289],[112.37525177,-7.77827883],[112.37540436,-7.77836084],[112.3755188,-7.77839899],[112.37590027,-7.77857351],[112.37599182,-7.77866411],[112.3765564,-7.77896023],[112.37665558,-7.78057051],[112.37670135,-7.78065586],[112.37679291,-7.78081751],[112.3769989,-7.78120422],[112.37725067,-7.78143406],[112.37776947,-7.78190136],[112.37813568,-7.78200197],[112.37930298,-7.78211117],[112.37982178,-7.78249216],[112.38019562,-7.78279114],[112.38066864,-7.78329849],[112.38114929,-7.7840786],[112.38130188,-7.78428841],[112.38121796,-7.78432798],[112.38106537,-7.78438854],[112.38092804,-7.78445816],[112.38075256,-7.78452826],[112.38057709,-7.78464842],[112.38048553,-7.78470325],[112.38041687,-7.78474855],[112.38030243,-7.78486824],[112.38014221,-7.78504848],[112.38002777,-7.78517818],[112.37993622,-7.78532839],[112.37983704,-7.78554821],[112.37973785,-7.78574848],[112.37974548,-7.78584814],[112.37979889,-7.78597832],[112.37987518,-7.78612852],[112.38000488,-7.78625822],[112.38015747,-7.78636837],[112.38037872,-7.78650856],[112.38061523,-7.78663826],[112.38088226,-7.78678846],[112.38143158,-7.7870183],[112.38194275,-7.78717852],[112.38230896,-7.78725767],[112.38249207,-7.7872982],[112.38274384,-7.78734827],[112.3830719,-7.78739834],[112.38382721,-7.78750849],[112.38432312,-7.78753853],[112.3848877,-7.78754854],[112.38538361,-7.78744841],[112.38556671,-7.78737783],[112.38580322,-7.78735018],[112.38585663,-7.78740215],[112.38594818,-7.78740168],[112.38619995,-7.7877326],[112.38624573,-7.78783846],[112.38638306,-7.78833818],[112.38660431,-7.78876257],[112.38670349,-7.78906822],[112.387146,-7.79099846],[112.38732147,-7.79092693],[112.38773346,-7.79133749],[112.38785553,-7.79227543],[112.38774109,-7.79333258],[112.38896942,-7.79472542],[112.38934326,-7.79514694],[112.3894043,-7.79518509],[112.38986206,-7.796278],[112.38893127,-7.79779053],[112.38931274,-7.79849672],[112.38941956,-7.79875278],[112.38928986,-7.79907274],[112.38906097,-7.79943419],[112.38882446,-7.79945707],[112.38800812,-7.79953718],[112.38782501,-7.79955578],[112.38746643,-7.79975605],[112.38690948,-7.80007076],[112.38674164,-7.8004303],[112.38601685,-7.80201769],[112.38591003,-7.80222321],[112.38466644,-7.80362892],[112.38461304,-7.80355978],[112.38443756,-7.80344582],[112.38407898,-7.80321407],[112.38344574,-7.80280256],[112.383255,-7.80289936],[112.38303375,-7.80323362],[112.38277435,-7.80366421],[112.38158417,-7.80382824],[112.38145447,-7.80472565],[112.38134003,-7.8047204],[112.38077545,-7.80519295],[112.38008118,-7.80532265],[112.3792038,-7.80548859],[112.37879181,-7.80618715],[112.37879944,-7.80711842],[112.37879944,-7.8072052],[112.37860107,-7.80713511],[112.37844849,-7.80705976],[112.37809753,-7.80721235],[112.37741089,-7.80727386],[112.37740326,-7.80737495],[112.37740326,-7.80778027],[112.37746429,-7.80858564],[112.37625885,-7.80956793],[112.37598419,-7.80983019],[112.37583923,-7.8099885],[112.37541962,-7.81003666],[112.37513733,-7.81031704],[112.37471771,-7.81050444],[112.37468719,-7.81032228],[112.37462616,-7.80989933],[112.37397003,-7.81027412],[112.37397003,-7.8100605],[112.373909,-7.80895805],[112.37288666,-7.80874014],[112.37255859,-7.80828953],[112.37251282,-7.80822897],[112.37223816,-7.80813694],[112.37186432,-7.80813789],[112.37101746,-7.8078146],[112.37046051,-7.80828238],[112.36952209,-7.80809927],[112.36915588,-7.8083334],[112.36878204,-7.80931282],[112.36831665,-7.8096118],[112.36827087,-7.81006002],[112.36827087,-7.81015301],[112.36737061,-7.81026745],[112.36714935,-7.81029606],[112.36603546,-7.81118488],[112.36416626,-7.81230879],[112.36197662,-7.81413269],[112.36156464,-7.81430006],[112.36071014,-7.81464386],[112.36058044,-7.81470728],[112.3598938,-7.81502724],[112.35977936,-7.81525707],[112.35958862,-7.81570721],[112.35926056,-7.81616735],[112.35919952,-7.81621742],[112.35875702,-7.81660748],[112.35870361,-7.81667709],[112.35850525,-7.81703711],[112.35836792,-7.81744719],[112.3582077,-7.81788731],[112.35810089,-7.81820726],[112.35786438,-7.81862736],[112.35746002,-7.81918716],[112.35740662,-7.81927729],[112.35728455,-7.81945753],[112.35720062,-7.81959724],[112.35705566,-7.8197875],[112.35696411,-7.81993723],[112.35691833,-7.82002735],[112.35683441,-7.8201375],[112.35675049,-7.8202672],[112.35665894,-7.82038736],[112.35650635,-7.82062435],[112.35646057,-7.82078743],[112.35641479,-7.8208971],[112.35635376,-7.82110739],[112.35630035,-7.82125711],[112.35627747,-7.82133722],[112.35621643,-7.8214674],[112.35614014,-7.8215971],[112.35608673,-7.82169724],[112.35585022,-7.82187033],[112.3554306,-7.82217741],[112.35517883,-7.82235718],[112.35448456,-7.82276249],[112.35453033,-7.82284832],[112.35529327,-7.82420111],[112.35533905,-7.82437706],[112.35562897,-7.82538223],[112.35586548,-7.82618809],[112.35587311,-7.8278923],[112.35634613,-7.82864857],[112.35623169,-7.82911539],[112.35614777,-7.82942772],[112.35578918,-7.83036757],[112.35573578,-7.83056736],[112.35570526,-7.83069134],[112.35568237,-7.83077765],[112.35552979,-7.8309474],[112.35494995,-7.83153772],[112.3546524,-7.83187771],[112.35433197,-7.83240747],[112.3540802,-7.83274746],[112.35382843,-7.83298731],[112.35341644,-7.83322763],[112.35329437,-7.83333826],[112.35285187,-7.83396292],[112.35279083,-7.83404398]
					]
				]
			}
		}
	]
}