{
	"type": "FeatureCollection",
	"features": [
		{
			"type": "Feature",
			"properties": {
				"ISO": "IDN",
				"PROVINSI":"Jawa Timur",
				"KABUPATEN":"Malang",
				"KECAMATAN": "Ngantang",
				"CODE":	"35.07.27"
			},
			"geometry": {
				"type": "Polygon",
				"coordinates": [
					[
						[112.3744278,-7.95486736],[112.37417603,-7.95520639],[112.37402344,-7.95538664],[112.37361145,-7.95559406],[112.37289429,-7.95593977],[112.37263489,-7.95617056],[112.37242126,-7.95633936],[112.37213135,-7.9564991],[112.37187195,-7.95662165],[112.37067413,-7.95719671],[112.37049103,-7.95726728],[112.37023926,-7.95710564],[112.36968231,-7.95685625],[112.36949921,-7.9568243],[112.36917114,-7.9567337],[112.36870575,-7.9566555],[112.36849976,-7.95668173],[112.36772919,-7.95612335],[112.36750793,-7.95604706],[112.36673737,-7.95607615],[112.36647797,-7.95601749],[112.36599731,-7.95578241],[112.3651886,-7.95540047],[112.36484528,-7.95544243],[112.36476898,-7.95524597],[112.36457062,-7.95423412],[112.36450958,-7.95402527],[112.36445618,-7.95393085],[112.36432648,-7.9538579],[112.36384583,-7.95362234],[112.3637619,-7.95347071],[112.36373138,-7.9532485],[112.36375427,-7.95302057],[112.3638382,-7.95281076],[112.36408234,-7.9522748],[112.3640213,-7.95203638],[112.36385345,-7.95164061],[112.36380005,-7.95142365],[112.36367035,-7.951262],[112.36352539,-7.95106649],[112.36334229,-7.95064831],[112.36318207,-7.95022869],[112.36309814,-7.95020294],[112.36288452,-7.95026159],[112.36231232,-7.95046902],[112.36215973,-7.95039701],[112.36190796,-7.95033503],[112.36154938,-7.95045614],[112.36089325,-7.95048571],[112.36071014,-7.95041466],[112.36026001,-7.95012379],[112.36019135,-7.94997835],[112.36018372,-7.94979954],[112.36025238,-7.94970369],[112.360672,-7.94911623],[112.36065674,-7.94888687],[112.36079407,-7.9486146],[112.36084747,-7.94843674],[112.36080933,-7.94833517],[112.36064148,-7.94813395],[112.36040497,-7.94798183],[112.36017609,-7.94791985],[112.35996246,-7.94792461],[112.35968018,-7.94794655],[112.35923004,-7.94792843],[112.35906982,-7.94795322],[112.35881042,-7.9479661],[112.35865784,-7.94802189],[112.35834503,-7.94812632],[112.35818481,-7.94810486],[112.3580246,-7.94800425],[112.35791779,-7.94783497],[112.3576889,-7.94728041],[112.35748291,-7.94708872],[112.35723877,-7.9469471],[112.35678864,-7.94669294],[112.35655975,-7.94652987],[112.35637665,-7.94652462],[112.35585022,-7.94658422],[112.35556793,-7.94656801],[112.35543823,-7.94647932],[112.35535431,-7.94646788],[112.35527039,-7.94647837],[112.3549118,-7.94652367],[112.35469818,-7.94644308],[112.35437012,-7.94632673],[112.35417175,-7.9463253],[112.35409546,-7.94640112],[112.35402679,-7.94656134],[112.35385132,-7.94689369],[112.35366058,-7.94700146],[112.35339355,-7.94709682],[112.35320282,-7.9470849],[112.35295105,-7.94700098],[112.35283661,-7.94689083],[112.35277557,-7.94675255],[112.35266876,-7.94655085],[112.35250854,-7.94647121],[112.35222626,-7.94642878],[112.35157013,-7.94632721],[112.35069275,-7.94596624],[112.35048676,-7.9458952],[112.34996033,-7.94571638],[112.34976959,-7.9457655],[112.34967804,-7.94578457],[112.34934235,-7.94585609],[112.34903717,-7.94636869],[112.34881592,-7.94642925],[112.34846497,-7.9464469],[112.34822083,-7.94639301],[112.3479538,-7.94619894],[112.34760284,-7.94599867],[112.3470993,-7.9458518],[112.34667969,-7.94570494],[112.34627533,-7.94550419],[112.34581757,-7.94538403],[112.34559631,-7.94529295],[112.34555817,-7.945189],[112.3454895,-7.94492865],[112.34531403,-7.94471121],[112.34509277,-7.94459724],[112.34481812,-7.94450903],[112.34430695,-7.9443841],[112.34409332,-7.94425297],[112.34327698,-7.94364166],[112.3431778,-7.94346476],[112.34306335,-7.9431901],[112.34289551,-7.94299126],[112.342659,-7.9427166],[112.34254456,-7.94247437],[112.34280396,-7.94212151],[112.34288025,-7.94196129],[112.34296417,-7.94170523],[112.34287262,-7.94145632],[112.34262085,-7.94069481],[112.34259033,-7.94046259],[112.34249878,-7.94031334],[112.3422699,-7.94007874],[112.34166718,-7.93975258],[112.34148407,-7.93957376],[112.34128571,-7.93939972],[112.34107971,-7.93932438],[112.34092712,-7.93932819],[112.34075165,-7.93945169],[112.3404541,-7.93962383],[112.34024811,-7.93965483],[112.33984375,-7.93963528],[112.33965302,-7.93955517],[112.33930969,-7.93943691],[112.33887482,-7.9394207],[112.33866119,-7.939466],[112.33843994,-7.93950367],[112.33823395,-7.93943453],[112.33779907,-7.93919516],[112.33773041,-7.93912268],[112.33750153,-7.93891621],[112.33724976,-7.93877411],[112.33686066,-7.93881464],[112.33670044,-7.93879652],[112.33637238,-7.93870687],[112.33621979,-7.93861628],[112.33610535,-7.93845844],[112.33592987,-7.93833256],[112.33542633,-7.93833208],[112.33515167,-7.93833828],[112.33493805,-7.93833971],[112.33473969,-7.93832302],[112.33441162,-7.9382925],[112.33407593,-7.93828535],[112.33380127,-7.9383049],[112.33359528,-7.93831158],[112.33347321,-7.93832064],[112.33297729,-7.93810129],[112.3323822,-7.93766928],[112.33181,-7.93716049],[112.33115387,-7.93666506],[112.33094788,-7.93657875],[112.33029175,-7.93629789],[112.32899475,-7.93600845],[112.32784271,-7.9358716],[112.3271637,-7.93584824],[112.32642365,-7.93587542],[112.32570648,-7.93569994],[112.32507324,-7.93543386],[112.32430267,-7.93502808],[112.32380676,-7.93482542],[112.32290649,-7.93467522],[112.32220459,-7.93443489],[112.32143402,-7.93393946],[112.32063293,-7.93336773],[112.32003021,-7.93296003],[112.31993103,-7.93290234],[112.3195343,-7.93296003],[112.3189621,-7.93304205],[112.31878662,-7.93296814],[112.31871796,-7.93289995],[112.31855011,-7.93243122],[112.31784058,-7.93199396],[112.31774902,-7.93188953],[112.31773376,-7.93180227],[112.31733704,-7.93152475],[112.31710052,-7.93143511],[112.31671143,-7.93136263],[112.315979,-7.93138456],[112.31524658,-7.93139362],[112.31496429,-7.93145132],[112.31311798,-7.93096924],[112.31049347,-7.93044567],[112.30893707,-7.93022919],[112.3079071,-7.92987156],[112.30657959,-7.92929554],[112.30761719,-7.92858601],[112.30882263,-7.92795324],[112.30995941,-7.92703199],[112.3105545,-7.92643881],[112.31061554,-7.92615128],[112.31066132,-7.92603827],[112.31104279,-7.92567635],[112.3112793,-7.92539835],[112.31134796,-7.9252305],[112.31143188,-7.92500067],[112.31159973,-7.92479658],[112.3119278,-7.92458773],[112.3120575,-7.92444897],[112.31214142,-7.92419195],[112.31225586,-7.92390537],[112.31229401,-7.92381525],[112.31243896,-7.92353773],[112.31259155,-7.92331028],[112.31275177,-7.92303038],[112.31279755,-7.92294598],[112.31286621,-7.92276669],[112.3132782,-7.92202663],[112.31343079,-7.92178917],[112.31349182,-7.92169714],[112.31356812,-7.92147064],[112.31362915,-7.92094517],[112.3136673,-7.9206996],[112.31381989,-7.92050028],[112.31383514,-7.92021418],[112.31389618,-7.92004967],[112.31391907,-7.91992712],[112.31377411,-7.91953802],[112.31371307,-7.91940737],[112.31372833,-7.91915178],[112.31395721,-7.91843939],[112.31401062,-7.91819096],[112.31364441,-7.91736555],[112.31334686,-7.9168992],[112.31323242,-7.91666365],[112.3131485,-7.9162879],[112.31311035,-7.91582775],[112.31316376,-7.91518927],[112.31325531,-7.91455269],[112.31329346,-7.91421938],[112.31317902,-7.91374969],[112.31309509,-7.91351128],[112.31304932,-7.91284037],[112.31303406,-7.91269588],[112.31279755,-7.91212797],[112.31271362,-7.91178608],[112.31277466,-7.91105509],[112.31284332,-7.91052437],[112.31297302,-7.90989351],[112.31301117,-7.90949249],[112.31300354,-7.90936804],[112.31313324,-7.90923214],[112.31330872,-7.90880775],[112.31339264,-7.90862751],[112.31352234,-7.90824938],[112.31331635,-7.9078083],[112.31317139,-7.90761662],[112.31288147,-7.90743017],[112.31256866,-7.90727234],[112.31242371,-7.90718222],[112.31235504,-7.90705109],[112.31225586,-7.90671539],[112.31218719,-7.90645742],[112.3122406,-7.90621901],[112.31228638,-7.90607643],[112.31233215,-7.90569496],[112.31227875,-7.90547752],[112.31221771,-7.90522194],[112.31218719,-7.90502548],[112.31203461,-7.90481329],[112.31195068,-7.90471745],[112.31230927,-7.90354633],[112.31239319,-7.90312624],[112.31246948,-7.90275621],[112.31254578,-7.90264463],[112.31264496,-7.90258312],[112.31289673,-7.90228176],[112.31304932,-7.9021287],[112.3131485,-7.902071],[112.31327057,-7.90200138],[112.31347656,-7.90197182],[112.31373596,-7.90194702],[112.31381226,-7.9019413],[112.31395721,-7.90189791],[112.3140564,-7.90185642],[112.31412506,-7.90181017],[112.31421661,-7.90172529],[112.31433105,-7.90154457],[112.31439209,-7.90130949],[112.3144989,-7.90098238],[112.31463623,-7.9008112],[112.31484222,-7.90063953],[112.31530762,-7.90018702],[112.31546021,-7.89990664],[112.31550598,-7.899611],[112.31562042,-7.89897299],[112.31575775,-7.8987236],[112.31589508,-7.89860439],[112.3168335,-7.89828014],[112.31691742,-7.8982296],[112.31698608,-7.89820623],[112.31723785,-7.89805031],[112.31737518,-7.89776993],[112.31748962,-7.89756727],[112.31758118,-7.89724016],[112.31764221,-7.89669561],[112.31763458,-7.89608908],[112.31769562,-7.89580917],[112.31782532,-7.89563751],[112.31877136,-7.89482594],[112.3195343,-7.89413929],[112.32032776,-7.89356136],[112.32089233,-7.89309263],[112.32107544,-7.89303017],[112.32167053,-7.89305925],[112.32220459,-7.89304209],[112.32238007,-7.89297199],[112.32247925,-7.89293242],[112.32263947,-7.89282274],[112.32312012,-7.89241695],[112.32325745,-7.89219904],[112.32337189,-7.89185619],[112.32336426,-7.89160776],[112.32315063,-7.89117289],[112.3230896,-7.89110422],[112.32292938,-7.89092445],[112.32267761,-7.89038086],[112.32261658,-7.89002371],[112.32263184,-7.8897748],[112.32286072,-7.88924503],[112.32307434,-7.88885546],[112.3234787,-7.88820124],[112.32362366,-7.88793612],[112.32366943,-7.88764048],[112.32366943,-7.88739204],[112.32342529,-7.88579893],[112.32341766,-7.88561964],[112.3234787,-7.88549662],[112.32365417,-7.88526964],[112.32440948,-7.88445568],[112.32479095,-7.88393259],[112.32514191,-7.88344383],[112.32522583,-7.88316011],[112.32524109,-7.88294315],[112.32518005,-7.88218832],[112.32514191,-7.88182974],[112.32509613,-7.88110352],[112.32512665,-7.88065004],[112.32514191,-7.88048029],[112.32523346,-7.88007402],[112.32540131,-7.87963009],[112.32566071,-7.87897825],[112.32572937,-7.87868023],[112.32584381,-7.87814713],[112.32588196,-7.8779583],[112.32585907,-7.8777318],[112.32540894,-7.87567139],[112.32563019,-7.87534761],[112.32582092,-7.8751483],[112.32588959,-7.87499857],[112.32597351,-7.87409973],[112.32604218,-7.87349176],[112.32598114,-7.87286997],[112.32579803,-7.87179613],[112.32570648,-7.87134409],[112.32530975,-7.8705678],[112.32527161,-7.87047672],[112.32579803,-7.87015581],[112.32637787,-7.86981535],[112.3266983,-7.86967659],[112.32784271,-7.86918259],[112.32940674,-7.86848068],[112.33036041,-7.86804104],[112.33067322,-7.86789131],[112.33215332,-7.86710215],[112.33227539,-7.86701012],[112.3332901,-7.86622763],[112.33350372,-7.86605501],[112.3336792,-7.86591816],[112.33376312,-7.86585188],[112.334198,-7.86550188],[112.33457947,-7.8650322],[112.3348465,-7.86454201],[112.33509827,-7.86374187],[112.33544159,-7.86287212],[112.33573151,-7.86210203],[112.33581543,-7.86199856],[112.33595276,-7.86183453],[112.33605957,-7.86171198],[112.33661652,-7.8613019],[112.33686829,-7.8610754],[112.33701324,-7.86094189],[112.33724976,-7.86036205],[112.33740234,-7.85907221],[112.33743286,-7.85810184],[112.33753967,-7.85795116],[112.33779144,-7.85760212],[112.33840942,-7.85714197],[112.33907318,-7.85679197],[112.33960724,-7.85652208],[112.340271,-7.85626221],[112.34053802,-7.85604191],[112.34095001,-7.85578203],[112.34140778,-7.85543203],[112.34169006,-7.85531187],[112.34207153,-7.85523224],[112.3429718,-7.85525227],[112.34400177,-7.85521221],[112.3446579,-7.85509205],[112.34532166,-7.85493183],[112.34631348,-7.85461187],[112.34696198,-7.85423183],[112.34699249,-7.85407305],[112.34703064,-7.85392046],[112.34710693,-7.85355186],[112.347229,-7.85332203],[112.34738159,-7.85316229],[112.34793091,-7.85280228],[112.34816742,-7.85261202],[112.34887695,-7.85210228],[112.34920502,-7.85168409],[112.34967804,-7.85045147],[112.34993744,-7.85011816],[112.35005188,-7.84997082],[112.35014343,-7.84985161],[112.35034943,-7.84954214],[112.35047913,-7.84941196],[112.3506012,-7.84927225],[112.35066223,-7.84922218],[112.3508606,-7.84912205],[112.35118103,-7.84903193],[112.35157013,-7.84896183],[112.35189056,-7.84884214],[112.35199738,-7.84880161],[112.35191345,-7.84875345],[112.35175323,-7.84865046],[112.35153961,-7.84851122],[112.35147095,-7.84848118],[112.3513031,-7.84841108],[112.35121918,-7.84839106],[112.35105896,-7.84836102],[112.35089874,-7.84832096],[112.35080719,-7.84830093],[112.35070038,-7.84824085],[112.35051727,-7.84814119],[112.35038757,-7.84809113],[112.35018921,-7.848001],[112.35009003,-7.84792089],[112.34998322,-7.84786129],[112.3498764,-7.84783125],[112.34964752,-7.84773111],[112.34947968,-7.847651],[112.34928894,-7.84755087],[112.34900665,-7.84739113],[112.34889984,-7.84740114],[112.34873199,-7.84740114],[112.34848785,-7.8473711],[112.34815979,-7.84734106],[112.34799957,-7.84731102],[112.34776306,-7.84734106],[112.34764862,-7.84735107],[112.34742737,-7.84740114],[112.34702301,-7.84714127],[112.34642029,-7.84681082],[112.34583282,-7.8463912],[112.34513092,-7.8456912],[112.34443665,-7.84486103],[112.34385681,-7.84397125],[112.34349823,-7.8433609],[112.3433609,-7.84284115],[112.34343719,-7.84247112],[112.34358978,-7.84233093],[112.34388733,-7.84218121],[112.34477997,-7.84211111],[112.34558868,-7.84200096],[112.34600067,-7.84189129],[112.34641266,-7.84158087],[112.34649658,-7.84149694],[112.34669495,-7.84120226],[112.34703064,-7.84070539],[112.34734344,-7.84014845],[112.34806824,-7.8392911],[112.34844208,-7.83886099],[112.34893036,-7.83867121],[112.34925079,-7.83866119],[112.34973907,-7.83879089],[112.35035706,-7.83936119],[112.35079193,-7.83952093],[112.35128784,-7.83955097],[112.3514328,-7.83943129],[112.35153198,-7.83920097],[112.3515625,-7.83902836],[112.35157776,-7.83892107],[112.35160828,-7.83882427],[112.35173035,-7.83847094],[112.35189819,-7.83805084],[112.35201263,-7.83788252],[112.352211,-7.83760118],[112.3522644,-7.8374958],[112.35238647,-7.83727121],[112.3525238,-7.8365159],[112.35254669,-7.83639097],[112.35256195,-7.83610392],[112.35276031,-7.8355732],[112.35238647,-7.83462191],[112.35279083,-7.83404398],[112.35285187,-7.83396292],[112.35329437,-7.83333826],[112.35341644,-7.83322763],[112.35382843,-7.83298731],[112.3540802,-7.83274746],[112.35433197,-7.83240747],[112.3546524,-7.83187771],[112.35494995,-7.83153772],[112.35552979,-7.8309474],[112.35568237,-7.83077765],[112.35570526,-7.83069134],[112.35573578,-7.83056736],[112.35578918,-7.83036757],[112.35614777,-7.82942772],[112.35623169,-7.82911539],[112.35634613,-7.82864857],[112.35587311,-7.8278923],[112.35586548,-7.82618809],[112.35562897,-7.82538223],[112.35533905,-7.82437706],[112.35529327,-7.82420111],[112.35453033,-7.82284832],[112.35448456,-7.82276249],[112.35517883,-7.82235718],[112.3554306,-7.82217741],[112.35585022,-7.82187033],[112.35608673,-7.82169724],[112.35614014,-7.8215971],[112.35621643,-7.8214674],[112.35627747,-7.82133722],[112.35630035,-7.82125711],[112.35635376,-7.82110739],[112.35641479,-7.8208971],[112.35646057,-7.82078743],[112.35650635,-7.82062435],[112.35665894,-7.82038736],[112.35675049,-7.8202672],[112.35683441,-7.8201375],[112.35691833,-7.82002735],[112.35696411,-7.81993723],[112.35705566,-7.8197875],[112.35720062,-7.81959724],[112.35728455,-7.81945753],[112.35740662,-7.81927729],[112.35746002,-7.81918716],[112.35786438,-7.81862736],[112.35810089,-7.81820726],[112.3582077,-7.81788731],[112.35836792,-7.81744719],[112.35850525,-7.81703711],[112.35870361,-7.81667709],[112.35875702,-7.81660748],[112.35919952,-7.81621742],[112.35926056,-7.81616735],[112.35958862,-7.81570721],[112.35977936,-7.81525707],[112.3598938,-7.81502724],[112.36058044,-7.81470728],[112.36071014,-7.81464386],[112.36156464,-7.81430006],[112.36197662,-7.81413269],[112.36416626,-7.81230879],[112.36603546,-7.81118488],[112.36714935,-7.81029606],[112.36737061,-7.81026745],[112.36827087,-7.81015301],[112.36827087,-7.81006002],[112.36831665,-7.8096118],[112.36878204,-7.80931282],[112.36915588,-7.8083334],[112.36952209,-7.80809927],[112.37046051,-7.80828238],[112.37101746,-7.8078146],[112.37186432,-7.80813789],[112.37223816,-7.80813694],[112.37251282,-7.80822897],[112.37255859,-7.80828953],[112.37288666,-7.80874014],[112.373909,-7.80895805],[112.37397003,-7.8100605],[112.37397003,-7.81027412],[112.37462616,-7.80989933],[112.37468719,-7.81032228],[112.37471771,-7.81050444],[112.37513733,-7.81031704],[112.37541962,-7.81003666],[112.37583923,-7.8099885],[112.37598419,-7.80983019],[112.37625885,-7.80956793],[112.37746429,-7.80858564],[112.37740326,-7.80778027],[112.37740326,-7.80737495],[112.37741089,-7.80727386],[112.37809753,-7.80721235],[112.37844849,-7.80705976],[112.37860107,-7.80713511],[112.37879944,-7.8072052],[112.37879944,-7.80711842],[112.37879181,-7.80618715],[112.3792038,-7.80548859],[112.38008118,-7.80532265],[112.38077545,-7.80519295],[112.38134003,-7.8047204],[112.38145447,-7.80472565],[112.38158417,-7.80382824],[112.38277435,-7.80366421],[112.38303375,-7.80323362],[112.383255,-7.80289936],[112.38344574,-7.80280256],[112.38407898,-7.80321407],[112.38443756,-7.80344582],[112.38461304,-7.80355978],[112.38466644,-7.80362892],[112.38534546,-7.80422783],[112.38684845,-7.80515432],[112.38738251,-7.80559921],[112.38825226,-7.80631447],[112.38866425,-7.80677414],[112.38909149,-7.80724335],[112.38998413,-7.80733347],[112.39086914,-7.80714417],[112.39112854,-7.80697727],[112.39151764,-7.80672312],[112.39176178,-7.80644035],[112.39208984,-7.80616093],[112.39225769,-7.80626249],[112.39273071,-7.80657673],[112.39298248,-7.80667496],[112.39346313,-7.80691242],[112.39380646,-7.80712652],[112.3939743,-7.80732918],[112.39407349,-7.8078928],[112.39405823,-7.8081069],[112.39398956,-7.80835009],[112.39431763,-7.80813169],[112.39443207,-7.80804825],[112.39453888,-7.80797338],[112.39548492,-7.80770016],[112.39565277,-7.80764532],[112.39578247,-7.80765247],[112.39588928,-7.80767202],[112.39591217,-7.80793381],[112.39587402,-7.80803823],[112.39582062,-7.80814171],[112.39573669,-7.80831194],[112.39560699,-7.80836201],[112.395401,-7.80845165],[112.3952179,-7.80851173],[112.3952713,-7.80857182],[112.39544678,-7.80874205],[112.39582825,-7.80904579],[112.39614105,-7.80922174],[112.39624023,-7.80930424],[112.39643097,-7.80957699],[112.39645386,-7.80997229],[112.39644623,-7.81006193],[112.39646912,-7.8103919],[112.39651489,-7.81065178],[112.3966217,-7.8107996],[112.39673615,-7.81097174],[112.39699554,-7.81130171],[112.39720917,-7.81154203],[112.39730835,-7.81169176],[112.39759064,-7.8117466],[112.39782715,-7.8117919],[112.39810944,-7.81190205],[112.39849091,-7.81199169],[112.39862061,-7.81204176],[112.39877319,-7.81208849],[112.39888,-7.81213188],[112.39898682,-7.81217194],[112.39907074,-7.81221199],[112.39936829,-7.81262159],[112.39950562,-7.81284666],[112.39958954,-7.81316948],[112.39958954,-7.8133316],[112.39950562,-7.81371164],[112.3994751,-7.81384611],[112.39943695,-7.81398201],[112.39943695,-7.81444168],[112.39945984,-7.81480169],[112.39949036,-7.81507206],[112.39955139,-7.81548166],[112.39965057,-7.81600189],[112.39971924,-7.81634188],[112.39980316,-7.8163991],[112.40073395,-7.81672716],[112.4005127,-7.81723547],[112.40027618,-7.81765127],[112.40048218,-7.81763363],[112.40081787,-7.81770992],[112.40122223,-7.81780005],[112.40133667,-7.81781912],[112.401474,-7.81785202],[112.40167999,-7.81788635],[112.40188599,-7.81792164],[112.40255737,-7.81814194],[112.40278625,-7.81820202],[112.40329742,-7.81820202],[112.40381622,-7.81813192],[112.4043808,-7.81804752],[112.4043808,-7.8182435],[112.40445709,-7.81840324],[112.40459442,-7.81875181],[112.40466309,-7.81927299],[112.40470123,-7.8195219],[112.40471649,-7.81997204],[112.4047699,-7.82007122],[112.40507507,-7.82054186],[112.40525818,-7.82076168],[112.40549469,-7.82097197],[112.40563202,-7.82108688],[112.4058075,-7.82123184],[112.4059906,-7.82133818],[112.40634918,-7.82150173],[112.40655518,-7.82157183],[112.40666962,-7.82160711],[112.40727234,-7.82184601],[112.40736389,-7.82191181],[112.40747833,-7.82200193],[112.40781403,-7.82238197],[112.4079361,-7.82256174],[112.40808105,-7.82278204],[112.40812683,-7.82284164],[112.40818787,-7.82294226],[112.40825653,-7.82307863],[112.40825653,-7.82335281],[112.40795898,-7.82391405],[112.40789032,-7.8240118],[112.40763092,-7.82441187],[112.40745544,-7.82469177],[112.40740967,-7.82485199],[112.40738678,-7.82516193],[112.40745544,-7.82546186],[112.40748596,-7.82557917],[112.40751648,-7.82589293],[112.40744781,-7.82633591],[112.40740967,-7.82649183],[112.40718842,-7.82678652],[112.40706635,-7.82668447],[112.40680695,-7.82641172],[112.40654755,-7.82602549],[112.40641022,-7.82578182],[112.40621185,-7.82552433],[112.40612793,-7.82549191],[112.40596771,-7.82553434],[112.40557098,-7.82564163],[112.40518188,-7.82575655],[112.40487671,-7.82571936],[112.40480042,-7.8257432],[112.40467834,-7.82565165],[112.40410614,-7.82513762],[112.40380096,-7.824862],[112.40358734,-7.82483196],[112.4034729,-7.82486486],[112.40335846,-7.82492161],[112.40316772,-7.82502174],[112.4030304,-7.82514191],[112.40286255,-7.82534599],[112.40275574,-7.8254385],[112.40233612,-7.82602549],[112.40224457,-7.82609844],[112.40196991,-7.82609892],[112.40188599,-7.82606173],[112.40164948,-7.82588148],[112.40135956,-7.82554197],[112.40105438,-7.82515192],[112.40084076,-7.82491446],[112.40047455,-7.82452202],[112.40026093,-7.82428169],[112.40010071,-7.82419205],[112.39968109,-7.82406187],[112.39956665,-7.82404804],[112.39927673,-7.82400942],[112.39898682,-7.82397175],[112.39878082,-7.8240118],[112.39831543,-7.82414198],[112.39789581,-7.82427168],[112.39781189,-7.82425928],[112.39777374,-7.82417822],[112.39751434,-7.82366896],[112.3974762,-7.82356167],[112.39733124,-7.82342196],[112.3972168,-7.82348204],[112.39709473,-7.8235817],[112.39702606,-7.82377195],[112.3970108,-7.82405186],[112.39694977,-7.82459164],[112.39672852,-7.82554197],[112.39658356,-7.82677507],[112.39656067,-7.82686567],[112.39646149,-7.82713175],[112.3961792,-7.82744169],[112.39610291,-7.82746315],[112.39597321,-7.82744217],[112.39587402,-7.82740211],[112.39572144,-7.82730198],[112.39532471,-7.82698202],[112.39499664,-7.82658195],[112.39476776,-7.82640171],[112.39427948,-7.82610178],[112.39417267,-7.8260479],[112.39405823,-7.82592201],[112.39402771,-7.82548189],[112.39396667,-7.82537317],[112.3924942,-7.82692146],[112.39211273,-7.82730675],[112.39234924,-7.827425],[112.39258575,-7.82753992],[112.39282227,-7.82800913],[112.39266968,-7.82817602],[112.3923645,-7.8284297],[112.39208221,-7.8285284],[112.39199829,-7.8285594],[112.39156342,-7.82903194],[112.39141083,-7.83015203],[112.39151764,-7.83036232],[112.39263916,-7.83027363],[112.39386749,-7.83049631],[112.39405823,-7.83101225],[112.39396667,-7.83131313],[112.39383698,-7.83158302],[112.39328003,-7.83211327],[112.39304352,-7.83234549],[112.39181519,-7.83256912],[112.39138794,-7.83270836],[112.39131165,-7.83287621],[112.39122009,-7.83313084],[112.39134216,-7.83331203],[112.39147186,-7.83349609],[112.39252472,-7.83332682],[112.39344788,-7.83336401],[112.39489746,-7.83376408],[112.39523315,-7.83433723],[112.39499664,-7.83515739],[112.39488983,-7.83580828],[112.39539337,-7.83620834],[112.39556122,-7.83637714],[112.39578247,-7.83651972],[112.39587402,-7.8365798],[112.39600372,-7.8368845],[112.39607239,-7.83715534],[112.39624786,-7.8374939],[112.39634705,-7.83754969],[112.39655304,-7.8376627],[112.39685822,-7.83776331],[112.39732361,-7.83803892],[112.39743042,-7.83810186],[112.39759064,-7.83811283],[112.39788055,-7.83813286],[112.39815521,-7.83819962],[112.39861298,-7.83838654],[112.39887238,-7.83853626],[112.39898682,-7.83862686],[112.3991394,-7.83873892],[112.39939117,-7.83879519],[112.39958191,-7.83883905],[112.39983368,-7.83894777],[112.39987183,-7.83957958],[112.39982605,-7.8398118],[112.39959717,-7.84012175],[112.39943695,-7.84056187],[112.3993988,-7.84092188],[112.39949799,-7.84125185],[112.3995285,-7.84143066],[112.39970398,-7.84269428],[112.39956665,-7.84278488],[112.39919281,-7.84301138],[112.39909363,-7.84321833],[112.39892578,-7.84352398],[112.39879608,-7.84382963],[112.39872742,-7.84413528],[112.39872742,-7.84444046],[112.3988266,-7.84474516],[112.39884949,-7.84486961],[112.39889526,-7.84511805],[112.39901733,-7.84543037],[112.39920807,-7.84593058],[112.39939117,-7.84612846],[112.39955139,-7.84630251],[112.3997879,-7.84667444],[112.39994049,-7.8470664],[112.39987946,-7.84736347],[112.39972687,-7.84782791],[112.40018463,-7.84805393],[112.40052795,-7.84806299],[112.40085602,-7.84807158],[112.40118408,-7.84809399],[112.40162659,-7.84812641],[112.40174866,-7.84810257],[112.40278625,-7.84818172],[112.40383148,-7.84847116],[112.40394592,-7.84852552],[112.40394592,-7.84876299],[112.40387726,-7.84902573],[112.40382385,-7.84908628],[112.40367126,-7.84923887],[112.40358734,-7.84931469],[112.40336609,-7.84951115],[112.4030304,-7.84978342],[112.40279388,-7.84995365],[112.40262604,-7.85022545],[112.40242004,-7.85063314],[112.40225983,-7.85093307],[112.40221405,-7.85100698],[112.40197754,-7.85134649],[112.40184784,-7.85165215],[112.40180206,-7.85183954],[112.40177917,-7.8519578],[112.40187073,-7.85211086],[112.40194702,-7.85223627],[112.40190887,-7.85249472],[112.40187836,-7.85268593],[112.40177917,-7.85290718],[112.40170288,-7.85319996],[112.40162659,-7.85340023],[112.40148163,-7.85383987],[112.40131378,-7.8543601],[112.40112305,-7.85484314],[112.40100861,-7.8550458],[112.40084076,-7.85528374],[112.40065765,-7.85542774],[112.40049744,-7.85555649],[112.40028381,-7.8557682],[112.40023041,-7.85582829],[112.4000473,-7.85597992],[112.39984131,-7.85603905],[112.39946747,-7.85608721],[112.39919281,-7.85588741],[112.39910126,-7.85579824],[112.39903259,-7.85570669],[112.39879608,-7.85539246],[112.39849091,-7.85508823],[112.39811707,-7.85475016],[112.39781189,-7.85451412],[112.39756775,-7.8542099],[112.39730072,-7.85413218],[112.39707184,-7.85415077],[112.39685822,-7.85407639],[112.39661407,-7.85414505],[112.39646149,-7.85424519],[112.39624023,-7.85438347],[112.39620972,-7.85451174],[112.3961792,-7.85465527],[112.39616394,-7.85478735],[112.39614105,-7.85492659],[112.3961792,-7.85526562],[112.39621735,-7.85560465],[112.39624786,-7.8559432],[112.39611053,-7.85618114],[112.39601135,-7.85645294],[112.39584351,-7.85679245],[112.39563751,-7.85716629],[112.39550781,-7.8575058],[112.39530182,-7.85794735],[112.39524841,-7.8582201],[112.3950882,-7.85854006],[112.39499664,-7.8588376],[112.39495087,-7.85898876],[112.39486694,-7.85934019],[112.39485168,-7.85967016],[112.3948288,-7.8600502],[112.3948288,-7.86041021],[112.39486694,-7.86102009],[112.3948288,-7.86155987],[112.39478302,-7.86210012],[112.39473724,-7.86246967],[112.39218903,-7.86424065],[112.39105988,-7.86527824],[112.3907547,-7.86543131],[112.39016724,-7.8656888],[112.38980865,-7.8657732],[112.38938904,-7.86587048],[112.3884964,-7.86641169],[112.38802338,-7.86644268],[112.3875351,-7.86647463],[112.38729858,-7.8674922],[112.38696289,-7.86761045],[112.38627625,-7.8678546],[112.38508606,-7.86863565],[112.38436127,-7.8690567],[112.38384247,-7.86924887],[112.38322449,-7.86947918],[112.38253784,-7.87020826],[112.38220978,-7.87055874],[112.38383484,-7.87240696],[112.384758,-7.87183571],[112.38509369,-7.87162542],[112.38665009,-7.87072325],[112.38752747,-7.87006044],[112.38808441,-7.86964226],[112.38922119,-7.86921978],[112.38999939,-7.86897802],[112.39072418,-7.86921501],[112.39128113,-7.86856461],[112.39167786,-7.86765718],[112.39205933,-7.86696959],[112.39221191,-7.86669874],[112.39305115,-7.86627722],[112.39383698,-7.86633396],[112.39389801,-7.86685562],[112.39391327,-7.86719561],[112.39389038,-7.86765575],[112.39385223,-7.86795473],[112.39382935,-7.86815548],[112.39382935,-7.86854553],[112.39388275,-7.86909533],[112.39394379,-7.86980534],[112.39395905,-7.86997843],[112.39400482,-7.87035561],[112.3940506,-7.87075567],[112.39417267,-7.87136555],[112.39424896,-7.87177563],[112.3943634,-7.87234545],[112.39447021,-7.87286568],[112.39452362,-7.87306547],[112.3945694,-7.87345552],[112.39460754,-7.8735857],[112.3946991,-7.87372541],[112.39487457,-7.8739357],[112.39508057,-7.87412548],[112.39520264,-7.8742156],[112.39537048,-7.87439251],[112.39561462,-7.87475538],[112.3960495,-7.8756547],[112.39609528,-7.87593269],[112.39612579,-7.87621212],[112.39624786,-7.87693548],[112.39659882,-7.87714815],[112.39783478,-7.87712431],[112.39932251,-7.8770957],[112.400383,-7.87718534],[112.40077972,-7.87715483],[112.40127563,-7.8771801],[112.40209198,-7.87654305],[112.40232086,-7.87654305],[112.40283203,-7.87660503],[112.40294647,-7.87663269],[112.40320587,-7.87682295],[112.40348053,-7.87684345],[112.40364838,-7.87684298],[112.40390778,-7.87678957],[112.40397644,-7.87682915],[112.40434265,-7.87674665],[112.40536499,-7.87685299],[112.40548706,-7.87694788],[112.4056778,-7.87707758],[112.40618134,-7.87713528],[112.40830231,-7.87789583],[112.41004181,-7.87856197],[112.41216278,-7.88009024],[112.41470337,-7.88195419],[112.41568756,-7.88286304],[112.41631317,-7.8835206],[112.41776276,-7.88535023],[112.41902161,-7.88678551],[112.42017365,-7.8870697],[112.4206543,-7.88745165],[112.42114258,-7.88802576],[112.42112732,-7.88813829],[112.42103577,-7.88846302],[112.42098236,-7.88858271],[112.42085266,-7.8887229],[112.42082977,-7.88890266],[112.42086029,-7.88936281],[112.42090607,-7.88964272],[112.42098999,-7.88980436],[112.42127991,-7.89015293],[112.42154694,-7.89035273],[112.42280579,-7.89079285],[112.42320251,-7.89091301],[112.42346191,-7.89102268],[112.42388153,-7.89121294],[112.42411041,-7.89135265],[112.42431641,-7.89155293],[112.4243927,-7.89166307],[112.42450714,-7.89202213],[112.42462921,-7.89237261],[112.42475128,-7.89265299],[112.42484283,-7.89276505],[112.42494965,-7.89289284],[112.42523956,-7.89307261],[112.42546844,-7.8931427],[112.42566681,-7.89319277],[112.42591095,-7.89332294],[112.42608643,-7.89356279],[112.42620087,-7.89380264],[112.42642975,-7.89417267],[112.42682648,-7.89444971],[112.42706299,-7.89466238],[112.42726135,-7.89484262],[112.42749023,-7.89502287],[112.42771912,-7.89521265],[112.42803955,-7.89550304],[112.42813873,-7.89558268],[112.42849731,-7.89612293],[112.42880249,-7.89657307],[112.42912292,-7.89702272],[112.42919922,-7.8971529],[112.42955017,-7.89759302],[112.42986298,-7.89811277],[112.43006897,-7.89845276],[112.43023682,-7.89866304],[112.43041229,-7.89889288],[112.43054199,-7.89903307],[112.43062592,-7.89916277],[112.43074036,-7.89929295],[112.43083954,-7.89940262],[112.43102264,-7.89960289],[112.4311676,-7.8997426],[112.43125153,-7.8998127],[112.43144226,-7.90000296],[112.4316864,-7.90022278],[112.43186188,-7.90032291],[112.43218231,-7.90047264],[112.4323349,-7.90052414],[112.43250275,-7.90055275],[112.43260193,-7.9005475],[112.43273163,-7.90055895],[112.43312073,-7.90084553],[112.43341064,-7.9017086],[112.43505859,-7.90410233],[112.43621063,-7.9047699],[112.43669891,-7.90524817],[112.43795013,-7.90697145],[112.44275665,-7.91063595],[112.44307709,-7.91088533],[112.44271088,-7.91093969],[112.44100189,-7.91179848],[112.43920898,-7.91285133],[112.43797302,-7.91366959],[112.43773651,-7.91394806],[112.43753815,-7.91418123],[112.43734741,-7.91440821],[112.43645477,-7.91549683],[112.4353714,-7.91689587],[112.43471527,-7.91759586],[112.4339447,-7.91834879],[112.43372345,-7.91856575],[112.43331909,-7.91895723],[112.43251038,-7.92041683],[112.43228912,-7.92069626],[112.43161774,-7.92152119],[112.43013763,-7.92241812],[112.42703247,-7.92401791],[112.42493439,-7.92495537],[112.42419434,-7.92516756],[112.42362976,-7.92619991],[112.42356873,-7.9262743],[112.42282867,-7.92693567],[112.42197418,-7.92744255],[112.42066193,-7.92922974],[112.41988373,-7.92981434],[112.41860199,-7.93039989],[112.41716766,-7.93110275],[112.41596222,-7.93180418],[112.41498566,-7.93211794],[112.4146347,-7.93216801],[112.41437531,-7.93231726],[112.41339874,-7.93263102],[112.41330719,-7.93264437],[112.41254425,-7.93275023],[112.4118042,-7.93306255],[112.41072083,-7.93419075],[112.41030121,-7.93462896],[112.40976715,-7.93477726],[112.40873718,-7.93465853],[112.40756226,-7.934443],[112.40608978,-7.93435049],[112.4043045,-7.93440199],[112.40414429,-7.93440676],[112.40313721,-7.93464231],[112.40247345,-7.93507099],[112.40127563,-7.93627691],[112.40007019,-7.93752146],[112.39929199,-7.93791151],[112.39680481,-7.93908262],[112.39517212,-7.93966961],[112.39424133,-7.94056416],[112.39354706,-7.94134188],[112.39234161,-7.94324541],[112.39164734,-7.94394541],[112.3913269,-7.94415951],[112.39094543,-7.94441271],[112.39025116,-7.94457722],[112.3899765,-7.94464111],[112.38950348,-7.94470501],[112.38883972,-7.94495773],[112.3886261,-7.94511271],[112.38842773,-7.9453125],[112.38800812,-7.94584751],[112.38750458,-7.9462595],[112.38663483,-7.94682789],[112.38636017,-7.9470005],[112.38595581,-7.94728851],[112.38587952,-7.94734287],[112.38530731,-7.94785166],[112.38504028,-7.94806004],[112.38477325,-7.94826555],[112.38448334,-7.94833708],[112.38392639,-7.94841862],[112.38379669,-7.94865704],[112.38366699,-7.94873238],[112.38355255,-7.94872284],[112.38347626,-7.94863033],[112.38342285,-7.94852304],[112.38332367,-7.94824886],[112.38318634,-7.94795179],[112.38301086,-7.94787741],[112.38286591,-7.94792986],[112.38265991,-7.9480834],[112.38227844,-7.94833899],[112.38200378,-7.94854164],[112.3815155,-7.94893551],[112.3812561,-7.94900465],[112.3809433,-7.94907141],[112.38078308,-7.94901705],[112.38063049,-7.9490056],[112.3801651,-7.94932652],[112.37989044,-7.94941378],[112.37953186,-7.94950962],[112.3793869,-7.94959641],[112.37919617,-7.94953012],[112.37904358,-7.94951868],[112.37857819,-7.94983959],[112.37830353,-7.94992685],[112.37794495,-7.9500227],[112.37774658,-7.95014],[112.37761688,-7.95033836],[112.37746429,-7.95078897],[112.37741852,-7.95094585],[112.37747192,-7.95129967],[112.37748718,-7.95140171],[112.37743378,-7.95146275],[112.37728882,-7.95162296],[112.37703705,-7.95182753],[112.37683105,-7.95185709],[112.37671661,-7.95181417],[112.37658691,-7.95184803],[112.37638092,-7.95196915],[112.37624359,-7.9523325],[112.376091,-7.95271158],[112.37604523,-7.95277786],[112.37581635,-7.95281744],[112.37560272,-7.95270061],[112.37542725,-7.95254087],[112.37524414,-7.95237017],[112.3751297,-7.95232725],[112.375,-7.95236111],[112.37479401,-7.95248222],[112.37464905,-7.95286417],[112.37450409,-7.95322466],[112.37433624,-7.95344782],[112.3737793,-7.95368052],[112.37367249,-7.95373821],[112.37363434,-7.95383167],[112.37366486,-7.95395947],[112.37382507,-7.95410299],[112.37419128,-7.95436573],[112.3744278,-7.95486736]
					]
				]
			}
		}
	]
}