{
	"type": "FeatureCollection",
	"features": [
		{
			"type": "Feature",
			"properties": {
				"ISO": "IDN",
				"PROVINSI":"Jawa Timur",
				"KABUPATEN":"Malang",
				"KECAMATAN": "Pagelaran",
				"CODE":	"35.07.33"
			},
			"geometry": {
				"type": "Polygon",
				"coordinates": [
					[
						[112.63998413,-8.23778248],[112.63994598,-8.23785305],[112.63980103,-8.23787022],[112.63944244,-8.23785019],[112.63851166,-8.23779964],[112.63800812,-8.23774433],[112.63790131,-8.23773289],[112.63698578,-8.23756313],[112.63661957,-8.23744869],[112.6364212,-8.2373848],[112.63618469,-8.23738575],[112.63594055,-8.23754978],[112.63594055,-8.23776245],[112.63594818,-8.23792934],[112.63600922,-8.23812199],[112.63631439,-8.23882675],[112.63638306,-8.2389698],[112.6366272,-8.23917675],[112.63686371,-8.23935604],[112.63704681,-8.23960876],[112.63703156,-8.2397213],[112.63700867,-8.23988056],[112.63674927,-8.24008942],[112.63666534,-8.24015427],[112.63629913,-8.24018574],[112.63610077,-8.24019241],[112.63561249,-8.24006748],[112.63524628,-8.23987961],[112.63515472,-8.23983383],[112.63420868,-8.23902321],[112.63379669,-8.23882008],[112.63362885,-8.23882008],[112.63343811,-8.23892021],[112.63316345,-8.23937035],[112.63289642,-8.23989677],[112.63277435,-8.24015141],[112.6325531,-8.24029732],[112.63227081,-8.24031639],[112.63210297,-8.24019051],[112.6318512,-8.23984814],[112.6315918,-8.23937607],[112.63147736,-8.23917961],[112.63124847,-8.23900032],[112.63117218,-8.23901272],[112.63095093,-8.23905468],[112.63072205,-8.23927975],[112.63053894,-8.23952198],[112.63044739,-8.23965454],[112.63021088,-8.23985481],[112.63002777,-8.23984814],[112.62969971,-8.2398386],[112.62944794,-8.23973083],[112.62892151,-8.23940659],[112.62870789,-8.23921013],[112.62863922,-8.23915958],[112.62814331,-8.23908997],[112.62782288,-8.23917961],[112.62762451,-8.23927402],[112.627388,-8.24006748],[112.62733459,-8.24024773],[112.62726593,-8.24044991],[112.62666321,-8.24065304],[112.62657166,-8.2406826],[112.6264801,-8.24067688],[112.62615967,-8.24065685],[112.62587738,-8.24063969],[112.62580872,-8.24055576],[112.6256485,-8.24050713],[112.62509155,-8.24041271],[112.62490845,-8.24033642],[112.62453461,-8.24018383],[112.62440491,-8.24011517],[112.62402344,-8.23991013],[112.62355804,-8.23954296],[112.62322998,-8.23902035],[112.62316132,-8.23894024],[112.62290192,-8.23867989],[112.62247467,-8.2385416],[112.62166595,-8.23834896],[112.62060547,-8.23809338],[112.62039948,-8.23805046],[112.62014771,-8.23801422],[112.61943817,-8.23794651],[112.61790466,-8.23753738],[112.61765289,-8.23738956],[112.61670685,-8.23683548],[112.61663818,-8.23678303],[112.61638641,-8.23642349],[112.61611176,-8.23603344],[112.6158371,-8.23564053],[112.61554718,-8.23556042],[112.6151886,-8.23548031],[112.61509705,-8.23544407],[112.61502075,-8.23541451],[112.61470032,-8.2349205],[112.61431122,-8.23449516],[112.61423492,-8.23441315],[112.61389923,-8.2342062],[112.61379242,-8.23418903],[112.6134491,-8.23418999],[112.61334229,-8.23419094],[112.61303711,-8.23419189],[112.61291504,-8.23416996],[112.61270142,-8.23413372],[112.61262512,-8.23407078],[112.61231232,-8.23396301],[112.61161804,-8.23414898],[112.61129761,-8.2342701],[112.61100006,-8.23431683],[112.61086273,-8.23428249],[112.61062622,-8.23413372],[112.61057281,-8.23383999],[112.6105423,-8.23342037],[112.61034393,-8.23277378],[112.61023712,-8.23258495],[112.61003113,-8.23235035],[112.60982513,-8.23214722],[112.60973358,-8.23206234],[112.60964203,-8.23196983],[112.60915375,-8.23171043],[112.60842896,-8.23169041],[112.60816956,-8.23169899],[112.60758209,-8.23171329],[112.60747528,-8.23172474],[112.60671997,-8.23136616],[112.60622406,-8.2311306],[112.60529327,-8.23098087],[112.60533905,-8.23079872],[112.60526276,-8.23075962],[112.60514832,-8.23027039],[112.60504913,-8.22957993],[112.60494232,-8.2288599],[112.60470581,-8.22846603],[112.60378265,-8.22757912],[112.60368347,-8.22753906],[112.60327148,-8.22749329],[112.60202789,-8.227355],[112.60192108,-8.22706985],[112.60157776,-8.2261591],[112.60149384,-8.22526455],[112.60144043,-8.22471809],[112.60142517,-8.22455215],[112.60131836,-8.22430325],[112.60081482,-8.22311974],[112.60054016,-8.22255039],[112.60051727,-8.22241306],[112.60048676,-8.22226524],[112.59973145,-8.22226715],[112.59929657,-8.2222681],[112.5982666,-8.22227001],[112.59809113,-8.22227001],[112.59790039,-8.22227097],[112.59772491,-8.22227192],[112.59765625,-8.22222233],[112.59740448,-8.22194862],[112.59710693,-8.22162533],[112.59695435,-8.22088242],[112.5969162,-8.22070408],[112.59689331,-8.22058487],[112.59679413,-8.2204628],[112.59673309,-8.22039032],[112.59654999,-8.22016144],[112.5963974,-8.21998119],[112.59626007,-8.21980858],[112.59606934,-8.2195673],[112.59600067,-8.21948147],[112.59588623,-8.21943283],[112.59495544,-8.21904182],[112.59388733,-8.21853733],[112.59122467,-8.21734428],[112.59008026,-8.21674538],[112.58985901,-8.21675873],[112.58944702,-8.2167902],[112.58911133,-8.21655083],[112.58865356,-8.2162199],[112.58849335,-8.21611023],[112.58779144,-8.21578026],[112.58770752,-8.21549988],[112.58757782,-8.21498966],[112.58752441,-8.21488571],[112.58737183,-8.21436024],[112.58714294,-8.21425915],[112.58652496,-8.21398735],[112.58592224,-8.21411991],[112.58563232,-8.21408463],[112.58534241,-8.21404934],[112.58508301,-8.21401787],[112.58345795,-8.21364307],[112.58299255,-8.21317101],[112.58280945,-8.21298027],[112.58216858,-8.21234035],[112.58190918,-8.21212292],[112.58143616,-8.21149254],[112.5797348,-8.21002674],[112.57887268,-8.20965576],[112.57834625,-8.20994473],[112.57802582,-8.21012402],[112.57791138,-8.21015644],[112.57714844,-8.21038151],[112.57704926,-8.21041012],[112.57654572,-8.21016121],[112.57594299,-8.20956898],[112.57515717,-8.20879173],[112.57435608,-8.20800209],[112.57350159,-8.2062149],[112.57334137,-8.20580006],[112.57277679,-8.2043581],[112.5728302,-8.20421219],[112.57232666,-8.20322895],[112.57228088,-8.20313263],[112.57180023,-8.20286369],[112.5716629,-8.20252609],[112.57117462,-8.20224094],[112.57091522,-8.20203781],[112.57038879,-8.2010088],[112.56980896,-8.20083427],[112.5692215,-8.20065784],[112.56890106,-8.20056057],[112.56650543,-8.20042992],[112.56591797,-8.20036411],[112.56523132,-8.2004652],[112.56481171,-8.20039177],[112.56397247,-8.200243],[112.56331635,-8.19971943],[112.56323242,-8.19964886],[112.56285095,-8.19923401],[112.56276703,-8.19929409],[112.56264496,-8.19938087],[112.56246948,-8.19954395],[112.56234741,-8.19944572],[112.56196594,-8.1990366],[112.56185913,-8.19887543],[112.56181335,-8.19878387],[112.56174469,-8.19871902],[112.56169128,-8.19858932],[112.56163788,-8.19850731],[112.56144714,-8.19760609],[112.56137848,-8.19736767],[112.5613327,-8.19722176],[112.56129456,-8.19715881],[112.56108093,-8.19671535],[112.56101227,-8.19652653],[112.56098938,-8.19645309],[112.56097412,-8.19636536],[112.56091309,-8.19626522],[112.56077576,-8.19622707],[112.56058502,-8.19618034],[112.5605011,-8.19618702],[112.55991364,-8.1962862],[112.55969238,-8.1965723],[112.55957794,-8.19691467],[112.55914307,-8.19680882],[112.55912018,-8.19691181],[112.55912018,-8.19805622],[112.55929565,-8.19845486],[112.55912781,-8.19874001],[112.55905151,-8.1987896],[112.55895996,-8.19877148],[112.55889893,-8.19870281],[112.55895233,-8.19857502],[112.55900574,-8.19834042],[112.55895996,-8.19827366],[112.5588913,-8.19822788],[112.55879974,-8.19812679],[112.55873871,-8.1980114],[112.55877686,-8.19787312],[112.55883789,-8.19775295],[112.55880737,-8.19748497],[112.55880737,-8.19731617],[112.55879211,-8.19710159],[112.55878448,-8.19695091],[112.55884552,-8.19670582],[112.558815,-8.19655418],[112.55888367,-8.19639683],[112.5588913,-8.19629288],[112.55866241,-8.19621754],[112.5585556,-8.19624138],[112.55848694,-8.19630623],[112.55839539,-8.19636154],[112.55832672,-8.19642639],[112.55822754,-8.19650078],[112.55806732,-8.19652462],[112.55796814,-8.19651413],[112.55784607,-8.19650173],[112.55789185,-8.19638348],[112.55793762,-8.1963129],[112.55794525,-8.19620228],[112.55780029,-8.19606876],[112.55758667,-8.1957655],[112.55757141,-8.19552612],[112.55750275,-8.19545174],[112.55744934,-8.19539833],[112.55718231,-8.19522667],[112.55709076,-8.19535637],[112.55696869,-8.19544888],[112.55686188,-8.19544983],[112.55673981,-8.19537163],[112.55664825,-8.19533539],[112.55657196,-8.19534969],[112.55654144,-8.19526196],[112.55651093,-8.19518375],[112.55643463,-8.19508362],[112.55635071,-8.19504738],[112.55677032,-8.19417095],[112.55680084,-8.19371986],[112.55680847,-8.19359684],[112.55691528,-8.19341278],[112.55697632,-8.19330502],[112.5568924,-8.19305325],[112.5568924,-8.19294834],[112.55692291,-8.19285297],[112.55696106,-8.19276142],[112.55722046,-8.19220352],[112.55731201,-8.19189358],[112.55727386,-8.19178104],[112.5572052,-8.19174099],[112.55712891,-8.19171524],[112.55705261,-8.19168854],[112.55700684,-8.19161415],[112.55702972,-8.19151688],[112.55714417,-8.1914854],[112.55725861,-8.19142818],[112.55727386,-8.19131279],[112.55725098,-8.19103718],[112.55726624,-8.19086361],[112.55726624,-8.19075012],[112.55709076,-8.19057178],[112.55696869,-8.19045353],[112.55686188,-8.19022179],[112.55683136,-8.19003391],[112.55680084,-8.18986988],[112.55678558,-8.18979454],[112.55674744,-8.18963623],[112.55667114,-8.18951511],[112.55662537,-8.18945122],[112.55619049,-8.18914032],[112.55603027,-8.18902302],[112.55590057,-8.18892956],[112.55583191,-8.18887711],[112.55573273,-8.18876076],[112.55565643,-8.18861008],[112.55553436,-8.1883955],[112.55544281,-8.18834019],[112.55535889,-8.1882906],[112.55519867,-8.18820286],[112.55509949,-8.18808174],[112.55501556,-8.18798065],[112.55461121,-8.18794441],[112.55446625,-8.1879406],[112.55438995,-8.18789577],[112.55434418,-8.18756962],[112.55435181,-8.1873188],[112.55435181,-8.18717194],[112.55450439,-8.18688297],[112.55453491,-8.18674374],[112.55451965,-8.18651772],[112.55449677,-8.18598366],[112.55448151,-8.18584728],[112.55447388,-8.18572426],[112.55434418,-8.18554115],[112.55425262,-8.18520355],[112.55419159,-8.18480968],[112.55413818,-8.18474007],[112.55404663,-8.1846199],[112.55401611,-8.18432903],[112.55397034,-8.18422413],[112.55363464,-8.18408775],[112.55309296,-8.1839056],[112.55280304,-8.18411255],[112.55262756,-8.18424225],[112.55241394,-8.18439484],[112.55228424,-8.18450928],[112.55217743,-8.1846056],[112.55136871,-8.18501186],[112.55129242,-8.18505001],[112.55116272,-8.18491364],[112.55096436,-8.1846962],[112.55091095,-8.18464565],[112.55072021,-8.18455696],[112.55052185,-8.18442059],[112.55045319,-8.18401909],[112.55040741,-8.18365192],[112.55036926,-8.18344116],[112.55032349,-8.18338108],[112.55023956,-8.18331528],[112.55002594,-8.18326092],[112.55008698,-8.18314075],[112.55024719,-8.18310547],[112.55033875,-8.18302631],[112.55062866,-8.18304062],[112.55094147,-8.18303967],[112.55114746,-8.1829834],[112.55135345,-8.18291759],[112.55142975,-8.18273258],[112.55156708,-8.18268013],[112.55163574,-8.18271923],[112.55164337,-8.18286514],[112.55179596,-8.18297958],[112.55210114,-8.18289185],[112.55219269,-8.18231869],[112.55222321,-8.18216133],[112.55230713,-8.18195152],[112.5522995,-8.1818285],[112.55223083,-8.18178368],[112.55226135,-8.18133736],[112.55216217,-8.18133736],[112.55225372,-8.18118954],[112.55233765,-8.18103504],[112.55258179,-8.18061352],[112.55310822,-8.18037605],[112.55383301,-8.1805172],[112.55412292,-8.18102169],[112.55432892,-8.1811676],[112.55582428,-8.18214893],[112.55606079,-8.18211746],[112.55631256,-8.18208504],[112.55657959,-8.1820488],[112.55673981,-8.18200302],[112.55704498,-8.18159485],[112.55712891,-8.18148422],[112.55719757,-8.18138599],[112.55742645,-8.18085003],[112.55747223,-8.18074512],[112.55769348,-8.18012905],[112.5579071,-8.17964745],[112.55793762,-8.17957401],[112.55854797,-8.17922401],[112.55896759,-8.17923832],[112.55916595,-8.17925358],[112.55929565,-8.17926407],[112.56012726,-8.17964554],[112.56049347,-8.17951298],[112.56073761,-8.17937946],[112.56098175,-8.17899132],[112.56092072,-8.17810631],[112.56066132,-8.17745781],[112.56073761,-8.17693901],[112.56074524,-8.17686367],[112.56083679,-8.17659664],[112.56088257,-8.17647552],[112.56128693,-8.17609406],[112.56149292,-8.17589378],[112.5615921,-8.17582226],[112.56168365,-8.17577362],[112.56177521,-8.17572498],[112.56189728,-8.17576885],[112.56254578,-8.17596531],[112.56304932,-8.17581177],[112.56352997,-8.17566586],[112.56403351,-8.17541122],[112.56451416,-8.17520046],[112.56478882,-8.17528439],[112.56494904,-8.17536259],[112.56643677,-8.17592049],[112.56757355,-8.1765976],[112.56790924,-8.17666721],[112.5687027,-8.17682934],[112.56903076,-8.17673969],[112.56917572,-8.17668724],[112.56961823,-8.17652988],[112.56999969,-8.17621422],[112.57015228,-8.17608356],[112.57023621,-8.17569828],[112.57026672,-8.17557526],[112.57028198,-8.17545605],[112.57030487,-8.17532158],[112.5703125,-8.17489052],[112.57036591,-8.17454815],[112.57038879,-8.17441463],[112.57050323,-8.17401218],[112.57061005,-8.17378902],[112.57069397,-8.17370701],[112.57077026,-8.17362499],[112.57086945,-8.17359257],[112.57909393,-8.17229557],[112.58155823,-8.1714859],[112.58197021,-8.17153645],[112.58325958,-8.16448498],[112.58335114,-8.16422939],[112.58467102,-8.16057587],[112.58795166,-8.16139889],[112.58877563,-8.15566349],[112.58892822,-8.15458965],[112.58943939,-8.15458679],[112.58942413,-8.15475273],[112.59000397,-8.15497017],[112.59012604,-8.15488148],[112.59254456,-8.15557384],[112.59391022,-8.15600014],[112.59400177,-8.15618324],[112.59410095,-8.15625572],[112.59572601,-8.15736198],[112.59585571,-8.15728569],[112.59589386,-8.15737247],[112.59682465,-8.15849495],[112.59963989,-8.16043091],[112.60185242,-8.16159439],[112.60258484,-8.16197681],[112.60312653,-8.16226101],[112.60518646,-8.16318512],[112.60543823,-8.16330051],[112.6086731,-8.16474819],[112.60940552,-8.16507626],[112.6096344,-8.16518211],[112.6105423,-8.16559887],[112.61118317,-8.16589355],[112.61196899,-8.16623878],[112.61154938,-8.16727448],[112.61149597,-8.16743279],[112.61138916,-8.16762447],[112.61057281,-8.16910744],[112.61138153,-8.16948509],[112.61138916,-8.16962433],[112.61224365,-8.17031479],[112.61214447,-8.1707201],[112.61206818,-8.17096043],[112.61198425,-8.17108154],[112.61169434,-8.17119122],[112.61160278,-8.17121124],[112.61133575,-8.17177486],[112.61123657,-8.17181301],[112.6111145,-8.17179871],[112.61069489,-8.17289734],[112.61019897,-8.17419147],[112.60983276,-8.17416859],[112.60953522,-8.17467499],[112.60945129,-8.1748085],[112.61142731,-8.17555141],[112.61365509,-8.17659664],[112.61384583,-8.17668247],[112.61377716,-8.17686749],[112.61413574,-8.17701435],[112.61471558,-8.17720699],[112.61483002,-8.1771698],[112.6149826,-8.17721748],[112.61524963,-8.17730141],[112.6158905,-8.17750359],[112.61611176,-8.17757511],[112.61666107,-8.17774868],[112.61777496,-8.17812157],[112.61875153,-8.17835617],[112.61950684,-8.1786108],[112.62052917,-8.17895317],[112.62049866,-8.17908287],[112.62156677,-8.17943954],[112.62198639,-8.17956924],[112.62259674,-8.17976665],[112.62297821,-8.17988968],[112.62325287,-8.17921257],[112.62486267,-8.17980099],[112.62511444,-8.17985344],[112.62593079,-8.1800251],[112.62586212,-8.18022823],[112.6257782,-8.18047714],[112.62628937,-8.18068981],[112.62770081,-8.1812706],[112.62807465,-8.18142509],[112.62836456,-8.18154716],[112.62832642,-8.18181896],[112.62824249,-8.18203068],[112.62949371,-8.1825943],[112.62945557,-8.18270111],[112.62981415,-8.18284512],[112.63067627,-8.18319416],[112.63088989,-8.18274212],[112.6312027,-8.18275547],[112.63174438,-8.18279839],[112.6319046,-8.1829195],[112.63202667,-8.18301105],[112.63214111,-8.18284893],[112.63220215,-8.18276119],[112.63289642,-8.18303394],[112.6335907,-8.18330669],[112.63378906,-8.18307209],[112.63404083,-8.18277264],[112.63459015,-8.18296146],[112.63490295,-8.18307018],[112.63516998,-8.18328667],[112.63546753,-8.1834898],[112.63618469,-8.18403053],[112.63645935,-8.1842165],[112.63639832,-8.18434906],[112.63623047,-8.18471622],[112.63687134,-8.18507576],[112.6371994,-8.18525982],[112.63735199,-8.18536758],[112.63735962,-8.18553162],[112.63738251,-8.18599606],[112.63745117,-8.18623352],[112.63739777,-8.18631554],[112.63723755,-8.18639946],[112.63716125,-8.18651676],[112.63725281,-8.18666267],[112.63732147,-8.18687439],[112.63724518,-8.18700504],[112.63718414,-8.18710327],[112.63693237,-8.1872406],[112.63671875,-8.18725967],[112.63664246,-8.18736553],[112.63644409,-8.18750191],[112.6362915,-8.18776321],[112.63629913,-8.18787479],[112.63631439,-8.1880579],[112.63626099,-8.18816853],[112.63609314,-8.18819141],[112.63594055,-8.18816662],[112.63550568,-8.18842506],[112.63530731,-8.18856144],[112.63502502,-8.18877792],[112.63471985,-8.18876553],[112.6346283,-8.18887997],[112.63438416,-8.18901348],[112.63417816,-8.18914795],[112.63398743,-8.1892786],[112.63395691,-8.18934822],[112.63393402,-8.18945122],[112.63394928,-8.18957615],[112.63394928,-8.18969154],[112.63394928,-8.18983746],[112.63394165,-8.19004822],[112.63388824,-8.1901598],[112.63382721,-8.19028282],[112.63373566,-8.19034386],[112.63362885,-8.19037437],[112.63344574,-8.19035721],[112.6333313,-8.19031715],[112.63309479,-8.19018745],[112.63293457,-8.19017982],[112.63282013,-8.19020462],[112.63272095,-8.19022942],[112.63257599,-8.19043827],[112.63248444,-8.19058609],[112.63240814,-8.19069767],[112.63230133,-8.19075108],[112.63210297,-8.19079685],[112.63201141,-8.19085121],[112.63194275,-8.19112206],[112.63191223,-8.19123459],[112.63185883,-8.19129753],[112.63170624,-8.19145679],[112.63166046,-8.19169998],[112.63163757,-8.19197178],[112.63153076,-8.1920929],[112.63135529,-8.19220924],[112.63124084,-8.19219971],[112.63098145,-8.19217777],[112.63085175,-8.19219112],[112.63065338,-8.19238758],[112.63062286,-8.19253159],[112.63056946,-8.19267464],[112.63045502,-8.19273186],[112.63027954,-8.19271564],[112.63018036,-8.1927557],[112.63010406,-8.19278145],[112.62995911,-8.19284153],[112.62982178,-8.19289303],[112.62969971,-8.19293785],[112.62928772,-8.19306374],[112.6288147,-8.19317818],[112.62863922,-8.1932373],[112.62802887,-8.19345093],[112.62776947,-8.19354153],[112.62770844,-8.19359589],[112.627388,-8.19386101],[112.62741089,-8.19412994],[112.62735748,-8.19443703],[112.62700653,-8.19449043],[112.62667847,-8.19472027],[112.62673187,-8.1948185],[112.62677765,-8.19490337],[112.62685394,-8.19505978],[112.62689972,-8.19513512],[112.62721252,-8.19521618],[112.627388,-8.19527721],[112.62937164,-8.19694614],[112.62917328,-8.19732571],[112.62885284,-8.19824314],[112.62874603,-8.19851112],[112.63037872,-8.19943237],[112.63136292,-8.1999054],[112.63155365,-8.19998741],[112.6316452,-8.2000246],[112.63204193,-8.20025921],[112.63222504,-8.20036793],[112.63314819,-8.2009058],[112.63327026,-8.20097637],[112.63375854,-8.20126534],[112.63410187,-8.20145512],[112.63451385,-8.20164585],[112.63486481,-8.2018261],[112.63543701,-8.20209599],[112.63567352,-8.20219231],[112.6379776,-8.20318604],[112.63806152,-8.20322132],[112.63832855,-8.20333385],[112.63851166,-8.20340347],[112.6386795,-8.20346832],[112.63912964,-8.20361805],[112.63926697,-8.20366383],[112.63970947,-8.2038269],[112.6401825,-8.20399284],[112.64008331,-8.20449924],[112.64033508,-8.20458508],[112.64043427,-8.20459747],[112.64063263,-8.2045126],[112.64081573,-8.20470619],[112.64096832,-8.20454407],[112.64122009,-8.20427704],[112.6412735,-8.20421219],[112.6414566,-8.20380402],[112.64176178,-8.20363522],[112.64199066,-8.20351028],[112.64237976,-8.20347118],[112.6425705,-8.20355988],[112.64286041,-8.20298195],[112.64338684,-8.20276833],[112.64358521,-8.20275497],[112.64378357,-8.20296955],[112.64387512,-8.20291996],[112.64437866,-8.20285606],[112.64445496,-8.20287991],[112.64457703,-8.2028904],[112.64459991,-8.20300007],[112.64472198,-8.20300961],[112.64481354,-8.20300007],[112.6448822,-8.20302296],[112.64533997,-8.20317554],[112.64572144,-8.20331669],[112.64620972,-8.20350647],[112.64637756,-8.20359421],[112.6465683,-8.20370102],[112.64707184,-8.20383739],[112.64735413,-8.20393753],[112.64795685,-8.20414829],[112.64831543,-8.20430374],[112.64859009,-8.20441628],[112.64842987,-8.20480537],[112.64823151,-8.20519829],[112.64884949,-8.20550346],[112.64948273,-8.20589542],[112.64980316,-8.20609093],[112.65006256,-8.2062521],[112.64983368,-8.20653725],[112.64968109,-8.20672894],[112.64945984,-8.20700932],[112.64942169,-8.20708847],[112.64935303,-8.20722198],[112.64894867,-8.20787525],[112.6488266,-8.20807457],[112.64762115,-8.20997047],[112.64682007,-8.21123981],[112.64485931,-8.21431828],[112.64567566,-8.21509552],[112.64656067,-8.21584225],[112.64730835,-8.21650887],[112.64765167,-8.21681786],[112.64648438,-8.22011375],[112.64585876,-8.22180271],[112.64576721,-8.22203827],[112.64560699,-8.22203827],[112.64556122,-8.22212982],[112.64549255,-8.22229099],[112.64541626,-8.22246838],[112.64533234,-8.22267532],[112.64485931,-8.2231493],[112.64447021,-8.22354507],[112.64432526,-8.22384071],[112.64382172,-8.22505951],[112.64357758,-8.2255106],[112.64330292,-8.22599697],[112.64280701,-8.22696972],[112.64237213,-8.2278204],[112.64170074,-8.22913361],[112.64163971,-8.22924519],[112.64108276,-8.23032856],[112.64104462,-8.23042488],[112.64059448,-8.23140717],[112.64051819,-8.23156929],[112.64001465,-8.23267269],[112.63987732,-8.23298073],[112.63932037,-8.23424149],[112.64016724,-8.23470879],[112.64078522,-8.2347765],[112.64057922,-8.23519325],[112.64030457,-8.23637486],[112.63998413,-8.23778248]
					]
				]
			}
		}
	]
}