{
	"type": "FeatureCollection",
	"features": [
		{
			"type": "Feature",
			"properties": {
				"ISO": "IDN",
				"PROVINSI":"Jawa Timur",
				"KABUPATEN":"Malang",
				"KECAMATAN": "Poncokusumo",
				"CODE":	"35.07.07"
			},
			"geometry": {
				"type": "Polygon",
				"coordinates": [
					[
						[112.80749512,-8.10731411],[112.80725861,-8.10754013],[112.80702209,-8.10781956],[112.80684662,-8.10785961],[112.8067627,-8.10783005],[112.80657959,-8.10766029],[112.80641174,-8.10758018],[112.80628967,-8.10762978],[112.80612183,-8.10776997],[112.80605316,-8.10795021],[112.80596161,-8.10809994],[112.80574036,-8.10820866],[112.80525208,-8.10844994],[112.80500793,-8.10840034],[112.80476379,-8.10838032],[112.80461121,-8.10844994],[112.80429077,-8.10865021],[112.80400848,-8.10863018],[112.80352783,-8.10853958],[112.80294037,-8.10844994],[112.80267334,-8.10853004],[112.80240631,-8.10867023],[112.80213928,-8.10890961],[112.80151367,-8.10953045],[112.80139923,-8.10949993],[112.80120087,-8.10937023],[112.80108643,-8.10923958],[112.80075073,-8.10890961],[112.80055237,-8.10886002],[112.80034637,-8.10884953],[112.80020905,-8.10896015],[112.80014801,-8.10910988],[112.80007935,-8.1094799],[112.80003357,-8.10970974],[112.79998016,-8.10994148],[112.80005646,-8.11013222],[112.80008698,-8.11021042],[112.80020905,-8.11046028],[112.8001709,-8.11058998],[112.80007172,-8.11067009],[112.79956818,-8.11095905],[112.79933929,-8.11108971],[112.79914093,-8.11106014],[112.7989502,-8.11095047],[112.79847717,-8.11069965],[112.79837036,-8.11071014],[112.79804993,-8.11079979],[112.79750824,-8.11081028],[112.79724884,-8.11075974],[112.79708862,-8.11077976],[112.79705811,-8.11118031],[112.79701233,-8.11155033],[112.79692841,-8.11174965],[112.79682159,-8.11186028],[112.79667664,-8.1118803],[112.7960434,-8.11198044],[112.79531097,-8.11236954],[112.7947998,-8.11258984],[112.79483032,-8.11297035],[112.79476929,-8.11308956],[112.79464722,-8.11318016],[112.79437256,-8.11322021],[112.79421997,-8.11318016],[112.79373932,-8.11310005],[112.7934494,-8.11310959],[112.79312897,-8.11306953],[112.79292297,-8.11303043],[112.79283142,-8.11308002],[112.79244232,-8.11338043],[112.79232788,-8.11355019],[112.79229736,-8.11375046],[112.79226685,-8.11408997],[112.79219055,-8.11413002],[112.79203033,-8.11411953],[112.79165649,-8.11404037],[112.79118347,-8.11398983],[112.7908783,-8.11402988],[112.79073334,-8.11413002],[112.79062653,-8.11429024],[112.79055023,-8.11452007],[112.79051208,-8.11474705],[112.79057312,-8.11495018],[112.79071045,-8.11538029],[112.79064178,-8.11550999],[112.7905426,-8.11555958],[112.79035187,-8.11557961],[112.78994751,-8.11553001],[112.78969574,-8.11543274],[112.78955841,-8.11532593],[112.78945923,-8.11524296],[112.78939819,-8.11519909],[112.78927612,-8.11504269],[112.78912354,-8.11492252],[112.78892517,-8.11488914],[112.78871155,-8.11504459],[112.7884903,-8.11525154],[112.78837585,-8.11545658],[112.78814697,-8.11577129],[112.78794861,-8.11602592],[112.78779602,-8.11621952],[112.78769684,-8.11640072],[112.78754425,-8.11645699],[112.78746033,-8.11643219],[112.78730011,-8.11636639],[112.78704071,-8.1161623],[112.7868576,-8.11593437],[112.78679657,-8.11566925],[112.78660583,-8.11554909],[112.78642273,-8.11547756],[112.78625488,-8.11547852],[112.78610992,-8.11561108],[112.78594208,-8.11568451],[112.78582001,-8.11581802],[112.78561401,-8.1157589],[112.78540802,-8.11577702],[112.78520966,-8.11575699],[112.78509521,-8.11576653],[112.78487396,-8.11588287],[112.784729,-8.11595535],[112.78469086,-8.1160841],[112.78460693,-8.11636162],[112.7846756,-8.11658287],[112.78475952,-8.1168623],[112.78472137,-8.11709023],[112.78450775,-8.11713886],[112.7842865,-8.1171999],[112.78422546,-8.11738205],[112.78420258,-8.11750221],[112.78411102,-8.11767197],[112.78397369,-8.11787701],[112.78388977,-8.11799908],[112.78361511,-8.11790276],[112.78356171,-8.11783123],[112.78346252,-8.11769867],[112.78327942,-8.11763287],[112.78310394,-8.11757088],[112.78290558,-8.11757183],[112.78271484,-8.11757278],[112.782547,-8.11757374],[112.78239441,-8.11755657],[112.78230286,-8.11754704],[112.78213501,-8.11751175],[112.78190613,-8.11753654],[112.78174591,-8.11758518],[112.78156281,-8.11762238],[112.78137207,-8.11775589],[112.78147888,-8.11792469],[112.78161621,-8.11798477],[112.78170776,-8.11810493],[112.78174591,-8.1182127],[112.78172302,-8.11832142],[112.78170013,-8.11844254],[112.78148651,-8.11844349],[112.78124237,-8.11839962],[112.78089905,-8.11826038],[112.78078461,-8.11816597],[112.78076172,-8.11809731],[112.78072357,-8.1180191],[112.78043365,-8.11727428],[112.78018188,-8.11725044],[112.7795639,-8.11719131],[112.77946472,-8.1170454],[112.77932739,-8.11684418],[112.77921295,-8.11667156],[112.77919006,-8.11649323],[112.77912903,-8.11594868],[112.77907562,-8.11554337],[112.77902985,-8.11510944],[112.77797699,-8.1134634],[112.77770996,-8.11224937],[112.77729797,-8.11192131],[112.77706909,-8.11181259],[112.77645874,-8.111413],[112.77632904,-8.11143112],[112.77579498,-8.11143303],[112.77571106,-8.11141682],[112.77547455,-8.11159515],[112.77522278,-8.11170769],[112.7748642,-8.11185265],[112.77437592,-8.11197186],[112.77383423,-8.11178398],[112.77375031,-8.11176586],[112.77359009,-8.11176682],[112.77331543,-8.11190224],[112.77283478,-8.11156559],[112.7718811,-8.1115694],[112.77133179,-8.11170864],[112.7709198,-8.11157322],[112.77060699,-8.11103058],[112.77050018,-8.11105347],[112.77039337,-8.11107445],[112.77026367,-8.11107922],[112.77017212,-8.11110592],[112.76998138,-8.11108685],[112.7699585,-8.11089611],[112.76927185,-8.11055851],[112.76891327,-8.11069775],[112.76838684,-8.11090279],[112.76830292,-8.11090279],[112.76742554,-8.1109066],[112.76715088,-8.11015797],[112.76725769,-8.1097908],[112.76735687,-8.10947514],[112.76686859,-8.10879612],[112.76669312,-8.10912228],[112.76643372,-8.10897255],[112.76643372,-8.1082325],[112.76677704,-8.10788822],[112.76700592,-8.10777283],[112.76715851,-8.10726452],[112.76724243,-8.10698986],[112.76727295,-8.10688496],[112.76665497,-8.10612583],[112.76655579,-8.10599995],[112.76590729,-8.10566807],[112.76583862,-8.10556602],[112.76577759,-8.1054697],[112.76541138,-8.10495281],[112.76468658,-8.10479546],[112.76394653,-8.1047163],[112.76390839,-8.10464954],[112.76390839,-8.10451317],[112.76293945,-8.10458279],[112.76246643,-8.10513306],[112.76235962,-8.1051836],[112.76159668,-8.1055336],[112.76049042,-8.10555172],[112.7594223,-8.10588455],[112.75868225,-8.10646248],[112.75862122,-8.1065712],[112.75844574,-8.10659218],[112.75793457,-8.10665226],[112.75731659,-8.10672569],[112.75694275,-8.10683918],[112.75666809,-8.10706615],[112.7564621,-8.1072731],[112.75646973,-8.10768223],[112.75655365,-8.10786629],[112.75639343,-8.10810184],[112.75630951,-8.10797501],[112.75604248,-8.10757637],[112.75593567,-8.10743237],[112.7557373,-8.10722351],[112.75553131,-8.10714054],[112.75540924,-8.10698414],[112.75518036,-8.10681629],[112.75498199,-8.10679245],[112.754776,-8.10687828],[112.75468445,-8.1068716],[112.75461578,-8.10673523],[112.75448608,-8.10670757],[112.75456238,-8.10661602],[112.75457764,-8.10654068],[112.75447845,-8.10639477],[112.75435638,-8.10616398],[112.75428009,-8.1061039],[112.75392914,-8.1059885],[112.75365448,-8.10612583],[112.75344086,-8.10543537],[112.75337982,-8.10517216],[112.75364685,-8.10489845],[112.7539444,-8.10478687],[112.75405884,-8.10474396],[112.75419617,-8.1045742],[112.75419617,-8.10445309],[112.75419617,-8.10434151],[112.75419617,-8.10421467],[112.75439453,-8.10421181],[112.75453949,-8.10411549],[112.75473022,-8.10396004],[112.75486755,-8.10387516],[112.75501251,-8.10373306],[112.75514984,-8.10339165],[112.75514984,-8.10325527],[112.75541687,-8.10291386],[112.75559235,-8.10279751],[112.75569153,-8.10270023],[112.75592041,-8.10251045],[112.75614166,-8.10229015],[112.75643921,-8.1021204],[112.75662231,-8.10198021],[112.75672913,-8.10186005],[112.75680542,-8.10178089],[112.75698853,-8.10157871],[112.757164,-8.10138893],[112.75727844,-8.10118294],[112.75732422,-8.10099602],[112.75752258,-8.10091782],[112.75801086,-8.10072041],[112.75759888,-8.10004044],[112.75771332,-8.09988689],[112.7578125,-8.09949207],[112.75784302,-8.09914207],[112.75784302,-8.09891605],[112.75765991,-8.0987072],[112.75745392,-8.0984726],[112.75725555,-8.09816456],[112.7571106,-8.097929],[112.7571106,-8.09780598],[112.7571106,-8.09763622],[112.75710297,-8.09712696],[112.7570343,-8.09709358],[112.75636292,-8.0969162],[112.75617218,-8.09686661],[112.75608063,-8.09684277],[112.75604248,-8.09665871],[112.75601959,-8.09655762],[112.75595856,-8.09624672],[112.755867,-8.09582043],[112.75550842,-8.09572411],[112.75511169,-8.0956192],[112.75511169,-8.09553337],[112.75511169,-8.09534645],[112.75498199,-8.09512329],[112.75522614,-8.09485722],[112.75514221,-8.09474277],[112.75497437,-8.09452915],[112.7547226,-8.09438705],[112.75449371,-8.09425831],[112.75387573,-8.09428501],[112.75387573,-8.09412479],[112.75366974,-8.09405804],[112.75377655,-8.09349346],[112.75389862,-8.09283829],[112.75388336,-8.09261227],[112.75376892,-8.09261036],[112.75370026,-8.09263229],[112.75361633,-8.09264851],[112.75351715,-8.09266758],[112.75333405,-8.09265041],[112.75321198,-8.09258366],[112.75309753,-8.09255028],[112.75297546,-8.09248638],[112.75286102,-8.09241772],[112.75270844,-8.09249306],[112.75266266,-8.09256458],[112.75239563,-8.09253788],[112.75211334,-8.09251022],[112.75122833,-8.09251022],[112.75095367,-8.09255981],[112.75055695,-8.09259987],[112.75022125,-8.0926199],[112.74997711,-8.09257984],[112.74983978,-8.09252167],[112.74963379,-8.09247971],[112.74947357,-8.0924387],[112.7493515,-8.0924387],[112.7492218,-8.0923605],[112.74895477,-8.09219837],[112.74895477,-8.09210491],[112.74889374,-8.09199238],[112.74875641,-8.09197044],[112.74855804,-8.09183979],[112.74842834,-8.09177971],[112.74796295,-8.09154987],[112.74756622,-8.09140015],[112.74736023,-8.09132957],[112.74713135,-8.09127045],[112.74694061,-8.09119987],[112.74673462,-8.09116459],[112.74649811,-8.09110641],[112.74627686,-8.09106541],[112.74607086,-8.09103394],[112.74569702,-8.09099388],[112.74532318,-8.09099197],[112.74515533,-8.09096718],[112.74502563,-8.09095192],[112.74481201,-8.09090519],[112.74442291,-8.0908165],[112.74433899,-8.09079552],[112.74420166,-8.09075928],[112.74402618,-8.09071541],[112.74394226,-8.09069157],[112.74381256,-8.09065723],[112.74369812,-8.09062958],[112.74357605,-8.09059715],[112.74326324,-8.09055138],[112.74303436,-8.09051228],[112.74295807,-8.09049702],[112.74276733,-8.09029865],[112.74279022,-8.09021568],[112.7427063,-8.09007454],[112.74263,-8.089921],[112.7425766,-8.0897665],[112.74255371,-8.08967686],[112.74285126,-8.08918476],[112.74290466,-8.08906937],[112.74294281,-8.08899593],[112.74303436,-8.08878613],[112.74308777,-8.08864784],[112.74319458,-8.08846092],[112.74327087,-8.08821106],[112.74331665,-8.08804131],[112.7432785,-8.08790016],[112.74311829,-8.08776951],[112.74294281,-8.08766174],[112.74287415,-8.08762264],[112.74263763,-8.08748817],[112.74237061,-8.0873518],[112.74221802,-8.08728886],[112.74213409,-8.08725357],[112.74201965,-8.08721352],[112.74192047,-8.0871973],[112.74183655,-8.08715248],[112.74177551,-8.08701229],[112.74178314,-8.08690071],[112.74180603,-8.08683109],[112.74188995,-8.08680058],[112.74197388,-8.08679867],[112.74198151,-8.08669949],[112.74206543,-8.0866766],[112.74214935,-8.0865097],[112.74217987,-8.08639336],[112.74223328,-8.0861311],[112.7420578,-8.08603954],[112.74198914,-8.08600044],[112.74188232,-8.08592987],[112.74172974,-8.08583355],[112.74162292,-8.08563995],[112.74157715,-8.08530998],[112.74154663,-8.08509541],[112.74143982,-8.08429146],[112.74054718,-8.08393764],[112.7401123,-8.08376408],[112.73974609,-8.08361816],[112.73865509,-8.08318424],[112.73852539,-8.08313179],[112.73833466,-8.08263969],[112.73828125,-8.08219624],[112.73827362,-8.08208561],[112.73832703,-8.08153725],[112.7384491,-8.08004856],[112.73706818,-8.07944107],[112.73567963,-8.07882977],[112.7354126,-8.07879066],[112.73475647,-8.0787096],[112.73395538,-8.07861137],[112.73308563,-8.07848835],[112.73306274,-8.07840633],[112.73277283,-8.07832336],[112.73149872,-8.07795143],[112.7307663,-8.07780457],[112.73001862,-8.07755184],[112.73001099,-8.07745075],[112.73003387,-8.07729912],[112.73003387,-8.07715034],[112.7300415,-8.07662582],[112.73002625,-8.07620621],[112.72996521,-8.07601452],[112.72998047,-8.0757122],[112.73000336,-8.07531166],[112.73019409,-8.07535934],[112.73036957,-8.07535267],[112.7303772,-8.07527256],[112.73041534,-8.07489586],[112.73042297,-8.07479],[112.73042297,-8.07439518],[112.73047638,-8.07417583],[112.73049164,-8.07379246],[112.73049927,-8.07342148],[112.73068237,-8.07274246],[112.73074341,-8.07231045],[112.73101807,-8.07220078],[112.73103333,-8.07201958],[112.73100281,-8.07157516],[112.73111725,-8.07105732],[112.73116302,-8.07061195],[112.73101044,-8.07054615],[112.73078918,-8.07045841],[112.7305069,-8.070364],[112.73042297,-8.07033825],[112.73014069,-8.0703392],[112.72980499,-8.07034111],[112.72982788,-8.07021236],[112.72985077,-8.07008362],[112.72966766,-8.07004547],[112.72954559,-8.07000828],[112.72929382,-8.06997299],[112.72921753,-8.06996059],[112.72912598,-8.06990528],[112.72899628,-8.06981087],[112.72887421,-8.06978989],[112.72918701,-8.06904793],[112.72899628,-8.06892586],[112.72905731,-8.06824684],[112.72911072,-8.06786156],[112.72891998,-8.06784439],[112.72868347,-8.0677557],[112.7286911,-8.06768036],[112.72874451,-8.06719875],[112.72880554,-8.06664467],[112.72936249,-8.06664181],[112.72954559,-8.0661478],[112.72953796,-8.06593513],[112.72953796,-8.06571198],[112.72953796,-8.06542778],[112.72945404,-8.06540871],[112.72920227,-8.06540966],[112.72873688,-8.06541157],[112.72879028,-8.06430149],[112.72879791,-8.06422615],[112.72890472,-8.06404018],[112.72895813,-8.06398678],[112.72891235,-8.06362247],[112.72850037,-8.06343842],[112.72823334,-8.06331635],[112.72819519,-8.06324482],[112.72810364,-8.0630703],[112.72822571,-8.06270027],[112.72821808,-8.0624733],[112.72820282,-8.06210041],[112.72815704,-8.06122017],[112.72827911,-8.0610342],[112.72831726,-8.06068134],[112.72833252,-8.06048107],[112.72829437,-8.06039429],[112.7279129,-8.06022644],[112.72766113,-8.060112],[112.72719574,-8.06011391],[112.72704315,-8.06011486],[112.72673035,-8.05999279],[112.72634888,-8.06002331],[112.7259903,-8.06007481],[112.72568512,-8.06002808],[112.72531128,-8.06002903],[112.72499847,-8.06006145],[112.72488403,-8.06006241],[112.72453308,-8.06006336],[112.72438049,-8.0600071],[112.72428131,-8.06006432],[112.72406769,-8.06006527],[112.72393799,-8.06006432],[112.72380829,-8.06004333],[112.72363281,-8.06006718],[112.72349548,-8.0600872],[112.72337341,-8.06015491],[112.72318268,-8.06025887],[112.72305298,-8.06032944],[112.7229538,-8.06038761],[112.72275543,-8.06054401],[112.72247314,-8.06064796],[112.72221375,-8.0607233],[112.72190094,-8.060812],[112.7217865,-8.06081772],[112.72148895,-8.0608902],[112.72107697,-8.06100559],[112.72105408,-8.06062317],[112.72103882,-8.06040096],[112.72097778,-8.06026077],[112.72088623,-8.06016922],[112.7206955,-8.06000614],[112.72070313,-8.05982971],[112.72064209,-8.05967426],[112.72067261,-8.05959797],[112.72074127,-8.05940437],[112.72072601,-8.05929089],[112.72081757,-8.05910587],[112.72088623,-8.05899429],[112.72093964,-8.05890656],[112.72096252,-8.05882835],[112.72100067,-8.05869293],[112.72103119,-8.05860424],[112.72099304,-8.05848122],[112.72084045,-8.05751038],[112.72081757,-8.05716324],[112.72081757,-8.05668449],[112.72077179,-8.05648327],[112.72007751,-8.05634403],[112.71977234,-8.0563221],[112.71970367,-8.05629253],[112.7196579,-8.05594158],[112.71967316,-8.0557642],[112.71960449,-8.05538177],[112.71955109,-8.05511951],[112.7195282,-8.05494213],[112.71949768,-8.05461597],[112.71946716,-8.05446911],[112.71945953,-8.05439281],[112.71946716,-8.05416298],[112.7194519,-8.05395031],[112.7195282,-8.05373669],[112.71956635,-8.05359077],[112.71994019,-8.05286217],[112.72006226,-8.05251503],[112.72016907,-8.0523262],[112.71969604,-8.0520792],[112.71902466,-8.05174828],[112.71881104,-8.05167675],[112.71855927,-8.0514698],[112.71813202,-8.05138397],[112.7173996,-8.05123425],[112.71697235,-8.05104828],[112.71618652,-8.05078411],[112.71612549,-8.05073071],[112.7159729,-8.05059719],[112.71600342,-8.05041599],[112.71604156,-8.05016232],[112.71611786,-8.0495615],[112.71601868,-8.04938412],[112.71583557,-8.04921436],[112.7154541,-8.0488863],[112.71512604,-8.04860783],[112.71498108,-8.04849529],[112.71469116,-8.04825497],[112.71453857,-8.04816532],[112.71421814,-8.04803467],[112.7140274,-8.04778671],[112.71392059,-8.04769135],[112.71378326,-8.04760647],[112.71369934,-8.04755688],[112.71205139,-8.04631042],[112.71105194,-8.04555416],[112.71088409,-8.04541779],[112.71069336,-8.04526329],[112.70943451,-8.04424381],[112.70913696,-8.04400158],[112.70903778,-8.04392433],[112.70886993,-8.04384136],[112.70862579,-8.04362965],[112.70825195,-8.04361057],[112.70800781,-8.04339218],[112.70787811,-8.04328156],[112.70733643,-8.04270458],[112.70679474,-8.04231358],[112.70652771,-8.04210758],[112.7062149,-8.04190159],[112.70590973,-8.04163933],[112.70562744,-8.04144859],[112.70535278,-8.04121685],[112.70467377,-8.04065037],[112.70459747,-8.04061985],[112.70426178,-8.04037571],[112.70385742,-8.04004383],[112.70379639,-8.03999233],[112.70365906,-8.03987789],[112.70378113,-8.03928947],[112.70385742,-8.03901482],[112.70392609,-8.03889561],[112.70422363,-8.03784943],[112.70433044,-8.03730679],[112.70437622,-8.03711891],[112.70444489,-8.03707218],[112.70463562,-8.03694248],[112.7046814,-8.03688145],[112.70573425,-8.03637409],[112.70593262,-8.03628063],[112.70626068,-8.03610706],[112.7063446,-8.03602409],[112.70645905,-8.03594112],[112.70651245,-8.03586102],[112.70668793,-8.03517151],[112.70671844,-8.03504753],[112.70677948,-8.03478718],[112.70681,-8.0346632],[112.70684052,-8.03454685],[112.70729828,-8.03421879],[112.70748138,-8.03408527],[112.70822144,-8.03426552],[112.70830536,-8.03417683],[112.70840454,-8.03408146],[112.70848083,-8.0338459],[112.70854187,-8.03364944],[112.70836639,-8.03356743],[112.70819092,-8.03351021],[112.70811462,-8.03353214],[112.7080307,-8.03353214],[112.70790863,-8.03335285],[112.7078476,-8.03325939],[112.70766449,-8.03298855],[112.7078476,-8.03290558],[112.70800781,-8.03273964],[112.70817566,-8.0325737],[112.70819855,-8.03249264],[112.70824432,-8.03237438],[112.70825958,-8.0322752],[112.70815277,-8.03221321],[112.70803833,-8.03214073],[112.70790863,-8.0320673],[112.70778656,-8.03197289],[112.70793152,-8.03197193],[112.70806885,-8.03189278],[112.70816803,-8.03184509],[112.70827484,-8.03177071],[112.70832825,-8.0317049],[112.70845032,-8.03157902],[112.70851135,-8.03151417],[112.70857239,-8.03144932],[112.70862579,-8.03139782],[112.70867157,-8.03132629],[112.70939636,-8.03108025],[112.70955658,-8.03100395],[112.70964813,-8.03096008],[112.71002197,-8.03116131],[112.71012115,-8.03118515],[112.71022797,-8.03119087],[112.71034241,-8.03116608],[112.71039581,-8.03111267],[112.71051025,-8.03107738],[112.71063232,-8.03112698],[112.71070099,-8.03109264],[112.71077728,-8.03111076],[112.71089172,-8.03110027],[112.71102142,-8.03109932],[112.71112061,-8.03110886],[112.71125793,-8.03113842],[112.71134186,-8.03113651],[112.71141815,-8.03114414],[112.71149445,-8.03115177],[112.71157837,-8.03119564],[112.71168518,-8.03116417],[112.71179199,-8.03119087],[112.71185303,-8.03123188],[112.71191406,-8.03130531],[112.71205139,-8.03136349],[112.71212769,-8.03139687],[112.71227264,-8.03142643],[112.71235657,-8.03143692],[112.71247864,-8.03151894],[112.71257782,-8.03155518],[112.71266937,-8.03157806],[112.71282959,-8.03159809],[112.71289825,-8.03147888],[112.71298218,-8.03144836],[112.71310425,-8.03143692],[112.71329498,-8.03139877],[112.71339417,-8.03137112],[112.71352386,-8.03131008],[112.71357727,-8.03120995],[112.71363831,-8.03116703],[112.71376801,-8.03108883],[112.71382904,-8.03103638],[112.71394348,-8.03096104],[112.71407318,-8.03091621],[112.71485901,-8.03081608],[112.71538544,-8.03074741],[112.71553802,-8.03082275],[112.71564484,-8.0308733],[112.71575165,-8.03089046],[112.71587372,-8.03093624],[112.71598816,-8.03098679],[112.71611023,-8.03102016],[112.71627045,-8.03108406],[112.7164917,-8.03098106],[112.71661377,-8.03103352],[112.7168045,-8.03111649],[112.71708679,-8.03119278],[112.71729279,-8.03135681],[112.71746063,-8.03143406],[112.71756744,-8.03137016],[112.71762085,-8.03130817],[112.717659,-8.03122139],[112.7177124,-8.03112221],[112.71782684,-8.03100395],[112.71790314,-8.03094578],[112.71798706,-8.03084183],[112.7181015,-8.03078747],[112.71820068,-8.03075314],[112.71833801,-8.03070736],[112.71844482,-8.0306778],[112.71852112,-8.03069496],[112.71856689,-8.03078461],[112.71885681,-8.03064346],[112.71898651,-8.03072262],[112.71891785,-8.03079605],[112.71948242,-8.03120518],[112.71976471,-8.03112316],[112.71994781,-8.03106976],[112.72014618,-8.03101254],[112.72028351,-8.03097153],[112.72040558,-8.03093624],[112.72064972,-8.03086567],[112.72084045,-8.0308094],[112.72115326,-8.02981949],[112.72120667,-8.0296545],[112.72123718,-8.02954292],[112.72120667,-8.02945423],[112.72098541,-8.0293169],[112.72086334,-8.02923012],[112.72044373,-8.02900219],[112.72044373,-8.02857018],[112.72044373,-8.02833939],[112.72065735,-8.02763271],[112.72065735,-8.02755737],[112.72067261,-8.02735233],[112.7204361,-8.02696323],[112.72051239,-8.02680206],[112.72088623,-8.02601242],[112.72093964,-8.02607346],[112.7210083,-8.02610016],[112.72109222,-8.02613831],[112.72118378,-8.02617264],[112.72128296,-8.02621269],[112.72137451,-8.02624035],[112.72151184,-8.02629948],[112.72161865,-8.02631378],[112.72171021,-8.02632523],[112.72184753,-8.02633095],[112.72195435,-8.02632332],[112.72210693,-8.02634621],[112.72214508,-8.02627182],[112.72218323,-8.02617073],[112.7223053,-8.02609444],[112.72250366,-8.02565193],[112.72259521,-8.0255928],[112.72267914,-8.02552605],[112.72276306,-8.02546787],[112.72296906,-8.02535629],[112.72328949,-8.02544785],[112.72338104,-8.02549839],[112.72344208,-8.0255537],[112.72346497,-8.02562428],[112.72348785,-8.02569485],[112.72360229,-8.02574062],[112.72375488,-8.02577877],[112.72396088,-8.02593994],[112.72440338,-8.02612209],[112.72457886,-8.02616596],[112.72465515,-8.0262022],[112.72503662,-8.02628422],[112.72503662,-8.02616024],[112.72505951,-8.02608013],[112.7252121,-8.02569294],[112.72557831,-8.02525425],[112.72562408,-8.02517796],[112.72562408,-8.02503014],[112.72562408,-8.02469635],[112.72563934,-8.02431965],[112.72652435,-8.02435684],[112.72685242,-8.02437115],[112.72722626,-8.02439022],[112.72724152,-8.02425861],[112.72725677,-8.02404976],[112.72727966,-8.02387428],[112.72728729,-8.02375221],[112.72738647,-8.02337456],[112.72760773,-8.02334213],[112.72773743,-8.02275944],[112.72818756,-8.02297401],[112.72850037,-8.02218056],[112.72854614,-8.02209187],[112.72885132,-8.02196789],[112.7293396,-8.02206993],[112.72947693,-8.02169132],[112.72956085,-8.0213995],[112.729599,-8.021245],[112.72963715,-8.02109909],[112.72969055,-8.020998],[112.72973633,-8.02083683],[112.72991943,-8.02095985],[112.73002625,-8.02103043],[112.73018646,-8.02112007],[112.73027039,-8.02115631],[112.73060608,-8.02134991],[112.7307663,-8.02147579],[112.73096466,-8.02157307],[112.7310791,-8.0216608],[112.73120117,-8.02166653],[112.73127747,-8.02160358],[112.73135376,-8.02156353],[112.73136139,-8.02171612],[112.7313385,-8.02182007],[112.7313385,-8.02207851],[112.73130035,-8.0223732],[112.73148346,-8.02244282],[112.73161316,-8.02249527],[112.73168945,-8.02252293],[112.73169708,-8.02260685],[112.73168945,-8.02274704],[112.73184204,-8.0228529],[112.73191071,-8.02289963],[112.73192596,-8.02297115],[112.73204041,-8.02307415],[112.7321701,-8.02318668],[112.73226166,-8.02324867],[112.7323761,-8.02335453],[112.73244476,-8.02351189],[112.73260498,-8.02352333],[112.73270416,-8.02351856],[112.73284912,-8.02360821],[112.73300171,-8.02370071],[112.73309326,-8.02367783],[112.7332077,-8.02369022],[112.73334503,-8.02370834],[112.73343658,-8.02368069],[112.73355103,-8.02367973],[112.73365021,-8.02375031],[112.73375702,-8.02380943],[112.73386383,-8.02385616],[112.73395538,-8.02391148],[112.73400116,-8.02398968],[112.7341156,-8.02409554],[112.73416901,-8.02414703],[112.73419952,-8.02421284],[112.73419189,-8.02434349],[112.73419189,-8.02449703],[112.73419952,-8.02461433],[112.73423004,-8.02472496],[112.73432922,-8.02486992],[112.734375,-8.02496815],[112.73448181,-8.0250597],[112.73455048,-8.02516937],[112.73461151,-8.02527046],[112.73480225,-8.0254097],[112.73509979,-8.02550983],[112.73535156,-8.02557564],[112.7354126,-8.02561378],[112.73551941,-8.02565002],[112.7355423,-8.02573109],[112.73563385,-8.02583027],[112.73590851,-8.02620125],[112.73601532,-8.02638435],[112.73654938,-8.02645683],[112.73667145,-8.02653408],[112.73649597,-8.02692127],[112.73642731,-8.0270319],[112.7365036,-8.02712822],[112.73660278,-8.02719879],[112.73670197,-8.02727127],[112.73682404,-8.02735329],[112.73690796,-8.02740288],[112.73703766,-8.02750015],[112.73719788,-8.02759361],[112.73732758,-8.02770424],[112.73740387,-8.02777195],[112.73749542,-8.02781677],[112.73752594,-8.02772522],[112.7375946,-8.02770042],[112.7378006,-8.02784348],[112.73781586,-8.02794933],[112.7379303,-8.02802372],[112.73801422,-8.02807808],[112.73812866,-8.02814865],[112.73819733,-8.02819157],[112.73843384,-8.02832222],[112.73849487,-8.02838802],[112.73851776,-8.02860737],[112.73851013,-8.02867889],[112.73848724,-8.02885628],[112.73849487,-8.02893829],[112.73856354,-8.02902603],[112.7386322,-8.02915478],[112.73873901,-8.02926445],[112.7388382,-8.02935028],[112.73891449,-8.02936268],[112.73912811,-8.02932167],[112.73920441,-8.02926254],[112.73931885,-8.02913189],[112.73936462,-8.02906609],[112.73943329,-8.02897358],[112.73947144,-8.02890301],[112.73954773,-8.02882099],[112.73969269,-8.02893066],[112.73988342,-8.02907276],[112.74005127,-8.02919197],[112.74015045,-8.02926826],[112.740242,-8.02932739],[112.74036407,-8.02940845],[112.74051666,-8.0295105],[112.74059296,-8.0294857],[112.74082947,-8.02914047],[112.74091339,-8.02918148],[112.7410202,-8.02924633],[112.74118042,-8.02932453],[112.74133301,-8.02939606],[112.74153137,-8.02949524],[112.74168396,-8.02956581],[112.74189758,-8.02967167],[112.74211884,-8.02977657],[112.74226379,-8.02984715],[112.74230194,-8.02970982],[112.74234772,-8.0296154],[112.74237823,-8.02953243],[112.74240112,-8.02940273],[112.74242401,-8.02932835],[112.74245453,-8.02923012],[112.74248505,-8.02913857],[112.74250793,-8.02905369],[112.74407959,-8.02966118],[112.74475861,-8.0297718],[112.7448349,-8.02974796],[112.74536896,-8.02957344],[112.74545288,-8.02959442],[112.74544525,-8.02942753],[112.74546814,-8.02924347],[112.74550629,-8.02914143],[112.74550629,-8.02902985],[112.74552917,-8.0289526],[112.7455368,-8.02882004],[112.74559784,-8.02866936],[112.7458725,-8.02889824],[112.74590302,-8.02904701],[112.74594879,-8.02913666],[112.74612427,-8.02923965],[112.74620056,-8.02929401],[112.74626923,-8.02934265],[112.74638367,-8.02942753],[112.74650574,-8.02951717],[112.74681091,-8.029706],[112.74738312,-8.03024673],[112.74758148,-8.03040409],[112.74767303,-8.03046322],[112.74780273,-8.030509],[112.74790192,-8.03057861],[112.74799347,-8.0306406],[112.74807739,-8.03069592],[112.74819183,-8.03077412],[112.7483139,-8.0308342],[112.74846649,-8.03090477],[112.74923706,-8.03081131],[112.74930573,-8.03108501],[112.74941254,-8.0310545],[112.74951935,-8.03104877],[112.74961853,-8.03107357],[112.74973297,-8.03094959],[112.74989319,-8.03095436],[112.74998474,-8.03094769],[112.75058746,-8.02962399],[112.75077057,-8.0295496],[112.75131989,-8.02837753],[112.75150299,-8.02797318],[112.75139618,-8.02789783],[112.75126648,-8.02780342],[112.7511673,-8.02773857],[112.75102997,-8.02764225],[112.75092316,-8.02756691],[112.7508316,-8.02751923],[112.75076294,-8.02748108],[112.7507782,-8.02739525],[112.75081635,-8.02732944],[112.75088501,-8.02722073],[112.7510376,-8.02704811],[112.75136566,-8.02676201],[112.75147247,-8.02671719],[112.7516098,-8.02670097],[112.75182343,-8.02683258],[112.75190735,-8.02686977],[112.75215149,-8.02688217],[112.75222015,-8.02680206],[112.75247192,-8.02634907],[112.75253296,-8.02623653],[112.75275421,-8.02584839],[112.75285339,-8.02567101],[112.75286102,-8.02558613],[112.75296783,-8.02545452],[112.7530365,-8.02529526],[112.75308228,-8.02516365],[112.75313568,-8.02502728],[112.75325775,-8.0249567],[112.75332642,-8.02483463],[112.75341034,-8.02470303],[112.75353241,-8.02456188],[112.75359344,-8.02449131],[112.75361633,-8.02438831],[112.75365448,-8.02424335],[112.75374603,-8.02404594],[112.75385284,-8.02388096],[112.75395203,-8.02378273],[112.75409698,-8.02377701],[112.75421143,-8.02370167],[112.75437164,-8.02368546],[112.75447083,-8.02363014],[112.75453949,-8.02350807],[112.75457764,-8.02334404],[112.75455475,-8.0232029],[112.75452423,-8.02301216],[112.75457764,-8.02279663],[112.75458527,-8.02256393],[112.75460815,-8.02228642],[112.75462341,-8.02205658],[112.75463867,-8.02195644],[112.75465393,-8.02182007],[112.75501251,-8.02112675],[112.75505829,-8.02099991],[112.75505829,-8.02084064],[112.75506592,-8.02075005],[112.75518036,-8.02052593],[112.75531769,-8.02031517],[112.75546265,-8.02007103],[112.75574493,-8.01967144],[112.755867,-8.0194273],[112.75588989,-8.01912689],[112.75601959,-8.019063],[112.75628662,-8.01903915],[112.75641632,-8.01902866],[112.75649261,-8.01912498],[112.75676727,-8.01935005],[112.75682068,-8.0197401],[112.75726318,-8.02003574],[112.75730896,-8.02015972],[112.75735474,-8.02027512],[112.75720215,-8.0206213],[112.75719452,-8.020854],[112.75730133,-8.02096272],[112.75732422,-8.02114105],[112.75733948,-8.0212841],[112.75719452,-8.02155209],[112.75717163,-8.02167034],[112.7576828,-8.02168465],[112.75814056,-8.02189064],[112.75823975,-8.02216816],[112.75828552,-8.02248478],[112.75830841,-8.02256966],[112.75836182,-8.02266884],[112.75850677,-8.02281189],[112.75873566,-8.02293015],[112.75885773,-8.02295017],[112.75910187,-8.02299023],[112.75925446,-8.02301407],[112.75933075,-8.02303791],[112.75953674,-8.02305984],[112.75960541,-8.02309895],[112.75968933,-8.02317715],[112.75973511,-8.02324772],[112.7598114,-8.02331734],[112.76003265,-8.0235033],[112.76029968,-8.02358723],[112.76064301,-8.0237112],[112.76082611,-8.02375412],[112.76101685,-8.02375317],[112.76115417,-8.02375221],[112.76132202,-8.02375221],[112.76176453,-8.02375031],[112.76191711,-8.02382183],[112.76208496,-8.02387428],[112.76226807,-8.02392197],[112.76242828,-8.02392101],[112.76309204,-8.02412605],[112.76372528,-8.02416706],[112.76383209,-8.02419758],[112.76398468,-8.02431107],[112.76412964,-8.02439499],[112.76424408,-8.02451611],[112.76435089,-8.02460003],[112.7644577,-8.02470493],[112.764534,-8.02476311],[112.76459503,-8.02480888],[112.76470947,-8.02490139],[112.76485443,-8.02501297],[112.76496124,-8.02494907],[112.76501465,-8.02488136],[112.76508331,-8.02478313],[112.76531982,-8.02446365],[112.7654953,-8.02415085],[112.76541901,-8.02402115],[112.7653656,-8.02396584],[112.76507568,-8.02380085],[112.7651062,-8.02356243],[112.76551056,-8.02370167],[112.76557922,-8.02372646],[112.76582336,-8.02372456],[112.76590729,-8.02366352],[112.76603699,-8.02358055],[112.76612091,-8.02352333],[112.76636505,-8.02355671],[112.76648712,-8.02360249],[112.76660156,-8.02358818],[112.76673126,-8.02351379],[112.76676941,-8.02328396],[112.766922,-8.02331924],[112.76719666,-8.02341461],[112.76739502,-8.02350998],[112.76831818,-8.02375698],[112.76838684,-8.02370071],[112.76845551,-8.02365208],[112.7686615,-8.02385902],[112.76911926,-8.02410412],[112.76931763,-8.02420712],[112.76950073,-8.02430725],[112.76945496,-8.02450371],[112.76943207,-8.02458477],[112.76947021,-8.02472401],[112.76964569,-8.02489948],[112.76978302,-8.0250349],[112.77135468,-8.02576351],[112.7720871,-8.02610111],[112.77233124,-8.02639484],[112.77244568,-8.02654171],[112.77257538,-8.02669811],[112.77268982,-8.02681065],[112.77288818,-8.02668762],[112.77306366,-8.02679062],[112.77313995,-8.02685356],[112.77336121,-8.02703762],[112.77365112,-8.02679729],[112.7739563,-8.02659321],[112.77410126,-8.02652645],[112.77417755,-8.02649212],[112.77440643,-8.02644157],[112.77480316,-8.02649784],[112.77516937,-8.02668762],[112.77546692,-8.02668667],[112.77555847,-8.02665138],[112.77581787,-8.02653503],[112.77598572,-8.02641869],[112.77618408,-8.02629185],[112.77651215,-8.02616119],[112.77690887,-8.02615929],[112.7770462,-8.02614403],[112.77713776,-8.02608967],[112.77736664,-8.02617168],[112.77754974,-8.02605629],[112.77770996,-8.02596188],[112.77792358,-8.02598095],[112.77812195,-8.02599907],[112.7781601,-8.02616787],[112.77822113,-8.02624893],[112.77835083,-8.02614212],[112.77855682,-8.02610016],[112.77861023,-8.02622318],[112.77878571,-8.02619839],[112.77901459,-8.02631378],[112.77906036,-8.02637577],[112.77923584,-8.02642918],[112.77946472,-8.02660275],[112.77944183,-8.02671909],[112.77931976,-8.02677727],[112.77916718,-8.02689457],[112.77908325,-8.02693653],[112.77914429,-8.02707767],[112.77923584,-8.0271101],[112.77945709,-8.02711582],[112.77961731,-8.02713108],[112.77970123,-8.0272007],[112.77980042,-8.02729893],[112.77983856,-8.02739048],[112.77972412,-8.02745628],[112.77939606,-8.0274086],[112.77921295,-8.02743435],[112.77912903,-8.02753448],[112.77909851,-8.02771759],[112.77912903,-8.02786541],[112.77929688,-8.02815723],[112.77935791,-8.02825069],[112.77944946,-8.02827263],[112.7795639,-8.02838516],[112.77967834,-8.02850151],[112.77970886,-8.02865314],[112.77962494,-8.02869606],[112.77952576,-8.02884483],[112.77946472,-8.02901268],[112.7794342,-8.02924252],[112.7795105,-8.02926159],[112.78044891,-8.02948856],[112.78123474,-8.02926445],[112.78131104,-8.02900028],[112.78138733,-8.02902031],[112.78175354,-8.02853966],[112.78183746,-8.0284996],[112.7820282,-8.02853012],[112.78218079,-8.02867031],[112.78221893,-8.02880001],[112.78214264,-8.0290699],[112.7820816,-8.02919006],[112.78211975,-8.02933025],[112.78220367,-8.02941036],[112.78247833,-8.0294199],[112.78272247,-8.02943039],[112.78330994,-8.0294199],[112.78368378,-8.0295496],[112.7838974,-8.02962971],[112.78431702,-8.02939034],[112.78456116,-8.02921963],[112.78468323,-8.02917957],[112.78514862,-8.02931023],[112.78529358,-8.02937031],[112.78534698,-8.02952003],[112.78533936,-8.0296402],[112.78526306,-8.02980995],[112.78504181,-8.03011036],[112.78494263,-8.03046989],[112.78514099,-8.03061962],[112.78524017,-8.03065014],[112.78552246,-8.03059959],[112.78578186,-8.03052998],[112.78607941,-8.030509],[112.78679657,-8.03036022],[112.78707123,-8.03024006],[112.78716278,-8.03015995],[112.78717041,-8.03001976],[112.78695679,-8.02970982],[112.7868576,-8.02958012],[112.78682709,-8.02939034],[112.78684998,-8.02917004],[112.78692627,-8.02904034],[112.78713226,-8.02892017],[112.78736115,-8.02888012],[112.78794098,-8.02904034],[112.78819275,-8.02912045],[112.78829193,-8.02908993],[112.78836823,-8.0289402],[112.78852081,-8.02830029],[112.78856659,-8.02822018],[112.78871155,-8.02818012],[112.78881836,-8.02807999],[112.78897858,-8.02779007],[112.78916931,-8.02766037],[112.78933716,-8.02760983],[112.78968811,-8.02766991],[112.79012299,-8.02783966],[112.79022217,-8.02789021],[112.79026031,-8.02796364],[112.79030609,-8.0280571],[112.7903595,-8.02824974],[112.7903595,-8.02845192],[112.79038239,-8.02869129],[112.7904129,-8.02890968],[112.79043579,-8.0290041],[112.7904892,-8.02921009],[112.79078674,-8.02959538],[112.79093933,-8.02970982],[112.79112244,-8.02947044],[112.7911911,-8.02937317],[112.79131317,-8.0291996],[112.79141998,-8.02910995],[112.79183197,-8.02923012],[112.79216003,-8.02908039],[112.79232788,-8.02902031],[112.79314423,-8.02854061],[112.79322815,-8.0284977],[112.79347229,-8.02847385],[112.7937088,-8.02845001],[112.79379272,-8.02842999],[112.7938385,-8.02836418],[112.79390717,-8.02826309],[112.79464722,-8.02791309],[112.7954483,-8.02753735],[112.79564667,-8.02746964],[112.79592896,-8.02748013],[112.79621887,-8.02750015],[112.79653168,-8.02752018],[112.79663849,-8.02745628],[112.79676819,-8.02724171],[112.79688263,-8.02705002],[112.79705811,-8.02670002],[112.79715729,-8.02658367],[112.79721832,-8.02651882],[112.79766846,-8.02630043],[112.79779053,-8.02630043],[112.79814148,-8.0264101],[112.79859924,-8.02700996],[112.7986908,-8.02709961],[112.79890442,-8.02719879],[112.79914856,-8.02723026],[112.79924011,-8.02722359],[112.79994202,-8.02721405],[112.80008698,-8.0272007],[112.8001709,-8.02722263],[112.80020905,-8.02731991],[112.80021667,-8.02755356],[112.80027771,-8.02773952],[112.80036926,-8.02778339],[112.80078125,-8.0278101],[112.8008728,-8.02779961],[112.80117798,-8.02777767],[112.80126953,-8.02775955],[112.80149841,-8.02773952],[112.80213928,-8.0275898],[112.80242157,-8.02750587],[112.80280304,-8.02738953],[112.80342865,-8.02727985],[112.80357361,-8.0272541],[112.80383301,-8.02721024],[112.80391693,-8.027174],[112.804039,-8.02711964],[112.80458832,-8.02665043],[112.80490875,-8.02645969],[112.80503082,-8.02643967],[112.80512238,-8.02647686],[112.80548859,-8.02662659],[112.80565643,-8.02661991],[112.80586243,-8.0264883],[112.80603027,-8.02637959],[112.8067627,-8.02642155],[112.80770111,-8.02624607],[112.80802917,-8.02625084],[112.80886841,-8.02647972],[112.8089447,-8.02649689],[112.8092041,-8.02655029],[112.80940247,-8.02655411],[112.80951691,-8.02655029],[112.80983734,-8.02640533],[112.81031036,-8.02619934],[112.81056976,-8.02612972],[112.81091309,-8.02610874],[112.81115723,-8.02610016],[112.81155396,-8.02614594],[112.81165314,-8.02615738],[112.8118515,-8.02618027],[112.81279755,-8.02618027],[112.81310272,-8.02618027],[112.81374359,-8.02632046],[112.81410217,-8.0264101],[112.81433868,-8.02641964],[112.81465149,-8.02635956],[112.81484222,-8.0262804],[112.81507111,-8.02614021],[112.81533051,-8.02604961],[112.8155899,-8.02598953],[112.81578827,-8.02591038],[112.81616211,-8.0257597],[112.81652069,-8.02569008],[112.81694794,-8.02565002],[112.81719208,-8.02567959],[112.81752014,-8.02579975],[112.81793213,-8.02598953],[112.81832886,-8.02633953],[112.81841278,-8.02639961],[112.8186264,-8.02630997],[112.81890106,-8.02614975],[112.8192215,-8.0260601],[112.81947327,-8.02604961],[112.81974792,-8.02612019],[112.81989288,-8.02614021],[112.82009125,-8.02608967],[112.82026672,-8.02600956],[112.8208313,-8.02587986],[112.82138062,-8.02591038],[112.82157898,-8.02587032],[112.82183075,-8.02571964],[112.82193756,-8.02556992],[112.822052,-8.02536011],[112.82234192,-8.02507973],[112.8224411,-8.02501011],[112.82273102,-8.02474022],[112.82328033,-8.02462959],[112.82350159,-8.02460003],[112.82385254,-8.02443027],[112.82411957,-8.02429962],[112.82462311,-8.02427006],[112.82492828,-8.02414989],[112.82514191,-8.02406979],[112.82588959,-8.02394962],[112.82633209,-8.02394009],[112.82653046,-8.0239296],[112.82669067,-8.02388],[112.82679749,-8.0237999],[112.82688904,-8.02367973],[112.82707214,-8.02363014],[112.8273468,-8.02338982],[112.82749939,-8.02328014],[112.82803345,-8.02340031],[112.82826996,-8.02338028],[112.82843018,-8.02336979],[112.82904816,-8.02332973],[112.82917786,-8.02326965],[112.82926178,-8.0232296],[112.82997131,-8.02258968],[112.83017731,-8.0223999],[112.83055878,-8.02223969],[112.83071136,-8.02210999],[112.83084869,-8.0219698],[112.83112335,-8.02180004],[112.83187866,-8.0216198],[112.83213043,-8.02155972],[112.83229828,-8.02145958],[112.83258057,-8.02087021],[112.83262634,-8.02075768],[112.83283997,-8.02022839],[112.83289337,-8.02003002],[112.83293915,-8.01970959],[112.83302307,-8.01949024],[112.83332062,-8.01908016],[112.83358002,-8.01887035],[112.83419037,-8.01858997],[112.8343277,-8.01854992],[112.83453369,-8.01850986],[112.83529663,-8.01830006],[112.83560181,-8.01821041],[112.83611298,-8.0176897],[112.83615875,-8.01683044],[112.83612061,-8.01628971],[112.83595276,-8.01568031],[112.83583832,-8.0153904],[112.83571625,-8.01508999],[112.83567047,-8.01481724],[112.83565521,-8.01472092],[112.83561707,-8.01451015],[112.83558655,-8.01416016],[112.83576202,-8.01373005],[112.83602905,-8.01327991],[112.83610535,-8.01317883],[112.83628845,-8.01292038],[112.83634186,-8.01284981],[112.83660889,-8.01249027],[112.83670044,-8.01237297],[112.83686829,-8.0121603],[112.83711243,-8.01224041],[112.83728027,-8.01231003],[112.8374176,-8.01231003],[112.83757782,-8.01224041],[112.83782196,-8.01189995],[112.8380127,-8.01163006],[112.83815002,-8.0114603],[112.83863831,-8.01105022],[112.83881378,-8.01107025],[112.83898926,-8.01111031],[112.83908844,-8.01109982],[112.83924866,-8.01091003],[112.8393631,-8.01074982],[112.83953857,-8.01039982],[112.83968353,-8.01012039],[112.83973694,-8.01000023],[112.84004974,-8.00951958],[112.84055328,-8.00870991],[112.84091949,-8.00806999],[112.84117126,-8.00743008],[112.84116364,-8.00676346],[112.84116364,-8.00656986],[112.84112549,-8.00647163],[112.84088898,-8.00576973],[112.84055328,-8.00505924],[112.84015656,-8.00452995],[112.83981323,-8.00417995],[112.83952332,-8.00389004],[112.83911896,-8.00364017],[112.83885193,-8.0034399],[112.83853912,-8.00323963],[112.83643341,-8.00189018],[112.83605194,-8.00197029],[112.83585358,-8.00199032],[112.83532715,-8.0019598],[112.83556366,-8.00179005],[112.83570099,-8.00154972],[112.83587646,-8.00088978],[112.83596802,-8.00069046],[112.8361969,-8.0004797],[112.83641815,-8.00035],[112.83676147,-8.00024986],[112.83699799,-8.00024033],[112.83730316,-8.00028992],[112.83798981,-8.00059032],[112.83808136,-8.00061035],[112.83834076,-8.00043011],[112.83843231,-8.00034046],[112.83859253,-8.0],[112.83876038,-7.99963999],[112.83863068,-7.99953985],[112.83872223,-7.99909019],[112.83885193,-7.99877024],[112.83895111,-7.99863005],[112.83905792,-7.99849987],[112.83934021,-7.99836016],[112.83970642,-7.99798012],[112.83979034,-7.99787998],[112.84028625,-7.99706984],[112.84095764,-7.99597979],[112.84158325,-7.99438],[112.84197235,-7.99339008],[112.84233093,-7.99260998],[112.84246063,-7.99194622],[112.84249115,-7.99179554],[112.84252167,-7.99162865],[112.84264374,-7.99103022],[112.84285736,-7.99052],[112.8431778,-7.98971987],[112.84393311,-7.9886198],[112.84501648,-7.98788023],[112.8453064,-7.98705006],[112.84536743,-7.98597002],[112.84594727,-7.98597002],[112.84615326,-7.98594999],[112.84626007,-7.98589993],[112.84632874,-7.98579979],[112.84622192,-7.98537016],[112.84616852,-7.98507977],[112.84619141,-7.98492002],[112.84625244,-7.98481989],[112.8465271,-7.98488998],[112.84673309,-7.98494005],[112.84690857,-7.98494005],[112.84712982,-7.98485994],[112.847229,-7.98478985],[112.84723663,-7.98448992],[112.84723663,-7.9843502],[112.84731293,-7.98423004],[112.84757233,-7.98408985],[112.84779358,-7.98399019],[112.84797668,-7.98378992],[112.84803772,-7.98318005],[112.8480835,-7.98298979],[112.8481369,-7.98288012],[112.8482132,-7.98283005],[112.84871674,-7.98321009],[112.84896088,-7.98338985],[112.84915924,-7.98344994],[112.84925842,-7.98344994],[112.8493576,-7.98339987],[112.84944916,-7.98303986],[112.84951782,-7.98284006],[112.84979248,-7.98249006],[112.84989929,-7.98233986],[112.84992218,-7.98143005],[112.84993744,-7.9812398],[112.84999847,-7.9811101],[112.8500824,-7.98106003],[112.85030365,-7.98112011],[112.85054016,-7.98120022],[112.85106659,-7.98110008],[112.85162354,-7.9808898],[112.85180664,-7.98077011],[112.85192108,-7.98062992],[112.85196686,-7.97996998],[112.85201263,-7.97980022],[112.85205078,-7.97960997],[112.85209656,-7.97944021],[112.85220337,-7.97930002],[112.85230255,-7.97924995],[112.8526001,-7.97929001],[112.85289001,-7.97934008],[112.85305023,-7.97932005],[112.8531723,-7.97922993],[112.85321045,-7.97903013],[112.85324097,-7.97887993],[112.85333252,-7.97874022],[112.85346985,-7.97865009],[112.85385895,-7.9787302],[112.85443115,-7.97886992],[112.85468292,-7.97891998],[112.85516357,-7.97891998],[112.85529327,-7.97888994],[112.85536194,-7.97880983],[112.85536194,-7.9787302],[112.85523224,-7.97859001],[112.85501862,-7.97842979],[112.8549118,-7.97829008],[112.85487366,-7.97811985],[112.85492706,-7.97799015],[112.85513306,-7.97781992],[112.85533142,-7.9777298],[112.8555603,-7.97771978],[112.85588837,-7.97775984],[112.85613251,-7.97774982],[112.85627747,-7.97767019],[112.85639191,-7.97755003],[112.85643005,-7.97742987],[112.85639191,-7.97726011],[112.85629272,-7.97706985],[112.85627747,-7.9769001],[112.85635376,-7.97671986],[112.85658264,-7.97657013],[112.85675049,-7.97648001],[112.85687256,-7.97631979],[112.85690308,-7.97618008],[112.85659027,-7.97560978],[112.85645294,-7.97537994],[112.85639954,-7.97521019],[112.85642242,-7.97501993],[112.85649872,-7.9749198],[112.856987,-7.97490978],[112.85740662,-7.97477007],[112.85771179,-7.97466993],[112.85788727,-7.97462988],[112.85800934,-7.97454977],[112.85813904,-7.97412014],[112.85798645,-7.97329998],[112.85796356,-7.97308016],[112.85800171,-7.97281981],[112.85806274,-7.97268009],[112.85816956,-7.97258997],[112.85845947,-7.97254992],[112.85932922,-7.97284985],[112.85957336,-7.97291994],[112.85970306,-7.97291994],[112.85984039,-7.97281981],[112.85986328,-7.97271013],[112.85975647,-7.97252989],[112.85970306,-7.97187996],[112.86016083,-7.97173977],[112.86032867,-7.97166014],[112.86048126,-7.97148991],[112.8605423,-7.97134018],[112.86044312,-7.9710598],[112.86032867,-7.97082996],[112.86032104,-7.97067022],[112.86038971,-7.97051001],[112.86058044,-7.97028017],[112.86064911,-7.97009993],[112.8605423,-7.96958017],[112.86051178,-7.96938992],[112.86058044,-7.96917009],[112.86064911,-7.96901989],[112.86062622,-7.96889019],[112.86054993,-7.96872997],[112.86054993,-7.96857977],[112.86106873,-7.96756983],[112.86121368,-7.96733999],[112.86135101,-7.96718979],[112.86148071,-7.96708012],[112.86170197,-7.96693993],[112.86206818,-7.96683979],[112.86219788,-7.96680021],[112.86238098,-7.96657991],[112.86254883,-7.96631002],[112.86277771,-7.96606016],[112.8631897,-7.96583986],[112.86334991,-7.96563005],[112.86351776,-7.96539021],[112.86401367,-7.96503019],[112.86415863,-7.96490002],[112.86424255,-7.96467018],[112.86428833,-7.96442986],[112.86437988,-7.96430016],[112.86464691,-7.96409988],[112.86479187,-7.96377993],[112.86483765,-7.96362019],[112.86488342,-7.96355009],[112.86537933,-7.96311998],[112.8656311,-7.96288013],[112.86582184,-7.96261978],[112.86588287,-7.9625001],[112.86585999,-7.96214008],[112.86589813,-7.96198988],[112.8661499,-7.96171999],[112.86640167,-7.96148014],[112.86646271,-7.96135998],[112.86637115,-7.96113014],[112.86631775,-7.96097994],[112.86634064,-7.96077013],[112.86656952,-7.96039009],[112.86669159,-7.9602499],[112.86675262,-7.96019983],[112.8667984,-7.96010017],[112.86682129,-7.95990992],[112.8669281,-7.95948982],[112.86712646,-7.95914984],[112.86733246,-7.95888996],[112.86759949,-7.95863008],[112.86792755,-7.9583602],[112.86810303,-7.95811987],[112.86830139,-7.95777988],[112.86846924,-7.95746994],[112.86862946,-7.95702982],[112.86875916,-7.95658016],[112.86881256,-7.95639992],[112.8687973,-7.95620012],[112.86878204,-7.95593023],[112.86872101,-7.95555019],[112.8686676,-7.9552002],[112.86863708,-7.95511007],[112.86981964,-7.95356989],[112.87021637,-7.95222998],[112.87045288,-7.95173979],[112.87091827,-7.95061016],[112.87133026,-7.94944],[112.871521,-7.94902992],[112.87187958,-7.94824982],[112.87236023,-7.94735003],[112.87310791,-7.94668007],[112.87414551,-7.94556952],[112.875,-7.94636869],[112.87553406,-7.94685507],[112.87582397,-7.94704866],[112.87612152,-7.94717741],[112.87651062,-7.9473381],[112.87689209,-7.94752884],[112.87760162,-7.94758654],[112.87785339,-7.94762659],[112.87890625,-7.94784355],[112.8789978,-7.94787836],[112.88031006,-7.94820118],[112.88066101,-7.94829559],[112.88128662,-7.94858265],[112.88200378,-7.94896555],[112.8824234,-7.94935131],[112.88291168,-7.94980431],[112.88329315,-7.95019197],[112.88361359,-7.95060778],[112.88385773,-7.95121574],[112.8840332,-7.95164633],[112.8841629,-7.95185614],[112.88463593,-7.9522934],[112.88478088,-7.95239925],[112.88509369,-7.95250273],[112.88573456,-7.95248652],[112.88639832,-7.95239162],[112.88700867,-7.9521122],[112.88817596,-7.95115805],[112.88898468,-7.95041656],[112.88980103,-7.94982004],[112.8903656,-7.94972563],[112.89120483,-7.94986677],[112.89198303,-7.95016575],[112.89277649,-7.95024157],[112.89326477,-7.95018625],[112.89414978,-7.94964218],[112.89491272,-7.94878244],[112.89554596,-7.94789696],[112.89607239,-7.94738388],[112.89744568,-7.94696617],[112.89854431,-7.94681644],[112.90020752,-7.94696665],[112.90164948,-7.94723654],[112.90252686,-7.94757509],[112.90341949,-7.94844055],[112.90393066,-7.94872761],[112.90389252,-7.94896889],[112.90395355,-7.94913626],[112.90409851,-7.94934797],[112.90440369,-7.94956398],[112.90457916,-7.94957781],[112.90489197,-7.94959497],[112.90510559,-7.94971132],[112.90517426,-7.94980049],[112.90512848,-7.94993687],[112.9050293,-7.95012236],[112.90491486,-7.95035696],[112.90491486,-7.95056152],[112.90496826,-7.95075083],[112.90511322,-7.95085335],[112.90529633,-7.95088148],[112.90611267,-7.95080471],[112.90630341,-7.95079613],[112.90643311,-7.95083714],[112.90657806,-7.95119619],[112.90673828,-7.95119715],[112.9068222,-7.95120811],[112.90691376,-7.95122051],[112.90696716,-7.9512825],[112.90698242,-7.95142698],[112.90691376,-7.95167732],[112.90676117,-7.95188713],[112.90659332,-7.95215034],[112.90656281,-7.95244455],[112.90661621,-7.95253611],[112.9067688,-7.95261431],[112.90703583,-7.95268488],[112.90766907,-7.95278883],[112.90782166,-7.95286322],[112.90798187,-7.95301628],[112.90822601,-7.95319891],[112.90898895,-7.95360851],[112.90952301,-7.95368671],[112.91013336,-7.95378256],[112.91051483,-7.95388842],[112.91111755,-7.9541049],[112.91174316,-7.95413542],[112.91179657,-7.95419455],[112.91298676,-7.95311308],[112.91422272,-7.95188189],[112.91485596,-7.95136547],[112.91526794,-7.95132589],[112.91561127,-7.95145416],[112.91603851,-7.95168924],[112.91745758,-7.9526577],[112.91835785,-7.95323324],[112.91950226,-7.95398283],[112.92011261,-7.95425272],[112.92099762,-7.9542222],[112.92157745,-7.953969],[112.92223358,-7.95379496],[112.92308044,-7.95379066],[112.92444611,-7.95407438],[112.92534637,-7.95432043],[112.92665863,-7.9546175],[112.9276123,-7.95478439],[112.92837524,-7.954741],[112.92950439,-7.95480156],[112.93093109,-7.9551115],[112.93249512,-7.9555254],[112.9342041,-7.95587349],[112.93531799,-7.95619583],[112.93505096,-7.95660686],[112.93456268,-7.95693874],[112.93357849,-7.95719337],[112.93213654,-7.95748949],[112.93101501,-7.95791674],[112.93029785,-7.95851278],[112.92960358,-7.95913553],[112.92894745,-7.95999908],[112.92864227,-7.96082592],[112.92855835,-7.9616828],[112.92849731,-7.96236801],[112.9283905,-7.96317196],[112.9281311,-7.96399021],[112.92779541,-7.96486521],[112.92775726,-7.96621799],[112.9278183,-7.96725702],[112.92816925,-7.96860075],[112.92852783,-7.96902084],[112.92996216,-7.97100306],[112.93101501,-7.97278976],[112.93149567,-7.9736042],[112.93231964,-7.97444344],[112.9330368,-7.97516489],[112.9335022,-7.97579479],[112.93403625,-7.97676754],[112.93463898,-7.97798967],[112.93481445,-7.97890902],[112.93505096,-7.97902012],[112.93518829,-7.97907591],[112.93526459,-7.97915125],[112.93536377,-7.97928333],[112.93547821,-7.97946692],[112.93553925,-7.9798069],[112.93564606,-7.97988176],[112.93592834,-7.97999001],[112.93608093,-7.97995949],[112.936203,-7.98002338],[112.93638611,-7.98020411],[112.93667603,-7.98055744],[112.93695831,-7.98063326],[112.93727875,-7.98071003],[112.93749237,-7.98080969],[112.93791962,-7.98110008],[112.93820953,-7.98112154],[112.93846893,-7.98119831],[112.93963623,-7.98112345],[112.94003296,-7.98124313],[112.94025421,-7.98139143],[112.94042206,-7.98164177],[112.94055176,-7.98184776],[112.94078827,-7.98211861],[112.94107056,-7.98230648],[112.94135284,-7.9825325],[112.94154358,-7.98272085],[112.94189453,-7.98302698],[112.94219971,-7.983356],[112.94125366,-7.98465109],[112.94015503,-7.98612356],[112.93926239,-7.98773861],[112.93849182,-7.98929119],[112.93791962,-7.9904151],[112.9377594,-7.99099827],[112.93773651,-7.99108839],[112.93758392,-7.99253654],[112.93755341,-7.99416733],[112.93753815,-7.99549246],[112.93746948,-7.99630308],[112.93743896,-7.99669552],[112.93651581,-7.99903154],[112.93647003,-7.99941397],[112.93636322,-8.00000095],[112.93628693,-8.00028515],[112.93596649,-8.00057316],[112.93531036,-8.00092983],[112.9349823,-8.00101757],[112.93442535,-8.00106335],[112.93395233,-8.00093842],[112.93334961,-8.00060558],[112.93293762,-8.00025845],[112.93278503,-8.00013065],[112.93273163,-7.99998522],[112.93161774,-7.99908686],[112.93096161,-7.99849892],[112.93038177,-7.99799204],[112.92923737,-7.99728394],[112.92847443,-7.9969821],[112.92786407,-7.99682188],[112.92751312,-7.99682331],[112.9270401,-7.99711037],[112.92663574,-7.99809122],[112.92635345,-7.99907064],[112.92596436,-8.0],[112.9258728,-8.00028896],[112.9258728,-8.00051308],[112.92584991,-8.00177956],[112.92596436,-8.00246811],[112.92620087,-8.00304699],[112.92655182,-8.00351429],[112.92710114,-8.0040741],[112.9275589,-8.0045433],[112.9280014,-8.00493813],[112.92829132,-8.00538921],[112.92858887,-8.00574684],[112.92904663,-8.00649738],[112.92916107,-8.00667191],[112.92944336,-8.00709438],[112.92963409,-8.0076046],[112.92989349,-8.00805092],[112.93014526,-8.00841522],[112.93106842,-8.00936031],[112.93152618,-8.00977421],[112.93204498,-8.01025391],[112.93269348,-8.01096535],[112.93320465,-8.0114584],[112.93371582,-8.0120697],[112.93408966,-8.01241779],[112.9344101,-8.01305389],[112.93455505,-8.01336765],[112.93464661,-8.01355743],[112.93476105,-8.013978],[112.93486023,-8.01447964],[112.93492126,-8.01502705],[112.93497467,-8.01548672],[112.93494415,-8.01609993],[112.93492889,-8.01691246],[112.93493652,-8.01759338],[112.93486786,-8.01808929],[112.93473053,-8.01875687],[112.93444824,-8.01912975],[112.93396759,-8.01954079],[112.93294525,-8.02024269],[112.93260193,-8.02045441],[112.93199921,-8.02082825],[112.93122864,-8.0214386],[112.93044281,-8.02208042],[112.92971039,-8.02260876],[112.92893982,-8.02315044],[112.92839813,-8.02360821],[112.92796326,-8.02402496],[112.92772675,-8.02429581],[112.92734528,-8.02485371],[112.92684937,-8.0257349],[112.92601013,-8.02702236],[112.92533875,-8.02809048],[112.92482758,-8.02910995],[112.92458344,-8.0297184],[112.92406464,-8.03041267],[112.92360687,-8.03084278],[112.92327881,-8.0311985],[112.92269897,-8.03175831],[112.92227936,-8.03197193],[112.92163849,-8.0320797],[112.92082214,-8.03225517],[112.92028046,-8.03241253],[112.9196701,-8.03246117],[112.91892242,-8.03253365],[112.91824341,-8.03267193],[112.91757202,-8.03298569],[112.91699219,-8.03341389],[112.91631317,-8.03397655],[112.91556549,-8.03479195],[112.91493988,-8.03532791],[112.91464233,-8.03557682],[112.91407776,-8.03606033],[112.91356659,-8.03686714],[112.91309357,-8.03767872],[112.9127121,-8.03827381],[112.91220093,-8.03874302],[112.91138458,-8.03937435],[112.90988922,-8.04063034],[112.90940857,-8.04113579],[112.90898132,-8.04162693],[112.90861511,-8.04214668],[112.90844727,-8.04244041],[112.90834045,-8.04279423],[112.90829468,-8.04331398],[112.90836334,-8.0444231],[112.90834045,-8.04567337],[112.90843964,-8.04648113],[112.90873718,-8.04734421],[112.90895081,-8.04817295],[112.90905762,-8.04878712],[112.90913391,-8.04950905],[112.90916443,-8.05002594],[112.90911102,-8.05039597],[112.90892792,-8.05085278],[112.90834808,-8.05154991],[112.90736389,-8.05244255],[112.90633392,-8.05344391],[112.90578461,-8.05415249],[112.90549469,-8.05458164],[112.90492249,-8.05502892],[112.90367889,-8.05576324],[112.902771,-8.05652809],[112.90219879,-8.05701923],[112.90177917,-8.05739689],[112.90148926,-8.0578146],[112.90110779,-8.05846596],[112.90060425,-8.05936527],[112.9003067,-8.05993271],[112.90008545,-8.06055355],[112.89997864,-8.06113815],[112.89995575,-8.06161976],[112.90000153,-8.06227398],[112.90007019,-8.0628643],[112.89997864,-8.0637989],[112.89994049,-8.06424999],[112.8999939,-8.06498528],[112.90023041,-8.06593704],[112.90040588,-8.06688595],[112.90053558,-8.06751156],[112.90061188,-8.06820202],[112.90070343,-8.06904125],[112.90076447,-8.06991959],[112.90080261,-8.07082367],[112.9008255,-8.07151031],[112.90097809,-8.07204151],[112.90129852,-8.0726223],[112.90159607,-8.07312298],[112.90207672,-8.07366657],[112.90290833,-8.07421589],[112.90330505,-8.07457542],[112.90369415,-8.07507801],[112.90464783,-8.07725239],[112.90484619,-8.07809448],[112.90499878,-8.07887554],[112.90513611,-8.07978725],[112.90530396,-8.08027172],[112.90538025,-8.0805788],[112.90582275,-8.08156013],[112.90607452,-8.08174419],[112.90665436,-8.08186531],[112.90735626,-8.08184528],[112.90877533,-8.08183479],[112.90966034,-8.08194351],[112.91046906,-8.08191299],[112.91110992,-8.08189487],[112.91163635,-8.08188057],[112.91215515,-8.08198547],[112.9127655,-8.08241844],[112.91338348,-8.08297539],[112.91384125,-8.08352566],[112.91428375,-8.08410263],[112.91473389,-8.08459091],[112.91509247,-8.08503342],[112.91543579,-8.08538151],[112.9158783,-8.08568954],[112.91635895,-8.08592129],[112.91718292,-8.08611393],[112.91796112,-8.08631516],[112.91868591,-8.08642483],[112.91976166,-8.08645248],[112.92102051,-8.08646011],[112.92164612,-8.08636761],[112.92243195,-8.08636284],[112.92276001,-8.08640575],[112.92315674,-8.08695889],[112.92311859,-8.08777905],[112.92293549,-8.08880329],[112.92275238,-8.08983517],[112.9227066,-8.0906105],[112.92271423,-8.09157848],[112.92262268,-8.09249401],[112.92234802,-8.09334087],[112.92205048,-8.0941391],[112.92155457,-8.09541416],[112.92146301,-8.09608555],[112.92137909,-8.0966444],[112.9213028,-8.09768391],[112.92137909,-8.09914207],[112.92152405,-8.10089779],[112.92160034,-8.1024189],[112.92169189,-8.10352135],[112.92176056,-8.10472393],[112.921875,-8.10581779],[112.92195129,-8.10657692],[112.92199707,-8.10703754],[112.92201996,-8.10741711],[112.92217255,-8.10778618],[112.92025757,-8.10844994],[112.9193573,-8.10848999],[112.91835022,-8.10855007],[112.91744232,-8.10861015],[112.91674042,-8.10871983],[112.91590881,-8.10890961],[112.91516876,-8.10910034],[112.9141922,-8.10931969],[112.91316223,-8.10939026],[112.91242218,-8.10941029],[112.91159058,-8.10931969],[112.91069794,-8.10925961],[112.90955353,-8.10931015],[112.90833282,-8.10945034],[112.90725708,-8.10951042],[112.90685272,-8.10951042],[112.90602875,-8.10951996],[112.90429688,-8.10949993],[112.90277863,-8.10945988],[112.90146637,-8.10951042],[112.90000916,-8.10956955],[112.89839172,-8.10958004],[112.89694214,-8.10958958],[112.89581299,-8.10972023],[112.89453125,-8.10976982],[112.89402771,-8.10972977],[112.89285278,-8.10966015],[112.89215851,-8.10962009],[112.89161682,-8.10956001],[112.89102936,-8.10953999],[112.89044952,-8.10937023],[112.88986969,-8.10921001],[112.88918304,-8.10900021],[112.88844299,-8.10890007],[112.88774872,-8.10888958],[112.88720703,-8.10894966],[112.8866806,-8.1090498],[112.88600159,-8.10933971],[112.88522339,-8.10955048],[112.88488007,-8.10962963],[112.88471985,-8.10966969],[112.88401031,-8.10976028],[112.88327026,-8.10988045],[112.88272858,-8.10999012],[112.88205719,-8.11017036],[112.88163757,-8.11028004],[112.88143921,-8.11032009],[112.88079071,-8.11040974],[112.88005829,-8.11044025],[112.87892151,-8.1105299],[112.87863922,-8.11054993],[112.87808228,-8.11058998],[112.87743378,-8.1106596],[112.87654877,-8.11067009],[112.87626648,-8.11073971],[112.87596893,-8.11081982],[112.8755722,-8.11095047],[112.87521362,-8.11112022],[112.87506866,-8.11124992],[112.87499237,-8.11131001],[112.87489319,-8.11139011],[112.87467957,-8.11151028],[112.87457275,-8.1115799],[112.87444305,-8.11168003],[112.87438202,-8.11174011],[112.87432861,-8.1117897],[112.87420654,-8.11190987],[112.87400818,-8.1117897],[112.87368774,-8.11182022],[112.87335968,-8.11182022],[112.87300873,-8.11180019],[112.87268829,-8.1117897],[112.87258911,-8.11178017],[112.87251282,-8.11176968],[112.87241364,-8.11174011],[112.87229156,-8.11170006],[112.87213135,-8.11163044],[112.87198639,-8.11155987],[112.87190247,-8.11151028],[112.87181854,-8.11147022],[112.87169647,-8.11141014],[112.87158203,-8.1113596],[112.87145996,-8.11131001],[112.87133789,-8.11126041],[112.87120056,-8.11122036],[112.87106323,-8.11118984],[112.87088013,-8.11116028],[112.87068176,-8.11108971],[112.87052917,-8.11102009],[112.87036896,-8.11096001],[112.87020111,-8.11091042],[112.87003326,-8.11083984],[112.86985779,-8.1107502],[112.86972809,-8.11065006],[112.86956787,-8.11050034],[112.86943054,-8.11034966],[112.86930847,-8.11025047],[112.86923218,-8.1101799],[112.86916351,-8.11013031],[112.8690567,-8.11003971],[112.86882019,-8.10984993],[112.86859131,-8.10966969],[112.86843872,-8.10958004],[112.86833191,-8.10951996],[112.86821747,-8.10945034],[112.86804199,-8.10935974],[112.86779785,-8.10921001],[112.86766815,-8.10906982],[112.86737061,-8.10875988],[112.8671875,-8.10861015],[112.86695099,-8.10832977],[112.86652374,-8.1079998],[112.86616516,-8.10783863],[112.86608124,-8.10779953],[112.865242,-8.10754013],[112.86469269,-8.10746002],[112.86403656,-8.10725021],[112.86299133,-8.1068697],[112.86226654,-8.10661983],[112.86160278,-8.10638142],[112.85417938,-8.10407162],[112.85408783,-8.10406971],[112.85359192,-8.10394955],[112.85308838,-8.10383034],[112.8523407,-8.10354996],[112.85211182,-8.1034832],[112.85197449,-8.1034174],[112.84951019,-8.10220337],[112.84922028,-8.10205936],[112.8471756,-8.10105133],[112.84412384,-8.09977341],[112.84355927,-8.09949684],[112.84308624,-8.09926224],[112.84262085,-8.09874916],[112.84275055,-8.09867954],[112.84205627,-8.09862041],[112.84107208,-8.09803009],[112.84026337,-8.09766006],[112.83937836,-8.09729004],[112.83856964,-8.09689999],[112.83773804,-8.09659004],[112.83750153,-8.09652996],[112.83663177,-8.09630013],[112.83576965,-8.09619999],[112.83480835,-8.09617043],[112.83399963,-8.09613991],[112.83348083,-8.0961504],[112.83286285,-8.09626961],[112.83204651,-8.09648037],[112.83084869,-8.09679985],[112.82949829,-8.09710979],[112.82784271,-8.09749031],[112.82652283,-8.09780979],[112.82559204,-8.09794044],[112.82531738,-8.09799004],[112.82432556,-8.09814167],[112.82422638,-8.09820747],[112.82417297,-8.09827995],[112.82402802,-8.09838963],[112.82386017,-8.09845448],[112.8237915,-8.09848022],[112.82359314,-8.09850025],[112.8230896,-8.09850025],[112.82230377,-8.09850979],[112.82209015,-8.09860992],[112.82182312,-8.09878063],[112.8216095,-8.09891987],[112.82144165,-8.09887028],[112.82112885,-8.09883022],[112.82102966,-8.09894943],[112.82082367,-8.09916019],[112.82061005,-8.09918022],[112.82032776,-8.09916496],[112.81997681,-8.09971714],[112.81994629,-8.09984016],[112.81987,-8.10000992],[112.81977844,-8.10002708],[112.81963348,-8.09998035],[112.81945038,-8.09992886],[112.81917572,-8.09985256],[112.81904602,-8.09993744],[112.81903076,-8.10000992],[112.81894684,-8.10025978],[112.81886292,-8.10027981],[112.81867981,-8.1001997],[112.81854248,-8.10017014],[112.818367,-8.10017109],[112.81822205,-8.10109043],[112.81813812,-8.10126972],[112.81812286,-8.10142994],[112.81806183,-8.10177994],[112.81797028,-8.10200119],[112.81784821,-8.10206985],[112.81767273,-8.10206985],[112.81712341,-8.10210991],[112.81693268,-8.10233974],[112.81674194,-8.10252953],[112.81652069,-8.10268974],[112.81616211,-8.10289001],[112.81598663,-8.10291004],[112.8155899,-8.10287952],[112.81533813,-8.10289955],[112.81510925,-8.10291958],[112.81491852,-8.10301971],[112.81450653,-8.10326958],[112.81430817,-8.10327721],[112.81410217,-8.10340309],[112.81391907,-8.10371208],[112.81381989,-8.10387039],[112.81369019,-8.10393047],[112.81346893,-8.1040802],[112.81311798,-8.10435009],[112.81292725,-8.1043396],[112.81272888,-8.10424042],[112.81256866,-8.10406971],[112.81248474,-8.10394955],[112.81209564,-8.10375977],[112.81144714,-8.10408783],[112.81172943,-8.10454178],[112.81204224,-8.10486031],[112.81195068,-8.10492992],[112.81137085,-8.10519028],[112.81123352,-8.1052103],[112.81098938,-8.1052103],[112.81086731,-8.10525894],[112.81072998,-8.1054697],[112.81066895,-8.10560989],[112.81047058,-8.10583019],[112.81004333,-8.10620975],[112.80992889,-8.10626984],[112.80979156,-8.10634041],[112.80964661,-8.10645962],[112.80948639,-8.10655022],[112.80902863,-8.10669994],[112.80886078,-8.10665989],[112.80856323,-8.10681343],[112.80802917,-8.10698986],[112.80786133,-8.10706997],[112.80749512,-8.10731411]
					]
				]
			}
		}
	]
}