{
	"type": "FeatureCollection",
	"features": [
		{
			"type": "Feature",
			"properties": {
				"ISO": "IDN",
				"PROVINSI":"Jawa Timur",
				"KABUPATEN":"Malang",
				"KECAMATAN": "Turen",
				"CODE":	"35.07.09"
			},
			"geometry": {
				"type": "Polygon",
				"coordinates": [
					[
						[112.63998413,-8.23778248],[112.64030457,-8.23637486],[112.64057922,-8.23519325],[112.64078522,-8.2347765],[112.64016724,-8.23470879],[112.63932037,-8.23424149],[112.63987732,-8.23298073],[112.64001465,-8.23267269],[112.64051819,-8.23156929],[112.64059448,-8.23140717],[112.64104462,-8.23042488],[112.64108276,-8.23032856],[112.64163971,-8.22924519],[112.64170074,-8.22913361],[112.64237213,-8.2278204],[112.64280701,-8.22696972],[112.64330292,-8.22599697],[112.64357758,-8.2255106],[112.64382172,-8.22505951],[112.64432526,-8.22384071],[112.64447021,-8.22354507],[112.64485931,-8.2231493],[112.64533234,-8.22267532],[112.64541626,-8.22246838],[112.64549255,-8.22229099],[112.64556122,-8.22212982],[112.64560699,-8.22203827],[112.64576721,-8.22203827],[112.64585876,-8.22180271],[112.64648438,-8.22011375],[112.64765167,-8.21681786],[112.64730835,-8.21650887],[112.64656067,-8.21584225],[112.64567566,-8.21509552],[112.64485931,-8.21431828],[112.64682007,-8.21123981],[112.64762115,-8.20997047],[112.6488266,-8.20807457],[112.64894867,-8.20787525],[112.64935303,-8.20722198],[112.64942169,-8.20708847],[112.64945984,-8.20700932],[112.64968109,-8.20672894],[112.64983368,-8.20653725],[112.65006256,-8.2062521],[112.65119171,-8.20611286],[112.65170288,-8.20604897],[112.65179443,-8.20608425],[112.65187073,-8.20611477],[112.65194702,-8.20604515],[112.65210724,-8.20601654],[112.65260315,-8.20598221],[112.65272522,-8.20596695],[112.65301514,-8.20590687],[112.6533432,-8.20588112],[112.65363312,-8.20583057],[112.65374756,-8.2058115],[112.65392303,-8.20580482],[112.65401459,-8.20580196],[112.65455627,-8.20573902],[112.65475464,-8.20571423],[112.65499115,-8.20568466],[112.65525055,-8.20566845],[112.65702057,-8.20546818],[112.65818024,-8.20534134],[112.65981293,-8.20509911],[112.65988922,-8.20508862],[112.66085052,-8.20495987],[112.66127014,-8.20490646],[112.66447449,-8.20460033],[112.6654129,-8.20454502],[112.66702271,-8.2045908],[112.66732788,-8.20459747],[112.6688385,-8.20462704],[112.66874695,-8.20445633],[112.66976166,-8.20265388],[112.67071533,-8.20127296],[112.67111206,-8.2005415],[112.67140961,-8.20052433],[112.67155457,-8.20029831],[112.67190552,-8.19965076],[112.67176819,-8.19933128],[112.67198944,-8.19891739],[112.67225647,-8.19903755],[112.67240143,-8.19879436],[112.67261505,-8.19841862],[112.67301178,-8.19771099],[112.67324829,-8.19727612],[112.67341614,-8.19696617],[112.67362976,-8.19659996],[112.67344666,-8.19652081],[112.67359161,-8.19609833],[112.67384338,-8.19566727],[112.67408752,-8.19523048],[112.67456818,-8.19436264],[112.67483521,-8.19387436],[112.67486572,-8.19378567],[112.67466736,-8.19371605],[112.67410278,-8.1934166],[112.67318726,-8.19280243],[112.67384338,-8.19121075],[112.67377472,-8.19116211],[112.67140961,-8.18944836],[112.67113495,-8.18942928],[112.67046356,-8.18938065],[112.67047119,-8.18670845],[112.67047882,-8.18655205],[112.67045593,-8.18639565],[112.67041779,-8.18593884],[112.66997528,-8.18503857],[112.6690979,-8.18348885],[112.66889954,-8.18323803],[112.66907501,-8.18286037],[112.6689682,-8.1826086],[112.66885376,-8.18216324],[112.66867065,-8.18151569],[112.6685257,-8.18105888],[112.6684494,-8.18056774],[112.66841125,-8.18036175],[112.66827393,-8.18030643],[112.66821289,-8.18001938],[112.66810608,-8.17909908],[112.66809082,-8.17901707],[112.6680603,-8.17893696],[112.66821289,-8.17879581],[112.66842651,-8.17879486],[112.668396,-8.17861271],[112.66853333,-8.17855549],[112.6685791,-8.17848682],[112.66867065,-8.17810535],[112.66863251,-8.17798519],[112.66864014,-8.17788506],[112.66873169,-8.17742729],[112.66863251,-8.1773119],[112.66844177,-8.17711067],[112.66847229,-8.17693615],[112.66851807,-8.17685795],[112.66862488,-8.17672348],[112.66870117,-8.17668438],[112.66890717,-8.17661095],[112.66896057,-8.17633343],[112.66899109,-8.17618942],[112.66967773,-8.17584419],[112.66977692,-8.17579269],[112.67022705,-8.17543983],[112.67037201,-8.17533684],[112.67069244,-8.17511177],[112.67105865,-8.1748476],[112.67123413,-8.17467594],[112.67154694,-8.1743679],[112.67163849,-8.17415524],[112.67182922,-8.1736927],[112.67182159,-8.17351341],[112.67185974,-8.17324543],[112.67179871,-8.17289162],[112.67169952,-8.17273331],[112.67141724,-8.17255878],[112.6713562,-8.17240047],[112.67128754,-8.17234039],[112.67119598,-8.17229271],[112.67106628,-8.17221737],[112.67114258,-8.17208481],[112.67134857,-8.17187977],[112.67180634,-8.17178535],[112.67193604,-8.17175961],[112.67201996,-8.17165184],[112.67205048,-8.17155933],[112.67192078,-8.1714325],[112.67242432,-8.1707716],[112.67284393,-8.17023468],[112.67292023,-8.17014027],[112.67300415,-8.17004013],[112.67301178,-8.16995144],[112.67282867,-8.16977787],[112.67274475,-8.16964912],[112.67280579,-8.16926765],[112.67282104,-8.16916656],[112.6729126,-8.16897678],[112.67320251,-8.16884422],[112.67333984,-8.16868591],[112.67342377,-8.16856003],[112.67333221,-8.16841125],[112.67313385,-8.16846466],[112.67305756,-8.16848469],[112.672966,-8.16837692],[112.6727829,-8.16819096],[112.67261505,-8.16810513],[112.67251587,-8.16809845],[112.67247772,-8.16800499],[112.67241669,-8.16773987],[112.6722641,-8.16756821],[112.67205811,-8.16751194],[112.67185974,-8.16692352],[112.67188263,-8.16682243],[112.67193604,-8.16666412],[112.67195129,-8.16651344],[112.67191315,-8.16637707],[112.67181396,-8.16621208],[112.67175293,-8.16605473],[112.6717453,-8.16592503],[112.67175293,-8.16575336],[112.67151642,-8.16550636],[112.67140961,-8.16546917],[112.67127228,-8.165205],[112.6702652,-8.16486549],[112.67016602,-8.16483402],[112.67033386,-8.16406631],[112.66905212,-8.16370583],[112.66892242,-8.16367531],[112.6689682,-8.1634388],[112.66842651,-8.16321564],[112.66828156,-8.16316128],[112.66841125,-8.16257858],[112.66842651,-8.16249561],[112.66789246,-8.16231346],[112.66782379,-8.16221142],[112.66641235,-8.16161728],[112.66638947,-8.16153431],[112.66579437,-8.16123772],[112.66589355,-8.16097832],[112.66580963,-8.16092873],[112.66587067,-8.16076946],[112.66570282,-8.160676],[112.66591644,-8.16022873],[112.66584778,-8.16014576],[112.66589355,-8.16003895],[112.6657486,-8.15997219],[112.6653595,-8.15969753],[112.66510773,-8.15963459],[112.66513824,-8.1595583],[112.66524506,-8.15937614],[112.66529846,-8.15918922],[112.66468811,-8.15893936],[112.66491699,-8.15783024],[112.66513824,-8.1578455],[112.6652832,-8.15782833],[112.66536713,-8.1577158],[112.6654129,-8.15744209],[112.6656723,-8.15732861],[112.6658783,-8.1569252],[112.66596222,-8.1569252],[112.66648865,-8.15689087],[112.66668701,-8.1565361],[112.66706848,-8.15635777],[112.66734314,-8.15587425],[112.66737366,-8.15579319],[112.66828918,-8.15559196],[112.66847229,-8.15550137],[112.66832733,-8.1554575],[112.66834259,-8.1552887],[112.66850281,-8.15521431],[112.66860199,-8.1548214],[112.66893005,-8.15478706],[112.66900635,-8.15468597],[112.66925812,-8.15460491],[112.66936493,-8.15432549],[112.66964722,-8.15423012],[112.66971588,-8.15407181],[112.66976166,-8.15394974],[112.67002106,-8.15400219],[112.67015076,-8.15369511],[112.67076874,-8.15409279],[112.67072296,-8.15384483],[112.67070007,-8.15373898],[112.67063904,-8.15352249],[112.67061615,-8.15334511],[112.67060089,-8.15320015],[112.6705246,-8.15312099],[112.67047119,-8.15302849],[112.67031097,-8.15288544],[112.67017365,-8.15270329],[112.6701355,-8.15260506],[112.67015076,-8.15251541],[112.67023468,-8.15238857],[112.67031097,-8.15231705],[112.6707077,-8.15176773],[112.67076111,-8.15171337],[112.67075348,-8.15152645],[112.67048645,-8.15136147],[112.67050934,-8.15126991],[112.67059326,-8.1508522],[112.67061615,-8.15075016],[112.67058563,-8.15053463],[112.67048645,-8.15028667],[112.67058563,-8.15017033],[112.67073059,-8.1499939],[112.67064667,-8.14987373],[112.67076874,-8.14969444],[112.67082977,-8.14961338],[112.67095947,-8.14959145],[112.6710968,-8.14956856],[112.67136383,-8.14946938],[112.67137146,-8.14913845],[112.67160034,-8.14904881],[112.67170715,-8.14872932],[112.67176056,-8.14856148],[112.67185974,-8.14820385],[112.67206573,-8.14795685],[112.67224121,-8.14774704],[112.67230988,-8.14738655],[112.67273712,-8.14702511],[112.67331696,-8.14680004],[112.67347717,-8.14627171],[112.67352295,-8.14613819],[112.67359924,-8.14511585],[112.67357635,-8.14469051],[112.67352295,-8.14384747],[112.67364502,-8.14306736],[112.6740799,-8.1427002],[112.67461395,-8.14189434],[112.67490387,-8.14118767],[112.67529297,-8.14055252],[112.67424011,-8.14004517],[112.67495728,-8.13573265],[112.67394257,-8.13504791],[112.67378235,-8.13501453],[112.67362976,-8.13496208],[112.67391968,-8.13353539],[112.67392731,-8.13345242],[112.67401123,-8.13346481],[112.67415619,-8.1334753],[112.67542267,-8.13364792],[112.67566681,-8.13316059],[112.67575836,-8.13294792],[112.67591095,-8.1326685],[112.67603302,-8.13244247],[112.67618561,-8.13235855],[112.67722321,-8.13177967],[112.67770386,-8.13110065],[112.67800903,-8.13067245],[112.67824554,-8.13036919],[112.67867279,-8.12991905],[112.67892456,-8.12965679],[112.679039,-8.12952518],[112.67910767,-8.12944794],[112.67929077,-8.12924194],[112.67951202,-8.1290102],[112.6796875,-8.12875175],[112.67978668,-8.12861538],[112.68016052,-8.12812424],[112.68032837,-8.12790298],[112.68050385,-8.12768078],[112.68067932,-8.12747669],[112.68084717,-8.12727642],[112.68096924,-8.1270771],[112.6808548,-8.12701607],[112.68241882,-8.12461853],[112.68247223,-8.1245203],[112.68271637,-8.12422752],[112.68286133,-8.12397766],[112.68356323,-8.12282276],[112.68386078,-8.12232876],[112.68408966,-8.12206745],[112.68493652,-8.12232399],[112.68523407,-8.12176228],[112.68535614,-8.12152767],[112.68537903,-8.12145901],[112.68540955,-8.12137413],[112.68558502,-8.12089634],[112.68565369,-8.12043381],[112.68567657,-8.12032986],[112.68589783,-8.11962795],[112.68595886,-8.11958981],[112.686203,-8.11964703],[112.68653107,-8.11974144],[112.68659973,-8.1197691],[112.68670654,-8.11951923],[112.68696594,-8.11894321],[112.68729401,-8.11904621],[112.68735504,-8.1189003],[112.68759918,-8.11835384],[112.6881485,-8.11855698],[112.68839264,-8.11860943],[112.68852234,-8.11862278],[112.6885376,-8.11842728],[112.68859863,-8.11793804],[112.68880463,-8.11780739],[112.68888855,-8.11784172],[112.68911743,-8.11792088],[112.69010925,-8.11827087],[112.69058228,-8.11844158],[112.69294739,-8.11928082],[112.69530487,-8.11966896],[112.69577789,-8.1176796],[112.69579315,-8.11760616],[112.69615173,-8.11767864],[112.69644928,-8.11680508],[112.69650269,-8.11658764],[112.69811249,-8.11706829],[112.69803619,-8.11736774],[112.69781494,-8.11848068],[112.69763184,-8.11960506],[112.69878387,-8.11977768],[112.69993591,-8.1199398],[112.69997406,-8.12002659],[112.69960022,-8.12177753],[112.69963074,-8.12188053],[112.70002747,-8.12185764],[112.70024872,-8.12185669],[112.70043945,-8.12193298],[112.70085907,-8.12210178],[112.70162201,-8.12240791],[112.70155334,-8.12276459],[112.70116425,-8.12463474],[112.70246124,-8.12519455],[112.70267487,-8.12524986],[112.7029953,-8.12469006],[112.70309448,-8.12454224],[112.70378113,-8.12480736],[112.7053299,-8.12541199],[112.70662689,-8.12594986],[112.70697021,-8.12602139],[112.70708466,-8.12594891],[112.70718384,-8.12593842],[112.70786285,-8.12499332],[112.70807648,-8.12482071],[112.70826721,-8.12476063],[112.70843506,-8.12452793],[112.70857239,-8.12432766],[112.70861053,-8.12425232],[112.70862579,-8.12402439],[112.70863342,-8.12391472],[112.70870209,-8.12369728],[112.70880127,-8.12361908],[112.70915222,-8.12361813],[112.70940399,-8.12370872],[112.70964813,-8.12388611],[112.70960236,-8.12436199],[112.70957184,-8.12444687],[112.70904541,-8.12530518],[112.7074585,-8.12790203],[112.70705414,-8.12861919],[112.70635986,-8.12984943],[112.70753479,-8.13050079],[112.70870972,-8.13115501],[112.70870972,-8.13123417],[112.70870972,-8.13133335],[112.70870972,-8.13147831],[112.70866394,-8.13158989],[112.70845032,-8.13173485],[112.70864868,-8.1319809],[112.70885468,-8.13214207],[112.708992,-8.13228512],[112.70906067,-8.13235188],[112.70832825,-8.13269806],[112.70778656,-8.13327217],[112.70760345,-8.13347149],[112.70761871,-8.1335659],[112.70764923,-8.13372326],[112.70773315,-8.13419819],[112.70750427,-8.1350708],[112.70726776,-8.13595581],[112.70684052,-8.13648605],[112.70671844,-8.13669968],[112.70666504,-8.13684177],[112.70655823,-8.13699341],[112.70642853,-8.13729],[112.70617676,-8.13776016],[112.70588684,-8.13819981],[112.70584106,-8.13826847],[112.70568848,-8.13848972],[112.70549774,-8.13876438],[112.7052536,-8.13904953],[112.7050705,-8.13920021],[112.70497131,-8.13930988],[112.70481873,-8.13949013],[112.70451355,-8.13986015],[112.70440674,-8.14002037],[112.70429993,-8.14019012],[112.70410919,-8.14041996],[112.70426178,-8.14090443],[112.70552826,-8.14090538],[112.70613098,-8.14120388],[112.70670319,-8.14137363],[112.70819092,-8.14165783],[112.70863342,-8.14178562],[112.70907593,-8.14200401],[112.70993805,-8.14218235],[112.71107483,-8.14241982],[112.71137238,-8.14236355],[112.71175385,-8.14236164],[112.71216583,-8.14235973],[112.71290588,-8.1424675],[112.71295166,-8.14217758],[112.71299744,-8.14200497],[112.7133255,-8.14083862],[112.71347046,-8.1408987],[112.71419525,-8.14104366],[112.71465302,-8.14100456],[112.71489716,-8.14093018],[112.71592712,-8.14098072],[112.71772003,-8.14075184],[112.71923828,-8.14052486],[112.71982574,-8.14028263],[112.72011566,-8.14022636],[112.72100067,-8.14033699],[112.7213974,-8.14033508],[112.72130585,-8.14045143],[112.72122192,-8.14056969],[112.72132111,-8.14075089],[112.72129059,-8.14097881],[112.72122192,-8.14152336],[112.72131348,-8.14218426],[112.7223587,-8.14324379],[112.72254944,-8.14343739],[112.7227478,-8.14428616],[112.72272491,-8.14445114],[112.72271729,-8.14456081],[112.72265625,-8.14513588],[112.72272491,-8.1452179],[112.7230072,-8.14555359],[112.72315216,-8.14564037],[112.72337341,-8.14577007],[112.72401428,-8.14588737],[112.72425079,-8.14589596],[112.72449493,-8.14590454],[112.72458649,-8.14593124],[112.7250824,-8.14609718],[112.72546387,-8.14609528],[112.72568512,-8.14609432],[112.72625732,-8.14622498],[112.72649384,-8.14559841],[112.72685242,-8.14560032],[112.72763062,-8.14562035],[112.72892761,-8.14580441],[112.72899628,-8.14657497],[112.72947693,-8.14668083],[112.72943878,-8.14740849],[112.72961426,-8.14743614],[112.72956848,-8.14765739],[112.72970581,-8.147686],[112.72970581,-8.14778423],[112.72988892,-8.14763641],[112.73000336,-8.14755726],[112.73052979,-8.14751339],[112.73069,-8.14749718],[112.73088837,-8.14741802],[112.73134613,-8.14727402],[112.73145294,-8.14714813],[112.73158264,-8.1470747],[112.73168182,-8.14704227],[112.73178864,-8.14706326],[112.731987,-8.14713955],[112.73200226,-8.14728832],[112.7321701,-8.14745998],[112.73236847,-8.14747524],[112.73245239,-8.14744377],[112.73265076,-8.14643955],[112.73275757,-8.14627552],[112.73285675,-8.1461153],[112.73285675,-8.14564228],[112.73301697,-8.14566231],[112.73303223,-8.14558983],[112.73300934,-8.14522743],[112.73301697,-8.14515305],[112.73368073,-8.14530277],[112.73409271,-8.14504147],[112.73448944,-8.14553261],[112.73511505,-8.1458416],[112.73592377,-8.14557838],[112.73654175,-8.14580345],[112.73791504,-8.14519024],[112.73799896,-8.14515305],[112.73843384,-8.14511395],[112.73855591,-8.14512348],[112.73877716,-8.14513969],[112.73950195,-8.14524364],[112.73961639,-8.14525986],[112.73970795,-8.14527035],[112.7401123,-8.14527988],[112.74046326,-8.14525032],[112.7407074,-8.1452198],[112.74085236,-8.14519024],[112.74095154,-8.14513493],[112.74143219,-8.14488029],[112.74159241,-8.1447897],[112.74167633,-8.14472961],[112.74182892,-8.14466],[112.74230957,-8.1445303],[112.74253082,-8.14449978],[112.74282074,-8.14451981],[112.7430191,-8.14459038],[112.74317169,-8.14468956],[112.74324036,-8.14474964],[112.74343109,-8.14492989],[112.74359131,-8.14500999],[112.74367523,-8.14500999],[112.74398804,-8.14526367],[112.74433136,-8.14539719],[112.74443054,-8.14538002],[112.74475861,-8.14561653],[112.74484253,-8.14563751],[112.74521637,-8.14561176],[112.74575043,-8.14589977],[112.74594879,-8.14597034],[112.74607086,-8.14599991],[112.74616241,-8.14601994],[112.74636841,-8.14618015],[112.74645233,-8.14624023],[112.74662781,-8.14634991],[112.74688721,-8.14636993],[112.74707031,-8.14630985],[112.74755096,-8.14632988],[112.74806976,-8.14663029],[112.74887848,-8.14715958],[112.74901581,-8.14725113],[112.74919891,-8.14737034],[112.74949646,-8.1476202],[112.74976349,-8.14793968],[112.74999237,-8.14822006],[112.75016785,-8.14836025],[112.75051117,-8.14871979],[112.7505722,-8.14877987],[112.75067139,-8.14885616],[112.75090027,-8.1490097],[112.75108337,-8.1491003],[112.75145721,-8.14908028],[112.75180054,-8.14900017],[112.75251007,-8.14910984],[112.75315094,-8.14920998],[112.75351715,-8.14920044],[112.75418091,-8.1491003],[112.75469208,-8.14898968],[112.75482941,-8.14896011],[112.75511932,-8.1489296],[112.75595093,-8.14908028],[112.75639343,-8.14912987],[112.75746155,-8.14923954],[112.75785828,-8.14927006],[112.75837708,-8.14918041],[112.75875854,-8.14902973],[112.7590332,-8.14887047],[112.76019287,-8.14874077],[112.76076508,-8.14862823],[112.76067352,-8.14967155],[112.76065063,-8.15000057],[112.76064301,-8.15008736],[112.7605896,-8.15028667],[112.76051331,-8.15053654],[112.76049042,-8.15099335],[112.76048279,-8.15109634],[112.7604599,-8.15145969],[112.7604599,-8.15185738],[112.76047516,-8.15251255],[112.76097107,-8.15268421],[112.7614212,-8.15276623],[112.76174927,-8.15274525],[112.76209259,-8.15275383],[112.76242828,-8.15287495],[112.76300049,-8.15302086],[112.76325989,-8.15279007],[112.76334381,-8.15251637],[112.76345825,-8.15236282],[112.76367188,-8.15213966],[112.7637558,-8.15215588],[112.76389313,-8.15215492],[112.76412201,-8.15213108],[112.76445007,-8.15207958],[112.76462555,-8.1521349],[112.76502991,-8.15226173],[112.76585388,-8.15250492],[112.7661438,-8.15256977],[112.76656342,-8.15264988],[112.76688385,-8.15277767],[112.7671051,-8.15279007],[112.76735687,-8.15274048],[112.76753235,-8.15254116],[112.76761627,-8.15247059],[112.76768494,-8.15241528],[112.76785278,-8.15228176],[112.76828766,-8.15216064],[112.7684021,-8.15209103],[112.76863861,-8.15192604],[112.76890564,-8.15162086],[112.76922607,-8.15162849],[112.7694397,-8.15163326],[112.76951599,-8.15167141],[112.76979828,-8.15181351],[112.77000427,-8.15178394],[112.77017212,-8.15146732],[112.77060699,-8.15135002],[112.77134705,-8.15134716],[112.77160645,-8.15143013],[112.77196503,-8.15154457],[112.77252197,-8.15236473],[112.77259064,-8.15246582],[112.77194214,-8.15367031],[112.77179718,-8.15404415],[112.77111053,-8.15416145],[112.77108765,-8.15437889],[112.77108002,-8.15467834],[112.77183533,-8.15515423],[112.77255249,-8.1552372],[112.77295685,-8.15524578],[112.77324677,-8.15622044],[112.77319336,-8.15722561],[112.77325439,-8.15766525],[112.77328491,-8.15788651],[112.77306366,-8.15796757],[112.77297211,-8.15800285],[112.77281189,-8.15810585],[112.77276611,-8.15819931],[112.77262878,-8.15846252],[112.77243042,-8.15927887],[112.77178192,-8.15943432],[112.7715683,-8.1610136],[112.77117157,-8.16268539],[112.77099609,-8.1626873],[112.76947784,-8.16255283],[112.76850128,-8.162467],[112.7682724,-8.16244602],[112.7671814,-8.16214657],[112.7665863,-8.16200829],[112.7662735,-8.16193581],[112.76486206,-8.16180706],[112.76283264,-8.16169643],[112.76255035,-8.16165352],[112.76093292,-8.16140556],[112.76062775,-8.15998745],[112.76062775,-8.15963173],[112.76067352,-8.15939808],[112.76052094,-8.15934753],[112.76033783,-8.15937519],[112.76007843,-8.15935421],[112.75984192,-8.15924835],[112.75970459,-8.15902805],[112.75943756,-8.1584692],[112.7593689,-8.15776348],[112.75897217,-8.15769958],[112.75901794,-8.15702438],[112.7590332,-8.1567812],[112.75898743,-8.15668964],[112.75884247,-8.15668583],[112.75850677,-8.15678406],[112.75842285,-8.15664673],[112.75830841,-8.15645695],[112.75856781,-8.15534878],[112.75862885,-8.15507793],[112.75810242,-8.15481758],[112.75797272,-8.15410614],[112.75794983,-8.15399075],[112.75790405,-8.15370369],[112.75775909,-8.15361214],[112.75772858,-8.15346146],[112.75749207,-8.15338993],[112.75734711,-8.15342999],[112.75701141,-8.15359497],[112.7561264,-8.15386772],[112.75582123,-8.15373993],[112.75541687,-8.15359974],[112.75524139,-8.15361023],[112.75508118,-8.15369987],[112.75504303,-8.15379047],[112.75491333,-8.15402031],[112.75478363,-8.15409565],[112.75435638,-8.15402699],[112.7541275,-8.15396976],[112.75395966,-8.15402985],[112.75379181,-8.15423965],[112.75360107,-8.15443993],[112.75338745,-8.15456963],[112.75318146,-8.15462971],[112.75298309,-8.15460014],[112.75241089,-8.15456009],[112.75157928,-8.15468025],[112.75122833,-8.15474987],[112.75050354,-8.1548996],[112.75031281,-8.15497017],[112.75016022,-8.15503979],[112.75003052,-8.15508747],[112.74984741,-8.15519142],[112.74964905,-8.15530968],[112.74945831,-8.15542984],[112.74900818,-8.15577984],[112.74894714,-8.15586185],[112.74876404,-8.15610409],[112.74843597,-8.1561718],[112.7480011,-8.15640163],[112.74732208,-8.15676689],[112.74726105,-8.15681934],[112.74727631,-8.15689564],[112.74704742,-8.15711021],[112.74684143,-8.15730953],[112.74672699,-8.15736961],[112.74660492,-8.15742207],[112.74636841,-8.15752125],[112.7459259,-8.15760422],[112.7457962,-8.15754986],[112.7457428,-8.15748024],[112.74568939,-8.15740013],[112.74546814,-8.15703964],[112.74536133,-8.15692997],[112.74523926,-8.15687275],[112.74514771,-8.15682983],[112.74503326,-8.15680027],[112.74482727,-8.15676022],[112.74450684,-8.15670013],[112.74433899,-8.15670013],[112.74420929,-8.15670013],[112.74397278,-8.15676975],[112.74385071,-8.15682983],[112.74355316,-8.15699673],[112.74347687,-8.15703964],[112.74331665,-8.15717125],[112.74304199,-8.15737534],[112.74241638,-8.15737724],[112.74226379,-8.15732956],[112.74217987,-8.15730476],[112.74180603,-8.15720463],[112.74160767,-8.15719032],[112.74121857,-8.15723991],[112.74111938,-8.15727043],[112.74104309,-8.15732956],[112.74088287,-8.15752029],[112.74067688,-8.15767002],[112.74054718,-8.15777969],[112.74046326,-8.15773773],[112.74015045,-8.15758419],[112.73988342,-8.15797901],[112.73954773,-8.1582613],[112.7390976,-8.15817928],[112.7386322,-8.15783215],[112.73854065,-8.15777969],[112.73821259,-8.15768814],[112.73810577,-8.15765858],[112.73728943,-8.15749931],[112.73712158,-8.15755939],[112.73699951,-8.15758896],[112.73666382,-8.15786171],[112.73640442,-8.15786266],[112.73606873,-8.15786362],[112.73570251,-8.15750313],[112.73560333,-8.15740681],[112.735466,-8.15747929],[112.73539734,-8.15765285],[112.73530579,-8.15779114],[112.73486328,-8.1577549],[112.73474884,-8.15780449],[112.73462677,-8.15770912],[112.73402405,-8.15745831],[112.73358154,-8.15756416],[112.73339081,-8.15752792],[112.73323822,-8.15754795],[112.73288727,-8.1572504],[112.73260498,-8.1571207],[112.73245239,-8.15704823],[112.73179626,-8.15673923],[112.73162079,-8.15658474],[112.7314682,-8.15664196],[112.73143005,-8.15675068],[112.73152924,-8.15715313],[112.73152924,-8.15735531],[112.73138428,-8.15749264],[112.73114014,-8.15766716],[112.73094177,-8.15778923],[112.73073578,-8.15779972],[112.73051453,-8.15772915],[112.72994995,-8.15769386],[112.72935486,-8.15730286],[112.72917938,-8.15719032],[112.72910309,-8.1573267],[112.72888947,-8.15772343],[112.72885895,-8.15780449],[112.72889709,-8.15950871],[112.72898865,-8.16023731],[112.72899628,-8.16085148],[112.72884369,-8.16105652],[112.72842407,-8.16155624],[112.72837067,-8.16180515],[112.72831726,-8.16204357],[112.72816467,-8.16272926],[112.7278595,-8.16296291],[112.72786713,-8.16304111],[112.72728729,-8.16331673],[112.72685242,-8.16384506],[112.72672272,-8.16462326],[112.72650146,-8.16520691],[112.72624207,-8.16599751],[112.72535706,-8.16664886],[112.72509766,-8.16683578],[112.72483826,-8.16745186],[112.72479248,-8.16755867],[112.72489166,-8.1676178],[112.72478485,-8.16830349],[112.72441101,-8.16844082],[112.72432709,-8.16867638],[112.72420502,-8.16886234],[112.72403717,-8.16902447],[112.72377777,-8.16908741],[112.72360992,-8.16918659],[112.72331238,-8.16928673],[112.72317505,-8.16936207],[112.72306061,-8.16958523],[112.72305298,-8.16977024],[112.72306061,-8.16989422],[112.72297668,-8.17014217],[112.72284698,-8.17020321],[112.7227478,-8.1702528],[112.72261047,-8.17026138],[112.72252655,-8.17024708],[112.72240448,-8.17022514],[112.72232819,-8.17025852],[112.72206879,-8.17029285],[112.72158051,-8.17048359],[112.72136688,-8.17078114],[112.72106934,-8.17083645],[112.72016907,-8.1707325],[112.7201004,-8.17076588],[112.71960449,-8.1710043],[112.7190094,-8.17111492],[112.71879578,-8.171278],[112.71874237,-8.1716013],[112.7183609,-8.17184544],[112.71800995,-8.17198181],[112.71781921,-8.17222881],[112.71755219,-8.17248726],[112.71743774,-8.17274094],[112.71736145,-8.17295742],[112.71733856,-8.17302704],[112.71738434,-8.17323685],[112.7173996,-8.17349815],[112.7173996,-8.17360973],[112.7169342,-8.17371273],[112.71617889,-8.17374229],[112.71582794,-8.1737709],[112.71556091,-8.17393398],[112.71546936,-8.17400265],[112.7154007,-8.17411232],[112.71538544,-8.17425537],[112.7157135,-8.17448044],[112.71589661,-8.17460632],[112.7159729,-8.17467308],[112.71608734,-8.17479897],[112.71607208,-8.17491722],[112.71607208,-8.17503452],[112.71607208,-8.17512703],[112.71591949,-8.17526245],[112.7158432,-8.17535496],[112.71572113,-8.17546844],[112.71559906,-8.17562675],[112.71548462,-8.1757412],[112.71539307,-8.17657852],[112.71535492,-8.17690086],[112.71525574,-8.17743778],[112.71512604,-8.17761517],[112.71479034,-8.17763138],[112.71451569,-8.17755222],[112.71438599,-8.1773634],[112.71400452,-8.17720318],[112.71353912,-8.17709732],[112.71305847,-8.17715359],[112.71276093,-8.17739773],[112.71263885,-8.17839241],[112.7125473,-8.17933941],[112.71255493,-8.18012142],[112.71244049,-8.18020058],[112.7123642,-8.1802578],[112.71192932,-8.18009758],[112.71155548,-8.18001842],[112.71098328,-8.18007469],[112.71042633,-8.18048954],[112.71030426,-8.18057823],[112.71017456,-8.1806612],[112.70992279,-8.1808567],[112.70964813,-8.18119049],[112.70948029,-8.18161869],[112.70942688,-8.18186474],[112.70941162,-8.18194675],[112.70938873,-8.18215561],[112.70941162,-8.18249226],[112.70942688,-8.18262005],[112.70943451,-8.1827383],[112.70950317,-8.18305397],[112.70976257,-8.18356419],[112.70988464,-8.1837368],[112.70998383,-8.18397331],[112.7100296,-8.18410969],[112.71002197,-8.18436432],[112.71001434,-8.18446445],[112.70996094,-8.18461037],[112.70986176,-8.1847744],[112.70976257,-8.18485069],[112.70961761,-8.18493938],[112.70942688,-8.18503952],[112.70925903,-8.18508625],[112.70909119,-8.18516922],[112.70885468,-8.18537903],[112.70855713,-8.18588066],[112.70853424,-8.18595123],[112.70838165,-8.18630886],[112.70827484,-8.18654633],[112.70818329,-8.18686485],[112.70805359,-8.1870842],[112.70793915,-8.18729401],[112.70786285,-8.1873579],[112.70773315,-8.1874218],[112.70766449,-8.18745804],[112.70754242,-8.18750477],[112.70742035,-8.18755913],[112.70726013,-8.18756008],[112.7071228,-8.18751526],[112.70689392,-8.18750763],[112.70666504,-8.18754387],[112.70646667,-8.18775463],[112.70639801,-8.18790054],[112.70628357,-8.18805599],[112.70627594,-8.18832684],[112.7062912,-8.18843746],[112.70626068,-8.1885376],[112.70632935,-8.18881989],[112.70644379,-8.18901062],[112.70648193,-8.18922901],[112.70664978,-8.1896286],[112.70685577,-8.19002724],[112.70698547,-8.19034576],[112.70700836,-8.1906004],[112.70695496,-8.19071865],[112.70684052,-8.1908102],[112.70671082,-8.19083786],[112.706604,-8.19088364],[112.70652008,-8.19092941],[112.70639038,-8.19094849],[112.70627594,-8.19099426],[112.70610809,-8.19107723],[112.70593262,-8.19114113],[112.70568848,-8.19118786],[112.70536041,-8.19129562],[112.70488739,-8.19151878],[112.70467377,-8.19164753],[112.70442963,-8.19172668],[112.70427704,-8.19177628],[112.70406342,-8.19195938],[112.70391846,-8.19214153],[112.70391083,-8.19242382],[112.70415497,-8.19285965],[112.70423889,-8.1931324],[112.70423126,-8.19342327],[112.70410156,-8.19359684],[112.70400238,-8.19372463],[112.70385742,-8.19393444],[112.70375824,-8.19408035],[112.7035675,-8.19450855],[112.70352936,-8.19489098],[112.7037735,-8.19517231],[112.7038269,-8.19545364],[112.70385742,-8.19573593],[112.70376587,-8.1960001],[112.70379639,-8.1963644],[112.70396423,-8.19660854],[112.7045517,-8.19692612],[112.70476532,-8.19712448],[112.70480347,-8.19728184],[112.70488739,-8.19764233],[112.70494843,-8.19809723],[112.70516968,-8.19840527],[112.70552826,-8.19850349],[112.70594025,-8.19838333],[112.70626068,-8.19819164],[112.70695496,-8.19816399],[112.70719147,-8.19838715],[112.70716095,-8.19861507],[112.70678711,-8.19902611],[112.70648956,-8.19919109],[112.70624542,-8.19943237],[112.70615387,-8.19970226],[112.7061615,-8.19982052],[112.70631409,-8.20003796],[112.70713043,-8.20025253],[112.7071991,-8.20031738],[112.70735168,-8.20046997],[112.70744324,-8.20071602],[112.70737457,-8.20088005],[112.70716095,-8.20101738],[112.70643616,-8.20118141],[112.70613098,-8.20124912],[112.70594788,-8.2012043],[112.70584869,-8.2010231],[112.70556641,-8.20072365],[112.70537567,-8.20065212],[112.70509338,-8.2006979],[112.7048645,-8.20115757],[112.70467377,-8.20168304],[112.70471191,-8.20270157],[112.7042923,-8.20333958],[112.70418549,-8.20350647],[112.7040863,-8.20364571],[112.7039032,-8.2038393],[112.70381927,-8.20392895],[112.70328522,-8.20421886],[112.70281219,-8.20447445],[112.70263672,-8.20471668],[112.7024231,-8.20499897],[112.70237732,-8.20509624],[112.70227814,-8.20528984],[112.70214844,-8.20555878],[112.70219421,-8.20595646],[112.70220184,-8.2060318],[112.70256042,-8.20614338],[112.70348358,-8.20606041],[112.70349121,-8.20623398],[112.70317078,-8.2067976],[112.70313263,-8.20717144],[112.70316315,-8.20734978],[112.70323181,-8.20773792],[112.70298767,-8.2081337],[112.70271301,-8.20803642],[112.7025528,-8.2079792],[112.7017746,-8.20725727],[112.70152283,-8.20720482],[112.70120239,-8.20713806],[112.70108795,-8.20723724],[112.7009964,-8.20733929],[112.70101166,-8.20747375],[112.70103455,-8.20766068],[112.70111847,-8.20796299],[112.70098114,-8.20820904],[112.70091248,-8.20826054],[112.70078278,-8.2083807],[112.70064545,-8.20857906],[112.70056152,-8.20857906],[112.70026398,-8.20858097],[112.69989777,-8.20877171],[112.69976044,-8.20900726],[112.6996994,-8.20925331],[112.69974518,-8.20946503],[112.69972992,-8.20963192],[112.69963837,-8.20979881],[112.69952393,-8.20985413],[112.6993866,-8.20989799],[112.69883728,-8.21007252],[112.69876099,-8.21009731],[112.69858551,-8.21049213],[112.69854736,-8.21056747],[112.69838715,-8.21089458],[112.69825745,-8.21116829],[112.69816589,-8.21159458],[112.6984787,-8.21189308],[112.69854736,-8.21197701],[112.69882202,-8.21231556],[112.69933319,-8.21326447],[112.69939423,-8.21337318],[112.69967651,-8.21406364],[112.7000351,-8.2152462],[112.7000351,-8.21531963],[112.70004272,-8.21567059],[112.70001984,-8.21601391],[112.70000458,-8.21611309],[112.69992828,-8.2164526],[112.699646,-8.21686172],[112.69932556,-8.21721458],[112.69929504,-8.21735382],[112.69921875,-8.21766758],[112.69918823,-8.21807575],[112.69928741,-8.21840858],[112.69936371,-8.21863174],[112.69944763,-8.21882153],[112.69960022,-8.21899605],[112.69962311,-8.21909332],[112.699646,-8.21929741],[112.69969177,-8.21945572],[112.69966888,-8.21956921],[112.69904327,-8.21963024],[112.69841003,-8.21965981],[112.69771576,-8.21967697],[112.69752502,-8.21964169],[112.69732666,-8.21960163],[112.69705963,-8.21958065],[112.69692993,-8.21956921],[112.69684601,-8.21971607],[112.69667816,-8.22000122],[112.69661713,-8.22005081],[112.69641113,-8.22030067],[112.6963501,-8.22092152],[112.69639587,-8.22111988],[112.69641876,-8.22140884],[112.69644165,-8.22166634],[112.69673157,-8.22210026],[112.6971283,-8.22218132],[112.69741821,-8.2225523],[112.69802094,-8.2226944],[112.69870758,-8.2231884],[112.69895935,-8.22335052],[112.69882202,-8.22402382],[112.69799042,-8.22400379],[112.69739532,-8.22398853],[112.69548798,-8.2239418],[112.69613647,-8.22418213],[112.69676971,-8.22465229],[112.69708252,-8.22479248],[112.69704437,-8.22489166],[112.69669342,-8.22530937],[112.6954422,-8.2259407],[112.69537354,-8.22597599],[112.69464874,-8.22612762],[112.69446564,-8.22616673],[112.69390869,-8.2262888],[112.69335938,-8.22643185],[112.69328308,-8.22644997],[112.69252014,-8.2266798],[112.69194031,-8.22675037],[112.69155884,-8.22689915],[112.6912384,-8.22724056],[112.69116211,-8.22744274],[112.69099426,-8.22786522],[112.69085693,-8.22837543],[112.69082642,-8.22851181],[112.69055176,-8.22895432],[112.69036102,-8.22920418],[112.68968201,-8.22961521],[112.6892395,-8.22990036],[112.68875885,-8.22998142],[112.6884079,-8.23011875],[112.68814087,-8.23025608],[112.68786621,-8.23022366],[112.68774414,-8.23024368],[112.68744659,-8.2300396],[112.68727875,-8.22972965],[112.68713379,-8.22930622],[112.68708801,-8.22918987],[112.68704224,-8.22879028],[112.68689728,-8.22840977],[112.68660736,-8.22824001],[112.686203,-8.22800922],[112.6856842,-8.22810268],[112.68537903,-8.22848892],[112.68519592,-8.22873878],[112.68495941,-8.2291708],[112.6847229,-8.22929573],[112.6844635,-8.22955799],[112.68437958,-8.22987556],[112.6844101,-8.2301302],[112.68443298,-8.23029423],[112.68457031,-8.23056602],[112.68468475,-8.23075771],[112.68475342,-8.23090458],[112.68475342,-8.23107433],[112.68473816,-8.23119926],[112.68457031,-8.23133564],[112.68436432,-8.23143864],[112.68343353,-8.23144245],[112.6831131,-8.23160267],[112.68284607,-8.23178482],[112.68257904,-8.2320118],[112.68228912,-8.23242187],[112.68193054,-8.23305798],[112.68180847,-8.2331934],[112.68187714,-8.2335453],[112.68154144,-8.23383045],[112.68099976,-8.23423004],[112.68037415,-8.2344017],[112.67955017,-8.2344799],[112.67947388,-8.23442841],[112.67915344,-8.23421001],[112.67835999,-8.23340988],[112.677742,-8.23225021],[112.67729187,-8.23188877],[112.67675018,-8.2317543],[112.67597961,-8.23187065],[112.67551422,-8.23211002],[112.67512512,-8.2322588],[112.67520905,-8.23250771],[112.67510223,-8.23272324],[112.67492676,-8.23309803],[112.67476654,-8.2336998],[112.67515564,-8.23395824],[112.67542267,-8.23392296],[112.67568207,-8.2340498],[112.67625427,-8.2340498],[112.6764679,-8.2340498],[112.67684937,-8.2342701],[112.67690277,-8.2344799],[112.67687225,-8.23501968],[112.67671967,-8.23556042],[112.67652893,-8.23579884],[112.6761322,-8.23578262],[112.67572784,-8.23566723],[112.67533112,-8.2353735],[112.67472076,-8.23480415],[112.67449951,-8.2345953],[112.67401886,-8.23460865],[112.67385864,-8.23460674],[112.67353058,-8.23449039],[112.67326355,-8.23421001],[112.67288971,-8.23394966],[112.67250824,-8.23389053],[112.67210388,-8.23358631],[112.67163849,-8.23383713],[112.6714859,-8.23402214],[112.67119598,-8.23437119],[112.67056274,-8.23497486],[112.66998291,-8.2354517],[112.66969299,-8.23569202],[112.66903687,-8.23620415],[112.66845703,-8.23649025],[112.66804504,-8.23670673],[112.66759491,-8.23679924],[112.6672821,-8.23682785],[112.66655731,-8.23689461],[112.6662674,-8.23676682],[112.66612244,-8.23670578],[112.66565704,-8.23650169],[112.66551971,-8.23556232],[112.66590881,-8.23457432],[112.66618347,-8.23382092],[112.66590881,-8.23369312],[112.66572571,-8.23361492],[112.66560364,-8.23356056],[112.66532898,-8.23346043],[112.66504669,-8.2333498],[112.66468811,-8.23328972],[112.6643219,-8.23330975],[112.66416931,-8.23338985],[112.66394806,-8.23383999],[112.66377258,-8.23437977],[112.66365051,-8.23472977],[112.6635437,-8.23490047],[112.66325378,-8.23499012],[112.66280365,-8.23499012],[112.66230774,-8.23472023],[112.66166687,-8.23456955],[112.66127777,-8.23468018],[112.66104126,-8.23501968],[112.66072845,-8.23548985],[112.66052246,-8.23565006],[112.65991211,-8.23560715],[112.65921021,-8.23544979],[112.65873718,-8.23542023],[112.6585083,-8.23550034],[112.65834045,-8.23569965],[112.65811157,-8.23593044],[112.65798187,-8.23606014],[112.65772247,-8.23612022],[112.65731049,-8.23606014],[112.65682983,-8.23573017],[112.65643311,-8.23528957],[112.65618134,-8.23488998],[112.65596771,-8.23462677],[112.65586853,-8.23451042],[112.65563965,-8.23441029],[112.65544128,-8.23441029],[112.6552887,-8.23449993],[112.65505981,-8.23462963],[112.65464783,-8.23497009],[112.65445709,-8.23513412],[112.65421295,-8.23534012],[112.65381622,-8.23562145],[112.65361786,-8.23575974],[112.65350342,-8.23585033],[112.6532135,-8.23585987],[112.65284729,-8.23577976],[112.65229034,-8.23581982],[112.65193939,-8.23602962],[112.65138245,-8.23620033],[112.65116882,-8.23622036],[112.65086365,-8.23618984],[112.6506424,-8.23593998],[112.65055847,-8.23571014],[112.65067291,-8.23521042],[112.65090942,-8.23478985],[112.65107727,-8.23445034],[112.65110016,-8.23408985],[112.65088654,-8.23367023],[112.65052032,-8.2332201],[112.65032959,-8.23309517],[112.6500473,-8.23291016],[112.64924622,-8.23258972],[112.64875793,-8.23243046],[112.6481781,-8.23233986],[112.64756775,-8.2321701],[112.64689636,-8.23200989],[112.64633942,-8.23196983],[112.64607239,-8.23194981],[112.64595795,-8.23194981],[112.64585876,-8.23184967],[112.64566803,-8.23180771],[112.64552307,-8.23173618],[112.6448822,-8.23178005],[112.64455414,-8.23186302],[112.644104,-8.23207092],[112.6437912,-8.2322979],[112.64377594,-8.23250389],[112.6437912,-8.23276997],[112.64402008,-8.23302746],[112.64416504,-8.23309708],[112.64430237,-8.23319817],[112.6443634,-8.23329163],[112.64447021,-8.23345661],[112.64491272,-8.23414803],[112.64434814,-8.23502445],[112.64426422,-8.23502636],[112.64279175,-8.23503208],[112.64234161,-8.23559952],[112.64230347,-8.2357502],[112.64228821,-8.23586369],[112.64228058,-8.23636341],[112.64227295,-8.23680973],[112.64219666,-8.23700047],[112.64198303,-8.23721981],[112.64176178,-8.23731804],[112.64167023,-8.23736],[112.64067841,-8.23766994],[112.64056396,-8.23769474],[112.63998413,-8.23778248]
					]
				]
			}
		}
	]
}