{
	"type": "FeatureCollection",
	"features": [
		{
			"type": "Feature",
			"properties": {
				"ISO": "IDN",
				"PROVINSI":"Jawa Timur",
				"KABUPATEN":"Malang",
				"KECAMATAN": "Wajak",
				"CODE":	"35.07.08"
			},
			"geometry": {
				"type": "Polygon",
				"coordinates": [
					[
						[]
					]
				]
			}
		}
	]
}